data/raw/AD/ad3.csv

Channel              :,CH1
Frequency            :,	?
Period               :,  ?
PK-PK                :,510.0mV?
Average              :,-0.192mV?
Vertical pos         :,22.000000mV
Probe attenuation    :,1X
Voltage per ADC value:,0.125000mV
Time interval        :,2000.00000uS

index,CH1_Voltage(mV)
1,68.000000
2,68.000000
3,68.000000
4,62.000000
5,68.000000
6,62.000000
7,68.000000
8,68.000000
9,66.000000
10,68.000000
11,64.000000
12,68.000000
13,66.000000
14,62.000000
15,60.000000
16,62.000000
17,64.000000
18,66.000000
19,66.000000
20,64.000000
21,68.000000
22,68.000000
23,68.000000
24,50.000000
25,62.000000
26,54.000000
27,58.000000
28,64.000000
29,64.000000
30,68.000000
31,66.000000
32,64.000000
33,82.000000
34,68.000000
35,64.000000
36,62.000000
37,66.000000
38,68.000000
39,64.000000
40,62.000000
41,72.000000
42,68.000000
43,58.000000
44,64.000000
45,62.000000
46,62.000000
47,66.000000
48,66.000000
49,64.000000
50,62.000000
51,66.000000
52,68.000000
53,60.000000
54,68.000000
55,60.000000
56,66.000000
57,64.000000
58,78.000000
59,66.000000
60,58.000000
61,68.000000
62,66.000000
63,72.000000
64,62.000000
65,54.000000
66,66.000000
67,62.000000
68,58.000000
69,74.000000
70,64.000000
71,60.000000
72,58.000000
73,60.000000
74,54.000000
75,42.000000
76,58.000000
77,54.000000
78,54.000000
79,58.000000
80,52.000000
81,44.000000
82,52.000000
83,58.000000
84,52.000000
85,48.000000
86,46.000000
87,48.000000
88,44.000000
89,48.000000
90,46.000000
91,48.000000
92,48.000000
93,46.000000
94,40.000000
95,40.000000
96,42.000000
97,42.000000
98,42.000000
99,40.000000
100,40.000000
101,42.000000
102,44.000000
103,36.000000
104,38.000000
105,40.000000
106,40.000000
107,42.000000
108,38.000000
109,40.000000
110,38.000000
111,40.000000
112,58.000000
113,38.000000
114,40.000000
115,36.000000
116,38.000000
117,34.000000
118,30.000000
119,38.000000
120,30.000000
121,36.000000
122,30.000000
123,40.000000
124,36.000000
125,32.000000
126,36.000000
127,40.000000
128,40.000000
129,36.000000
130,38.000000
131,36.000000
132,30.000000
133,32.000000
134,30.000000
135,34.000000
136,34.000000
137,34.000000
138,36.000000
139,34.000000
140,34.000000
141,32.000000
142,32.000000
143,40.000000
144,38.000000
145,34.000000
146,26.000000
147,30.000000
148,30.000000
149,34.000000
150,34.000000
151,36.000000
152,36.000000
153,20.000000
154,40.000000
155,34.000000
156,38.000000
157,34.000000
158,30.000000
159,34.000000
160,30.000000
161,32.000000
162,36.000000
163,30.000000
164,26.000000
165,30.000000
166,-10.000000
167,26.000000
168,22.000000
169,26.000000
170,26.000000
171,26.000000
172,24.000000
173,20.000000
174,20.000000
175,20.000000
176,18.000000
177,16.000000
178,20.000000
179,18.000000
180,12.000000
181,6.000000
182,16.000000
183,16.000000
184,12.000000
185,10.000000
186,16.000000
187,10.000000
188,8.000000
189,10.000000
190,22.000000
191,20.000000
192,10.000000
193,8.000000
194,8.000000
195,6.000000
196,2.000000
197,4.000000
198,4.000000
199,6.000000
200,4.000000
201,10.000000
202,2.000000
203,6.000000
204,4.000000
205,6.000000
206,2.000000
207,2.000000
208,2.000000
209,4.000000
210,2.000000
211,4.000000
212,2.000000
213,16.000000
214,2.000000
215,-2.000000
216,-4.000000
217,-2.000000
218,2.000000
219,-2.000000
220,2.000000
221,-2.000000
222,10.000000
223,2.000000
224,2.000000
225,-2.000000
226,-2.000000
227,-10.000000
228,-4.000000
229,-2.000000
230,-2.000000
231,2.000000
232,6.000000
233,-2.000000
234,-28.000000
235,-2.000000
236,2.000000
237,-2.000000
238,-2.000000
239,-2.000000
240,-6.000000
241,-4.000000
242,2.000000
243,8.000000
244,-2.000000
245,-2.000000
246,-4.000000
247,-2.000000
248,2.000000
249,-2.000000
250,2.000000
251,2.000000
252,2.000000
253,6.000000
254,-12.000000
255,-4.000000
256,-4.000000
257,-6.000000
258,-22.000000
259,-2.000000
260,2.000000
261,-2.000000
262,-2.000000
263,2.000000
264,-4.000000
265,-2.000000
266,-2.000000
267,-2.000000
268,2.000000
269,-2.000000
270,2.000000
271,-2.000000
272,2.000000
273,-2.000000
274,-4.000000
275,-8.000000
276,-4.000000
277,-6.000000
278,-8.000000
279,-2.000000
280,-2.000000
281,-2.000000
282,-6.000000
283,-4.000000
284,-2.000000
285,8.000000
286,-6.000000
287,-4.000000
288,-4.000000
289,-22.000000
290,-2.000000
291,2.000000
292,-6.000000
293,-2.000000
294,-4.000000
295,-4.000000
296,-2.000000
297,-2.000000
298,-4.000000
299,2.000000
300,-10.000000
301,-4.000000
302,-2.000000
303,-2.000000
304,-4.000000
305,-2.000000
306,-2.000000
307,-8.000000
308,-6.000000
309,-8.000000
310,-2.000000
311,-2.000000
312,-2.000000
313,-2.000000
314,-8.000000
315,-2.000000
316,-4.000000
317,-4.000000
318,-2.000000
319,-6.000000
320,-10.000000
321,-8.000000
322,-4.000000
323,-4.000000
324,-2.000000
325,-6.000000
326,-10.000000
327,-2.000000
328,-4.000000
329,-2.000000
330,-2.000000
331,-2.000000
332,-26.000000
333,12.000000
334,-4.000000
335,-2.000000
336,-4.000000
337,2.000000
338,-8.000000
339,-4.000000
340,-4.000000
341,-4.000000
342,-10.000000
343,-14.000000
344,-4.000000
345,-6.000000
346,-6.000000
347,-4.000000
348,-4.000000
349,-6.000000
350,2.000000
351,2.000000
352,8.000000
353,-10.000000
354,-26.000000
355,-8.000000
356,-12.000000
357,-8.000000
358,-46.000000
359,4.000000
360,2.000000
361,-2.000000
362,-2.000000
363,-2.000000
364,6.000000
365,-8.000000
366,-10.000000
367,-8.000000
368,2.000000
369,-4.000000
370,6.000000
371,-4.000000
372,-2.000000
373,-4.000000
374,-2.000000
375,-6.000000
376,-32.000000
377,-6.000000
378,-8.000000
379,-2.000000
380,-52.000000
381,-10.000000
382,2.000000
383,2.000000
384,-4.000000
385,-4.000000
386,-12.000000
387,-6.000000
388,-4.000000
389,-4.000000
390,22.000000
391,-2.000000
392,-2.000000
393,-4.000000
394,-4.000000
395,-2.000000
396,-8.000000
397,-6.000000
398,-12.000000
399,2.000000
400,20.000000
401,12.000000
402,-2.000000
403,-4.000000
404,2.000000
405,-4.000000
406,-10.000000
407,-10.000000
408,-8.000000
409,2.000000
410,-12.000000
411,2.000000
412,2.000000
413,8.000000
414,-2.000000
415,-4.000000
416,-12.000000
417,-4.000000
418,-8.000000
419,-4.000000
420,2.000000
421,-2.000000
422,-2.000000
423,38.000000
424,-2.000000
425,-4.000000
426,-6.000000
427,-2.000000
428,-4.000000
429,-4.000000
430,2.000000
431,-12.000000
432,2.000000
433,-18.000000
434,-2.000000
435,-2.000000
436,-6.000000
437,-10.000000
438,-4.000000
439,-8.000000
440,2.000000
441,-4.000000
442,-2.000000
443,-4.000000
444,2.000000
445,-8.000000
446,-12.000000
447,-14.000000
448,-32.000000
449,-2.000000
450,-4.000000
451,2.000000
452,-2.000000
453,-8.000000
454,-26.000000
455,-2.000000
456,-12.000000
457,-4.000000
458,-22.000000
459,-2.000000
460,-64.000000
461,-8.000000
462,30.000000
463,54.000000
464,34.000000
465,2.000000
466,-48.000000
467,-98.000000
468,-98.000000
469,-56.000000
470,-12.000000
471,24.000000
472,68.000000
473,80.000000
474,58.000000
475,2.000000
476,-52.000000
477,-102.000000
478,-106.000000
479,-56.000000
480,-4.000000
481,40.000000
482,68.000000
483,72.000000
484,38.000000
485,30.000000
486,-56.000000
487,-102.000000
488,-110.000000
489,-54.000000
490,4.000000
491,36.000000
492,72.000000
493,86.000000
494,52.000000
495,24.000000
496,-54.000000
497,-14.000000
498,-18.000000
499,-30.000000
500,-8.000000
501,-4.000000
502,2.000000
503,6.000000
504,-8.000000
505,-6.000000
506,-12.000000
507,-2.000000
508,-4.000000
509,2.000000
510,-8.000000
511,-2.000000
512,-4.000000
513,4.000000
514,-4.000000
515,-4.000000
516,-6.000000
517,-8.000000
518,-8.000000
519,-2.000000
520,-6.000000
521,-4.000000
522,-4.000000
523,-4.000000
524,-2.000000
525,-6.000000
526,-4.000000
527,-6.000000
528,-2.000000
529,-4.000000
530,-4.000000
531,4.000000
532,-16.000000
533,-14.000000
534,-4.000000
535,-8.000000
536,-14.000000
537,-8.000000
538,-8.000000
539,-10.000000
540,-2.000000
541,-4.000000
542,-18.000000
543,-6.000000
544,-4.000000
545,-2.000000
546,-2.000000
547,-4.000000
548,-10.000000
549,-4.000000
550,-6.000000
551,-4.000000
552,-6.000000
553,-6.000000
554,12.000000
555,-4.000000
556,-4.000000
557,-4.000000
558,-6.000000
559,-4.000000
560,-4.000000
561,-4.000000
562,-2.000000
563,2.000000
564,-8.000000
565,-8.000000
566,-4.000000
567,-4.000000
568,-2.000000
569,-2.000000
570,-4.000000
571,-2.000000
572,-2.000000
573,-2.000000
574,-2.000000
575,-6.000000
576,-2.000000
577,-4.000000
578,-10.000000
579,-4.000000
580,-6.000000
581,-4.000000
582,-6.000000
583,-2.000000
584,-2.000000
585,-4.000000
586,-2.000000
587,-8.000000
588,-4.000000
589,-6.000000
590,-8.000000
591,-2.000000
592,-2.000000
593,-4.000000
594,-8.000000
595,-4.000000
596,-6.000000
597,-4.000000
598,-8.000000
599,-6.000000
600,-4.000000
601,2.000000
602,-4.000000
603,-2.000000
604,-6.000000
605,-4.000000
606,4.000000
607,-4.000000
608,2.000000
609,-8.000000
610,-4.000000
611,-2.000000
612,-6.000000
613,2.000000
614,-2.000000
615,-4.000000
616,-10.000000
617,8.000000
618,-4.000000
619,-6.000000
620,-4.000000
621,6.000000
622,-2.000000
623,2.000000
624,-2.000000
625,-4.000000
626,-8.000000
627,-6.000000
628,8.000000
629,-2.000000
630,-6.000000
631,4.000000
632,-10.000000
633,-4.000000
634,-4.000000
635,-4.000000
636,-2.000000
637,-4.000000
638,-4.000000
639,-4.000000
640,-8.000000
641,-4.000000
642,2.000000
643,-4.000000
644,-4.000000
645,-4.000000
646,-4.000000
647,-2.000000
648,-4.000000
649,-4.000000
650,-4.000000
651,-4.000000
652,2.000000
653,-2.000000
654,-2.000000
655,-4.000000
656,-2.000000
657,-6.000000
658,-2.000000
659,-2.000000
660,-4.000000
661,2.000000
662,-4.000000
663,-2.000000
664,4.000000
665,-2.000000
666,-4.000000
667,-4.000000
668,2.000000
669,-4.000000
670,-4.000000
671,-2.000000
672,-2.000000
673,-8.000000
674,-2.000000
675,-8.000000
676,-6.000000
677,-4.000000
678,-4.000000
679,-4.000000
680,-4.000000
681,-2.000000
682,-4.000000
683,-6.000000
684,-4.000000
685,6.000000
686,-8.000000
687,-6.000000
688,-2.000000
689,-2.000000
690,-4.000000
691,-4.000000
692,-2.000000
693,2.000000
694,-4.000000
695,-2.000000
696,-4.000000
697,-4.000000
698,-4.000000
699,-4.000000
700,-4.000000
701,-4.000000
702,-2.000000
703,-18.000000
704,-4.000000
705,-8.000000
706,-4.000000
707,-6.000000
708,-6.000000
709,-12.000000
710,-4.000000
711,-4.000000
712,-2.000000
713,-2.000000
714,-4.000000
715,-8.000000
716,-4.000000
717,-4.000000
718,-4.000000
719,-2.000000
720,-2.000000
721,-2.000000
722,-4.000000
723,-2.000000
724,-2.000000
725,-4.000000
726,-4.000000
727,-4.000000
728,-6.000000
729,-4.000000
730,-6.000000
731,-2.000000
732,-6.000000
733,-4.000000
734,-6.000000
735,-2.000000
736,-2.000000
737,-6.000000
738,-2.000000
739,-4.000000
740,-6.000000
741,-2.000000
742,-8.000000
743,-4.000000
744,2.000000
745,-4.000000
746,-6.000000
747,-4.000000
748,-6.000000
749,-2.000000
750,-2.000000
751,-2.000000
752,-2.000000
753,-4.000000
754,-8.000000
755,-4.000000
756,-6.000000
757,-2.000000
758,-4.000000
759,-4.000000
760,-4.000000
761,-4.000000
762,-2.000000
763,-4.000000
764,-2.000000
765,-6.000000
766,-2.000000
767,-6.000000
768,-2.000000
769,-4.000000
770,-6.000000
771,-2.000000
772,-2.000000
773,-4.000000
774,-4.000000
775,-4.000000
776,2.000000
777,-2.000000
778,-6.000000
779,-4.000000
780,-4.000000
781,-2.000000
782,-2.000000
783,-2.000000
784,-2.000000
785,-4.000000
786,-8.000000
787,-4.000000
788,-4.000000
789,-4.000000
790,-4.000000
791,2.000000
792,-6.000000
793,-2.000000
794,-2.000000
795,-4.000000
796,-2.000000
797,-6.000000
798,-4.000000
799,-4.000000
800,-4.000000
801,-12.000000
802,-2.000000
803,-4.000000
804,-4.000000
805,-2.000000
806,-4.000000
807,-8.000000
808,-4.000000
809,-14.000000
810,-4.000000
811,-6.000000
812,-6.000000
813,2.000000
814,-2.000000
815,-2.000000
816,-4.000000
817,6.000000
818,-2.000000
819,-8.000000
820,-4.000000
821,2.000000
822,-4.000000
823,-12.000000
824,-6.000000
825,-8.000000
826,-2.000000
827,-10.000000
828,-6.000000
829,-6.000000
830,-2.000000
831,-2.000000
832,-12.000000
833,-4.000000
834,-2.000000
835,-2.000000
836,-6.000000
837,-2.000000
838,-2.000000
839,-2.000000
840,2.000000
841,-4.000000
842,-6.000000
843,-8.000000
844,-4.000000
845,-2.000000
846,-4.000000
847,-4.000000
848,-4.000000
849,-2.000000
850,-2.000000
851,-6.000000
852,-4.000000
853,2.000000
854,2.000000
855,-4.000000
856,-4.000000
857,-4.000000
858,-2.000000
859,-8.000000
860,-4.000000
861,-6.000000
862,-2.000000
863,-2.000000
864,6.000000
865,-2.000000
866,-4.000000
867,-6.000000
868,-4.000000
869,-6.000000
870,-2.000000
871,-2.000000
872,-4.000000
873,-2.000000
874,-6.000000
875,-4.000000
876,-2.000000
877,-2.000000
878,-8.000000
879,-4.000000
880,-6.000000
881,-6.000000
882,-2.000000
883,-12.000000
884,-2.000000
885,-8.000000
886,-6.000000
887,-4.000000
888,-4.000000
889,-4.000000
890,-4.000000
891,-4.000000
892,-4.000000
893,-6.000000
894,-4.000000
895,-4.000000
896,-4.000000
897,-4.000000
898,2.000000
899,-2.000000
900,-4.000000
901,-4.000000
902,-2.000000
903,-6.000000
904,-2.000000
905,-10.000000
906,-2.000000
907,-4.000000
908,-8.000000
909,2.000000
910,-2.000000
911,-4.000000
912,8.000000
913,2.000000
914,-4.000000
915,2.000000
916,-4.000000
917,-2.000000
918,-6.000000
919,2.000000
920,-2.000000
921,-4.000000
922,-12.000000
923,-4.000000
924,-4.000000
925,2.000000
926,-4.000000
927,-2.000000
928,-2.000000
929,-6.000000
930,-2.000000
931,-4.000000
932,-2.000000
933,2.000000
934,-2.000000
935,-4.000000
936,-4.000000
937,-2.000000
938,2.000000
939,-2.000000
940,-2.000000
941,-4.000000
942,2.000000
943,-8.000000
944,-2.000000
945,2.000000
946,4.000000
947,-2.000000
948,-6.000000
949,-2.000000
950,2.000000
951,-8.000000
952,2.000000
953,-4.000000
954,-14.000000
955,-6.000000
956,2.000000
957,-4.000000
958,-2.000000
959,-2.000000
960,-2.000000
961,2.000000
962,2.000000
963,4.000000
964,16.000000
965,-2.000000
966,6.000000
967,-2.000000
968,-8.000000
969,-4.000000
970,2.000000
971,2.000000
972,2.000000
973,2.000000
974,-4.000000
975,-2.000000
976,-2.000000
977,-2.000000
978,-2.000000
979,-2.000000
980,-2.000000
981,-6.000000
982,2.000000
983,-6.000000
984,2.000000
985,2.000000
986,-4.000000
987,-2.000000
988,2.000000
989,-22.000000
990,6.000000
991,-2.000000
992,-2.000000
993,-2.000000
994,-2.000000
995,-2.000000
996,-4.000000
997,-2.000000
998,-8.000000
999,-2.000000
1000,-4.000000
1001,-4.000000
1002,2.000000
1003,2.000000
1004,-4.000000
1005,-2.000000
1006,-2.000000
1007,8.000000
1008,-4.000000
1009,-4.000000
1010,2.000000
1011,-2.000000
1012,-12.000000
1013,2.000000
1014,-4.000000
1015,2.000000
1016,-2.000000
1017,-8.000000
1018,2.000000
1019,-2.000000
1020,-2.000000
1021,2.000000
1022,2.000000
1023,-2.000000
1024,2.000000
1025,2.000000
1026,-2.000000
1027,-8.000000
1028,-2.000000
1029,-4.000000
1030,-2.000000
1031,-2.000000
1032,-4.000000
1033,-2.000000
1034,-2.000000
1035,-2.000000
1036,-6.000000
1037,2.000000
1038,2.000000
1039,-2.000000
1040,2.000000
1041,2.000000
1042,-2.000000
1043,2.000000
1044,2.000000
1045,-4.000000
1046,2.000000
1047,-2.000000
1048,2.000000
1049,-2.000000
1050,2.000000
1051,2.000000
1052,-2.000000
1053,2.000000
1054,-6.000000
1055,-2.000000
1056,-2.000000
1057,-2.000000
1058,-2.000000
1059,-2.000000
1060,4.000000
1061,-2.000000
1062,2.000000
1063,2.000000
1064,6.000000
1065,-2.000000
1066,-2.000000
1067,-2.000000
1068,-18.000000
1069,-2.000000
1070,2.000000
1071,-2.000000
1072,-2.000000
1073,-4.000000
1074,-4.000000
1075,-2.000000
1076,-6.000000
1077,2.000000
1078,2.000000
1079,2.000000
1080,2.000000
1081,2.000000
1082,2.000000
1083,2.000000
1084,2.000000
1085,-2.000000
1086,2.000000
1087,16.000000
1088,-2.000000
1089,2.000000
1090,2.000000
1091,-2.000000
1092,16.000000
1093,-4.000000
1094,-2.000000
1095,-2.000000
1096,-2.000000
1097,-12.000000
1098,-2.000000
1099,-6.000000
1100,2.000000
1101,2.000000
1102,-12.000000
1103,-2.000000
1104,-2.000000
1105,2.000000
1106,-4.000000
1107,-2.000000
1108,-2.000000
1109,-2.000000
1110,2.000000
1111,-2.000000
1112,-2.000000
1113,2.000000
1114,-4.000000
1115,2.000000
1116,2.000000
1117,-2.000000
1118,-2.000000
1119,-2.000000
1120,-8.000000
1121,-2.000000
1122,-2.000000
1123,2.000000
1124,-2.000000
1125,-4.000000
1126,-4.000000
1127,2.000000
1128,2.000000
1129,2.000000
1130,-2.000000
1131,2.000000
1132,2.000000
1133,4.000000
1134,-2.000000
1135,20.000000
1136,-2.000000
1137,-2.000000
1138,-2.000000
1139,-2.000000
1140,-2.000000
1141,2.000000
1142,-2.000000
1143,-2.000000
1144,-4.000000
1145,-6.000000
1146,-2.000000
1147,-2.000000
1148,2.000000
1149,2.000000
1150,-2.000000
1151,2.000000
1152,2.000000
1153,-4.000000
1154,12.000000
1155,-2.000000
1156,-2.000000
1157,-2.000000
1158,4.000000
1159,-2.000000
1160,-2.000000
1161,2.000000
1162,2.000000
1163,2.000000
1164,-4.000000
1165,-2.000000
1166,-2.000000
1167,-2.000000
1168,-4.000000
1169,2.000000
1170,-2.000000
1171,-2.000000
1172,2.000000
1173,-8.000000
1174,-2.000000
1175,-4.000000
1176,-2.000000
1177,4.000000
1178,-4.000000
1179,2.000000
1180,2.000000
1181,-2.000000
1182,-24.000000
1183,2.000000
1184,2.000000
1185,-2.000000
1186,-2.000000
1187,-4.000000
1188,-2.000000
1189,2.000000
1190,2.000000
1191,2.000000
1192,8.000000
1193,-2.000000
1194,2.000000
1195,-2.000000
1196,2.000000
1197,-4.000000
1198,-8.000000
1199,2.000000
1200,2.000000
1201,2.000000
1202,8.000000
1203,-2.000000
1204,-4.000000
1205,-4.000000
1206,2.000000
1207,-2.000000
1208,-2.000000
1209,-2.000000
1210,2.000000
1211,0.000000
1212,-2.000000
1213,-6.000000
1214,-2.000000
1215,2.000000
1216,2.000000
1217,2.000000
1218,-6.000000
1219,-2.000000
1220,6.000000
1221,-4.000000
1222,-2.000000
1223,-4.000000
1224,-2.000000
1225,2.000000
1226,-4.000000
1227,-4.000000
1228,-4.000000
1229,2.000000
1230,10.000000
1231,6.000000
1232,2.000000
1233,2.000000
1234,2.000000
1235,-2.000000
1236,2.000000
1237,-2.000000
1238,2.000000
1239,2.000000
1240,2.000000
1241,6.000000
1242,2.000000
1243,2.000000
1244,2.000000
1245,-2.000000
1246,2.000000
1247,2.000000
1248,-6.000000
1249,-2.000000
1250,2.000000
1251,-2.000000
1252,-2.000000
1253,-2.000000
1254,-2.000000
1255,2.000000
1256,-8.000000
1257,2.000000
1258,-2.000000
1259,-2.000000
1260,2.000000
1261,6.000000
1262,-2.000000
1263,4.000000
1264,-6.000000
1265,-2.000000
1266,-2.000000
1267,-18.000000
1268,2.000000
1269,-2.000000
1270,12.000000
1271,10.000000
1272,16.000000
1273,2.000000
1274,2.000000
1275,-4.000000
1276,2.000000
1277,-2.000000
1278,-2.000000
1279,-2.000000
1280,22.000000
1281,6.000000
1282,4.000000
1283,2.000000
1284,2.000000
1285,2.000000
1286,2.000000
1287,2.000000
1288,-4.000000
1289,2.000000
1290,2.000000
1291,-4.000000
1292,-2.000000
1293,10.000000
1294,2.000000
1295,-6.000000
1296,-2.000000
1297,2.000000
1298,2.000000
1299,2.000000
1300,2.000000
1301,4.000000
1302,2.000000
1303,6.000000
1304,2.000000
1305,-2.000000
1306,2.000000
1307,-2.000000
1308,2.000000
1309,2.000000
1310,-2.000000
1311,2.000000
1312,2.000000
1313,2.000000
1314,2.000000
1315,2.000000
1316,-2.000000
1317,2.000000
1318,2.000000
1319,-8.000000
1320,-2.000000
1321,2.000000
1322,2.000000
1323,2.000000
1324,2.000000
1325,-2.000000
1326,-2.000000
1327,-2.000000
1328,2.000000
1329,2.000000
1330,4.000000
1331,2.000000
1332,2.000000
1333,2.000000
1334,2.000000
1335,2.000000
1336,4.000000
1337,-2.000000
1338,6.000000
1339,4.000000
1340,4.000000
1341,2.000000
1342,2.000000
1343,-2.000000
1344,2.000000
1345,2.000000
1346,2.000000
1347,2.000000
1348,-4.000000
1349,2.000000
1350,-2.000000
1351,-2.000000
1352,2.000000
1353,2.000000
1354,-4.000000
1355,2.000000
1356,2.000000
1357,18.000000
1358,-4.000000
1359,-2.000000
1360,2.000000
1361,2.000000
1362,12.000000
1363,-4.000000
1364,-4.000000
1365,2.000000
1366,-4.000000
1367,4.000000
1368,-2.000000
1369,-2.000000
1370,2.000000
1371,2.000000
1372,-4.000000
1373,-2.000000
1374,4.000000
1375,-2.000000
1376,-2.000000
1377,-2.000000
1378,-2.000000
1379,2.000000
1380,2.000000
1381,2.000000
1382,-2.000000
1383,2.000000
1384,4.000000
1385,-2.000000
1386,-2.000000
1387,-2.000000
1388,-2.000000
1389,-2.000000
1390,2.000000
1391,2.000000
1392,2.000000
1393,8.000000
1394,2.000000
1395,-2.000000
1396,-12.000000
1397,-2.000000
1398,-4.000000
1399,2.000000
1400,2.000000
1401,-2.000000
1402,2.000000
