data/raw/AC/ac1.csv

Channel              :,CH1
Frequency            :,"	?"
Period               :,  ?
PK-PK                :,510.0mV?
Average              :,-0.657mV?
Vertical pos         :,-35.000000mV
Probe attenuation    :,1X
Voltage per ADC value:,0.125000mV
Time interval        :,2000.00000uS
,
index,CH1_Voltage(mV)
1,-1
2,-1
3,5
4,9
5,-9
6,-9
7,-9
8,-7
9,-9
10,9
11,1
12,-1
13,-13
14,5
15,5
16,3
17,-9
18,-9
19,-9
20,3
21,5
22,19
23,1
24,-3
25,1
26,-9
27,-5
28,-19
29,-9
30,-9
31,3
32,13
33,1
34,5
35,-1
36,-9
37,-9
38,-1
39,3
40,19
41,5
42,13
43,5
44,-5
45,9
46,-3
47,-13
48,-3
49,-3
50,-5
51,5
52,11
53,11
54,-1
55,-5
56,-9
57,-13
58,3
59,1
60,-1
61,-9
62,9
63,11
64,5
65,1
66,-13
67,-15
68,-1
69,-13
70,9
71,1
72,5
73,5
74,-3
75,-5
76,-5
77,-15
78,-5
79,-7
80,-13
81,3
82,9
83,1
84,-5
85,1
86,-5
87,-13
88,-3
89,-13
90,-5
91,1
92,9
93,15
94,1
95,-3
96,-5
97,-5
98,15
99,-5
100,3
101,1
102,11
103,3
104,3
105,1
106,-1
107,-9
108,-7
109,-7
110,-9
111,9
112,25
113,9
114,-9
115,-3
116,-5
117,-15
118,-5
119,-5
120,-15
121,9
122,-5
123,9
124,-1
125,-1
126,-19
127,-15
128,-7
129,3
130,9
131,5
132,5
133,5
134,5
135,11
136,-3
137,-5
138,-9
139,1
140,9
141,5
142,9
143,13
144,1
145,-9
146,-9
147,-7
148,-9
149,13
150,-3
151,1
152,13
153,3
154,1
155,-1
156,-7
157,-9
158,-7
159,-3
160,5
161,-1
162,13
163,1
164,-1
165,-9
166,5
167,-17
168,-15
169,-7
170,-3
171,5
172,5
173,5
174,3
175,-3
176,5
177,-1
178,-9
179,-1
180,-7
181,-1
182,3
183,9
184,5
185,1
186,-9
187,-17
188,-7
189,-7
190,9
191,-9
192,9
193,3
194,3
195,5
196,-5
197,-9
198,-9
199,-9
200,9
201,-1
202,5
203,3
204,-3
205,1
206,-13
207,-15
208,-15
209,-3
210,3
211,1
212,5
213,-7
214,-5
215,-3
216,-13
217,-3
218,-9
219,-1
220,5
221,1
222,5
223,9
224,3
225,11
226,3
227,-23
228,-19
229,-3
230,3
231,5
232,5
233,-5
234,5
235,-1
236,-13
237,-15
238,-9
239,1
240,3
241,5
242,11
243,-7
244,-1
245,-9
246,-5
247,-17
248,3
249,1
250,5
251,5
252,11
253,5
254,1
255,-1
256,1
257,-15
258,-3
259,-5
260,1
261,9
262,11
263,-7
264,11
265,-9
266,-5
267,-19
268,-1
269,-1
270,1
271,1
272,13
273,1
274,5
275,1
276,-9
277,-15
278,-9
279,1
280,1
281,1
282,19
283,5
284,9
285,5
286,-9
287,-7
288,-17
289,-7
290,-3
291,5
292,13
293,5
294,5
295,-15
296,-5
297,-15
298,-5
299,-5
300,-5
301,9
302,15
303,3
304,-3
305,5
306,-3
307,-9
308,-13
309,1
310,3
311,-5
312,23
313,13
314,1
315,-1
316,-9
317,-7
318,-3
319,-7
320,-7
321,9
322,5
323,9
324,15
325,-9
326,-3
327,27
328,-71
329,-13
330,9
331,21
332,9
333,-13
334,5
335,-9
336,-7
337,-13
338,-7
339,-5
340,9
341,9
342,1
343,9
344,-9
345,5
346,-13
347,-9
348,-9
349,-9
350,1
351,-3
352,5
353,5
354,-27
355,3
356,-13
357,-13
358,-7
359,-3
360,-1
361,-1
362,9
363,-7
364,9
365,-1
366,-7
367,-7
368,-3
369,-9
370,3
371,5
372,11
373,3
374,1
375,1
376,1
377,-19
378,-1
379,1
380,5
381,-1
382,9
383,19
384,-3
385,-5
386,-9
387,-7
388,-1
389,-5
390,-1
391,5
392,13
393,13
394,15
395,-9
396,-1
397,-9
398,-7
399,-7
400,-1
401,9
402,13
403,9
404,-9
405,1
406,-9
407,-23
408,-1
409,1
410,5
411,-1
412,9
413,-19
414,-1
415,1
416,3
417,-9
418,-13
419,-3
420,1
421,1
422,5
423,9
424,-15
425,-19
426,9
427,11
428,15
429,5
430,3
431,5
432,5
433,1
434,3
435,5
436,-3
437,-3
438,-5
439,-3
440,1
441,5
442,5
443,9
444,-1
445,3
446,-9
447,-13
448,-7
449,-5
450,1
451,9
452,21
453,3
454,3
455,3
456,-5
457,-5
458,-9
459,-3
460,5
461,3
462,11
463,-1
464,1
465,5
466,-5
467,-7
468,-5
469,-5
470,3
471,3
472,9
473,5
474,5
475,-1
476,-9
477,-25
478,-9
479,-23
480,-25
481,-3
482,9
483,19
484,19
485,11
486,-1
487,-9
488,-31
489,1
490,-1
491,5
492,9
493,9
494,-1
495,5
496,-3
497,-3
498,-9
499,1
500,-1
501,9
502,5
503,5
504,-1
505,-1
506,3
507,-9
508,-1
509,-15
510,5
511,-9
512,9
513,-9
514,-1
515,5
516,-7
517,-5
518,3
519,5
520,-1
521,19
522,5
523,-5
524,-1
525,1
526,-3
527,-17
528,-1
529,-1
530,1
531,-1
532,-3
533,9
534,3
535,3
536,-13
537,-15
538,-9
539,-3
540,3
541,9
542,5
543,15
544,1
545,-7
546,-7
547,-19
548,-1
549,5
550,1
551,9
552,21
553,9
554,-17
555,3
556,-9
557,-13
558,-3
559,-3
560,5
561,1
562,-15
563,15
564,-63
565,1
566,-7
567,-15
568,-17
569,-9
570,9
571,13
572,-1
573,-17
574,9
575,5
576,-9
577,-5
578,-23
579,-9
580,15
581,13
582,1
583,45
584,-3
585,-3
586,5
587,-19
588,-5
589,-15
590,15
591,-5
592,11
593,9
594,-27
595,-1
596,-15
597,-7
598,5
599,-9
600,-7
601,13
602,9
603,-7
604,5
605,5
606,5
607,-15
608,-13
609,3
610,3
611,5
612,5
613,13
614,-1
615,9
616,1
617,-19
618,-7
619,25
620,-5
621,9
622,5
623,25
624,9
625,3
626,-7
627,-15
628,-3
629,-7
630,3
631,1
632,9
633,13
634,5
635,-13
636,-9
637,-13
638,-5
639,-9
640,21
641,-1
642,5
643,5
644,1
645,1
646,-9
647,-9
648,-7
649,-7
650,-1
651,5
652,3
653,-7
654,-13
655,-3
656,1
657,-9
658,-19
659,-3
660,5
661,13
662,11
663,-7
664,1
665,5
666,-9
667,-9
668,-13
669,5
670,-1
671,5
672,5
673,11
674,9
675,-5
676,-7
677,-13
678,19
679,1
680,-1
681,3
682,5
683,-3
684,15
685,-3
686,-1
687,-13
688,-19
689,-3
690,5
691,1
692,5
693,5
694,3
695,5
696,-9
697,-19
698,-7
699,-19
700,-1
701,-1
702,19
703,9
704,3
705,5
706,-3
707,-7
708,-19
709,-5
710,9
711,1
712,9
713,1
714,15
715,5
716,-15
717,-9
718,-7
719,-3
720,-3
721,15
722,13
723,5
724,5
725,11
726,-3
727,-3
728,3
729,1
730,5
731,5
732,9
733,5
734,-1
735,-7
736,3
737,-9
738,-9
739,1
740,3
741,3
742,19
743,-1
744,1
745,3
746,-7
747,-1
748,-5
749,-3
750,5
751,3
752,3
753,1
754,-9
755,-3
756,-7
757,-9
758,1
759,-3
760,3
761,-1
762,5
763,9
764,1
765,-7
766,-13
767,-17
768,5
769,-23
770,-7
771,9
772,5
773,-5
774,3
775,5
776,1
777,-15
778,-5
779,-3
780,5
781,9
782,13
783,-5
784,-7
785,-7
786,-3
787,-15
788,-3
789,-5
790,-1
791,9
792,9
793,15
794,11
795,-1
796,-5
797,-19
798,-9
799,-5
800,9
801,5
802,15
803,-7
804,1
805,-7
806,1
807,-9
808,-5
809,-1
810,-9
811,5
812,15
813,3
814,11
815,-3
816,-9
817,-15
818,-13
819,1
820,5
821,-1
822,9
823,1
824,3
825,13
826,-1
827,-13
828,-13
829,-9
830,-9
831,5
832,5
833,5
834,-7
835,11
836,-1
837,-3
838,-7
839,-7
840,-5
841,5
842,1
843,3
844,-3
845,-7
846,-7
847,-13
848,-17
849,-1
850,-15
851,9
852,11
853,9
854,-7
855,5
856,-7
857,-9
858,-9
859,-7
860,1
861,5
862,11
863,15
864,9
865,1
866,-7
867,-13
868,-7
869,-1
870,9
871,5
872,9
873,5
874,3
875,9
876,-3
877,-15
878,-9
879,-1
880,-1
881,3
882,1
883,5
884,9
885,19
886,-5
887,-13
888,-7
889,9
890,-13
891,-3
892,-3
893,11
894,-3
895,3
896,-7
897,-5
898,5
899,-13
900,3
901,9
902,9
903,5
904,5
905,5
906,-1
907,-5
908,-7
909,-1
910,1
911,5
912,13
913,-7
914,1
915,1
916,-5
917,-13
918,-17
919,3
920,-9
921,9
922,5
923,-3
924,5
925,5
926,1
927,3
928,-7
929,-9
930,-1
931,5
932,9
933,9
934,3
935,5
936,3
937,-13
938,-7
939,-13
940,15
941,3
942,-3
943,5
944,1
945,-3
946,-13
947,-17
948,-5
949,-3
950,-13
951,5
952,5
953,5
954,9
955,-7
956,-9
957,-13
958,-7
959,9
960,9
961,3
962,9
963,5
964,9
965,-7
966,3
967,-13
968,-5
969,3
970,1
971,5
972,9
973,5
974,-1
975,3
976,-13
977,-13
978,-7
979,5
980,-3
981,-1
982,5
983,3
984,-3
985,-1
986,-9
987,-9
988,-15
989,-5
990,-5
991,5
992,9
993,5
994,-3
995,-5
996,-1
997,-9
998,-13
999,-3
1000,-13
1001,3
1002,9
1003,5
1004,5
1005,5
1006,-1
1007,-9
1008,-3
1009,-3
1010,-3
1011,3
1012,5
1013,-1
1014,9
1015,1
1016,-7
1017,-9
1018,-7
1019,-5
1020,3
1021,9
1022,9
1023,9
1024,-1
1025,5
1026,-7
1027,-13
1028,-13
1029,-5
1030,-9
1031,5
1032,9
1033,-1
1034,1
1035,-1
1036,3
1037,-9
1038,-9
1039,-5
1040,5
1041,3
1042,9
1043,3
1044,3
1045,3
1046,-7
1047,-9
1048,1
1049,-1
1050,-9
1051,5
1052,13
1053,9
1054,3
1055,-3
1056,-7
1057,-19
1058,-3
1059,-1
1060,5
1061,3
1062,5
1063,1
1064,-3
1065,5
1066,-5
1067,-13
1068,-1
1069,-9
1070,3
1071,9
1072,5
1073,1
1074,-5
1075,5
1076,-3
1077,-9
1078,-1
1079,-1
1080,1
1081,5
1082,11
1083,1
1084,-1
1085,-5
1086,-9
1087,-7
1088,-9
1089,-1
1090,-9
1091,5
1092,9
1093,5
1094,3
1095,-9
1096,-9
1097,-9
1098,5
1099,-1
1100,1
1101,9
1102,5
1103,19
1104,1
1105,-1
1106,-7
1107,-9
1108,-7
1109,5
1110,-5
1111,3
1112,5
1113,-3
1114,1
1115,1
1116,-9
1117,-9
1118,-13
1119,-5
1120,-1
1121,13
1122,11
1123,5
1124,-5
1125,1
1126,-9
1127,-1
1128,-9
1129,1
1130,5
1131,-1
1132,9
1133,-3
1134,9
1135,1
1136,-5
1137,-9
1138,3
1139,-7
1140,5
1141,5
1142,5
1143,1
1144,5
1145,5
1146,-9
1147,-9
1148,-13
1149,1
1150,-1
1151,9
1152,9
1153,23
1154,5
1155,5
1156,-7
1157,-1
1158,-9
1159,-7
1160,5
1161,5
1162,9
1163,9
1164,1
1165,-1
1166,1
1167,-15
1168,-31
1169,-17
1170,1
1171,9
1172,5
1173,3
1174,1
1175,1
1176,-1
1177,-13
1178,-9
1179,-9
1180,9
1181,5
1182,5
1183,11
1184,-7
1185,-9
1186,-3
1187,-9
1188,-9
1189,-5
1190,3
1191,13
1192,9
1193,5
1194,5
1195,-1
1196,1
1197,3
1198,-7
1199,-3
1200,-7
1201,5
1202,9
1203,9
1204,5
1205,-1
1206,-1
1207,-9
1208,-1
1209,3
1210,1
1211,3
1212,3
1213,5
1214,5
1215,3
1216,-5
1217,-9
1218,-5
1219,-1
1220,-3
1221,-3
1222,9
1223,-9
1224,5
1225,-1
1226,-1
1227,-9
1228,1
1229,-5
1230,-7
1231,5
1232,13
1233,-3
1234,3
1235,-7
1236,1
1237,-13
1238,-9
1239,-1
1240,11
1241,5
1242,5
1243,-13
1244,9
1245,1
1246,-5
1247,-15
1248,-15
1249,-13
1250,-7
1251,3
1252,9
1253,-1
1254,-1
1255,-5
1256,-7
1257,-15
1258,-13
1259,-5
1260,5
1261,3
1262,19
1263,5
1264,-3
1265,-7
1266,-5
1267,-5
1268,-5
1269,-3
1270,-3
1271,5
1272,5
1273,3
1274,1
1275,5
1276,-9
1277,-9
1278,-7
1279,-1
1280,-9
1281,-1
1282,13
1283,5
1284,5
1285,3
1286,-7
1287,-5
1288,-9
1289,-7
1290,3
1291,5
1292,-9
1293,-7
1294,9
1295,-5
1296,-3
1297,-5
1298,3
1299,-7
1300,-7
1301,-5
1302,3
1303,9
1304,1
1305,-3
1306,-7
1307,-17
1308,-9
1309,-3
1310,-1
1311,3
1312,-7
1313,9
1314,3
1315,-5
1316,-5
1317,-9
1318,-7
1319,-3
1320,-1
1321,9
1322,9
1323,9
1324,-17
1325,3
1326,-5
1327,-9
1328,-9
1329,-1
1330,5
1331,5
1332,9
1333,5
1334,-5
1335,9
1336,1
1337,-5
1338,1
1339,-1
1340,9
1341,9
1342,9
1343,5
1344,5
1345,-9
1346,-5
1347,-1
1348,-9
1349,3
1350,9
1351,5
1352,9
1353,-5
1354,5
1355,3
1356,-13
1357,-15
1358,-9
1359,3
1360,-7
1361,5
1362,13
1363,5
1364,-15
1365,-85
1366,5
1367,5
1368,25
1369,5
1370,-1
1371,9
1372,3
1373,-3
1374,1
1375,5
1376,5
1377,-7
1378,-9
1379,9
1380,1
1381,5
1382,5
1383,3
1384,1
1385,3
1386,-3
1387,-5
1388,-3
1389,-7
1390,1
1391,5
1392,9
1393,5
1394,1
1395,3
1396,-5
1397,-9
1398,-7
1399,-1
1400,1
1401,3
1402,5
1403,1
1404,1
1405,-3
1406,-7
1407,-9
1408,-5
1409,-1
1410,1
1411,5
1412,9
1413,3
1414,1
1415,5
1416,-7
1417,-9
1418,-5
1419,-1
1420,-1
1421,5
1422,5
1423,3
1424,1
1425,-1
1426,-9
1427,-5
1428,-5
1429,-1
1430,-3
1431,1
1432,9
1433,5
1434,1
1435,1
1436,-5
1437,-9
1438,-1
1439,-1
1440,-1
1441,3
1442,9
1443,3
1444,3
1445,-5
1446,-1
1447,-9
1448,-9
1449,-3
1450,1
1451,3
1452,9
1453,5
1454,1
1455,5
1456,1
1457,-9
1458,-7
1459,1
1460,11
1461,9
1462,5
1463,-3
1464,3
1465,-5
1466,-13
1467,-9
1468,-5
1469,-3
1470,-1
1471,1
1472,5
1473,9
1474,5
1475,1
1476,-7
1477,-5
1478,-1
1479,-1
1480,1
1481,1
1482,5
1483,15
1484,1
1485,-3
1486,-5
1487,-7
1488,-7
1489,-1
1490,1
1491,-1
1492,5
1493,1
1494,3
1495,1
1496,-1
1497,-7
1498,-1
1499,-1
1500,3
1501,1
1502,5
1503,9
1504,5
1505,-1
1506,-7
1507,-5
1508,-1
1509,1
1510,-1
1511,5
1512,5
1513,-1
1514,11
1515,3
1516,-5
1517,-5
1518,-1
1519,-3
1520,-5
1521,5
1522,1
1523,5
1524,-15
1525,-3
1526,-7
1527,-5
1528,-3
1529,1
1530,1
1531,5
1532,5
1533,9
1534,19
1535,-1
1536,1
1537,-5
1538,-9
1539,3
1540,5
1541,5
1542,5
1543,5
1544,1
1545,-1
1546,-9
1547,-5
1548,-5
1549,-3
1550,-1
1551,3
1552,5
1553,-5
1554,3
1555,-1
1556,-5
1557,-9
1558,-3
1559,-1
1560,1
1561,5
1562,3
1563,-3
1564,-3
1565,1
1566,-9
1567,5
1568,1
1569,1
1570,1
1571,5
1572,1
1573,1
1574,3
1575,-5
1576,-3
1577,-1
1578,1
1579,-1
1580,-1
1581,3
1582,5
1583,1
1584,-15
1585,-1
1586,-3
1587,1
1588,-5
1589,1
1590,3
1591,1
1592,1
1593,5
1594,1
1595,-5
1596,-5
1597,1
1598,-5
1599,15
1600,5
1601,5
1602,3
1603,1
1604,-9
1605,-5
1606,-7
1607,-1
1608,-1
1609,-7
1610,5
1611,3
1612,11
1613,5
1614,1
1615,-3
1616,-1
1617,-7
1618,-5
1619,-27
1620,-1
1621,9
1622,-1
1623,3
1624,3
1625,-3
1626,-3
1627,-5
1628,-3
1629,5
1630,-1
1631,9
1632,3
1633,11
1634,3
1635,-1
1636,-7
1637,-7
1638,1
1639,-1
1640,-7
1641,1
1642,5
1643,3
1644,1
1645,3
1646,-3
1647,-5
1648,-9
1649,1
1650,-7
1651,5
1652,5
1653,-3
1654,1
1655,-1
1656,-9
1657,-3
1658,-9
1659,-1
1660,-13
1661,1
1662,9
1663,5
1664,3
1665,-1
1666,-1
1667,-9
1668,-5
1669,1
1670,-1
1671,5
1672,5
1673,1
1674,-1
1675,-1
1676,-3
1677,-5
1678,-9
1679,-1
1680,3
1681,9
1682,5
1683,29
1684,1
1685,1
1686,-3
1687,-5
1688,-1
1689,-1
1690,-3
1691,-1
1692,-3
1693,5
1694,1
1695,1
1696,-1
1697,-7
1698,-3
1699,1
1700,-7
1701,5
1702,1
1703,13
1704,3
1705,-5
1706,-3
1707,-3
1708,-9
1709,1
1710,-1
1711,3
1712,1
1713,-1
1714,1
1715,-3
1716,-7
1717,-5
1718,-7
1719,1
1720,-9
1721,3
1722,5
1723,-1
1724,5
1725,-9
1726,-5
1727,-9
1728,-15
1729,11
1730,5
1731,-1
1732,1
1733,3
1734,3
1735,-3
1736,-3
1737,-7
1738,-9
1739,-1
1740,3
1741,5
1742,5
1743,-1
1744,1
1745,-5
1746,-7
1747,-5
1748,-7
1749,-1
1750,1
1751,11
1752,-1
1753,9
1754,-1
1755,-3
1756,-1
1757,-9
1758,1
1759,-3
1760,3
1761,5
1762,1
1763,1
1764,3
1765,5
1766,-5
1767,-5
1768,-3
1769,-1
1770,-3
1771,5
1772,5
1773,9
1774,1
1775,9
1776,5
1777,-5
1778,-9
1779,-5
1780,13
1781,5
1782,5
1783,-9
1784,-1
1785,-7
1786,-5
1787,1
1788,-9
1789,-7
1790,-1
1791,5
1792,9
1793,5
1794,3
1795,-1
1796,-7
1797,-7
1798,-5
1799,1
1800,1
1801,5
1802,5
1803,-1
1804,-1
1805,-1
1806,-3
1807,-9
1808,-5
1809,-9
1810,-3
1811,5
1812,3
1813,1
1814,3
1815,3
1816,-5
1817,-13
1818,-3
1819,-3
1820,-3
1821,13
1822,5
1823,1
1824,5
1825,5
1826,-5
1827,-3
1828,-7
1829,-3
1830,5
1831,13
1832,3
1833,5
1834,3
1835,1
1836,-23
1837,-7
1838,-5
1839,1
1840,-1
1841,11
1842,9
1843,9
1844,-1
1845,1
1846,33
1847,-3
1848,-3
1849,-5
1850,3
1851,-1
1852,9
1853,3
1854,3
1855,1
1856,-7
1857,-3
1858,-3
1859,-1
1860,1
1861,15
1862,1
1863,3
1864,-3
1865,-7
1866,-3
1867,-7
1868,-9
1869,-1
1870,1
1871,3
1872,9
1873,-1
1874,1
1875,1
1876,-7
1877,-3
1878,-9
1879,1
1880,1
1881,9
1882,1
1883,-3
1884,1
1885,-3
1886,1
1887,-7
1888,5
1889,-3
1890,5
1891,-1
1892,9
1893,3
1894,-1
1895,5
1896,-1
1897,-5
1898,-1
1899,1
1900,5
1901,3
1902,5
1903,1
1904,9
1905,5
1906,-5
1907,-5
1908,-5
1909,-5
1910,1
1911,3
1912,5
1913,1
1914,5
1915,1
1916,-3
1917,1
1918,-1
1919,-3
1920,3
1921,3
1922,3
1923,1
1924,-9
1925,3
1926,-3
1927,-5
1928,-5
1929,3
1930,9
1931,5
1932,3
1933,1
1934,-9
1935,-1
1936,-9
1937,-7
1938,-7
1939,-5
1940,-3
1941,5
1942,5
1943,5
1944,-1
1945,5
1946,-5
1947,-7
1948,-3
1949,-5
1950,-5
1951,1
1952,5
1953,1
1954,1
1955,-1
1956,-5
1957,-5
1958,-5
1959,-1
1960,13
1961,3
1962,5
1963,-3
1964,1
1965,1
1966,-5
1967,-1
1968,5
1969,5
1970,-1
1971,-1
1972,5
1973,1
1974,-1
1975,-3
1976,-7
1977,-7
1978,-1
1979,-7
1980,5
1981,-1
1982,-3
1983,-3
1984,3
1985,9
1986,-5
1987,1
1988,-1
1989,1
1990,5
1991,5
1992,-5
1993,9
1994,5
1995,-7
1996,-1
1997,-5
1998,-5
1999,-3
2000,1
2001,9
2002,-1
2003,5
2004,5
2005,-5
2006,-7
2007,-3
2008,-9
2009,-7
2010,1
2011,9
2012,-3
2013,23
2014,-3
2015,-1
2016,-7
2017,-3
2018,-5
2019,-3
2020,5
2021,5
2022,5
2023,15
2024,1
2025,1
2026,-1
2027,-7
2028,-3
2029,-3
2030,5
2031,1
2032,5
2033,-1
2034,1
2035,5
2036,-1
2037,-15
2038,1
2039,-3
2040,-1
2041,5
2042,1
2043,-3
2044,5
2045,-3
2046,-3
2047,-3
2048,-7
2049,1
2050,1
2051,-1
2052,3
2053,-1
2054,3
2055,-5
2056,-5
2057,1
2058,-5
2059,-1
2060,-1
2061,5
2062,9
2063,-1
2064,5
2065,5
2066,-5
2067,-1
2068,5
2069,-3
2070,5
2071,5
2072,-5
2073,5
2074,-9
2075,-1
2076,-1
2077,-9
2078,-9
2079,-5
2080,1
2081,3
2082,-3
2083,1
2084,-3
2085,9
2086,-7
2087,-7
2088,-13
2089,1
2090,5
2091,5
2092,-1
2093,3
2094,-1
2095,1
2096,-5
2097,-9
2098,-7
2099,-1
2100,-3
2101,5
2102,9
2103,-1
2104,11
2105,-5
2106,-3
2107,-9
2108,1
2109,-7
2110,-5
2111,1
2112,1
2113,5
2114,5
2115,-5
2116,-1
2117,-1
2118,1
2119,-3
2120,1
2121,5
2122,1
2123,3
2124,9
2125,-7
2126,-7
2127,1
2128,-7
2129,-1
2130,9
2131,9
2132,5
2133,11
2134,-5
2135,-1
2136,1
2137,-7
2138,-9
2139,3
2140,-5
2141,1
2142,3
2143,5
2144,5
2145,-3
2146,-5
2147,-3
2148,-7
2149,-5
2150,1
2151,5
2152,-1
2153,9
2154,5
2155,3
2156,-7
2157,-1
2158,1
2159,3
2160,-7
2161,3
2162,5
2163,1
2164,-3
2165,-5
2166,-7
2167,-7
2168,-3
2169,-1
2170,-3
2171,5
2172,5
2173,5
2174,1
2175,-3
2176,-9
2177,-7
2178,-5
2179,1
2180,1
2181,1
2182,1
2183,1
2184,3
2185,5
2186,-5
2187,-13
2188,5
2189,1
2190,3
2191,1
2192,5
2193,-5
2194,-1
2195,1
2196,-5
2197,-13
2198,5
2199,-1
2200,5
2201,5
2202,11
2203,-19
2204,5
2205,3
2206,1
2207,-7
2208,-5
2209,1
2210,3
2211,-3
2212,1
2213,-31
2214,5
2215,3
2216,-3
2217,-7
2218,-1
2219,-1
2220,-3
2221,1
2222,5
2223,-9
2224,5
2225,1
2226,-9
2227,-5
2228,-3
2229,-3
2230,3
2231,9
2232,5
2233,3
2234,3
2235,5
2236,3
2237,-1
2238,11
2239,-1
2240,-7
2241,9
2242,-1
2243,-1
2244,3
2245,-3
2246,-3
2247,-7
2248,-9
2249,-3
2250,-1
2251,3
2252,1
2253,9
2254,1
2255,1
2256,-7
2257,-9
2258,15
2259,-3
2260,5
2261,5
2262,1
2263,5
2264,-7
2265,5
2266,-1
2267,-7
2268,-3
2269,1
2270,-7
2271,1
2272,1
2273,3
2274,-9
2275,1
2276,-5
2277,-3
2278,-1
2279,1
2280,1
2281,5
2282,3
2283,-1
2284,5
2285,-3
2286,-5
2287,-23
2288,-9
2289,-3
2290,3
2291,-1
2292,3
2293,3
2294,-7
2295,-1
2296,-9
2297,1
2298,-5
2299,-1
2300,3
2301,1
2302,1
2303,3
2304,-1
2305,-1
2306,-7
2307,-5
2308,-3
2309,-1
2310,5
2311,5
2312,-5
2313,5
2314,9
2315,-3
2316,-5
2317,-9
2318,3
2319,-1
2320,-1
2321,9
2322,5
2323,-1
2324,3
2325,9
2326,1
2327,-5
2328,-3
2329,1
2330,1
2331,5
2332,-1
2333,-1
2334,3
2335,-3
2336,-5
2337,-9
2338,-7
2339,-5
2340,1
2341,5
2342,9
2343,3
2344,1
2345,1
2346,-7
2347,-7
2348,-1
2349,9
2350,5
2351,3
2352,5
2353,5
2354,3
2355,1
2356,-7
2357,-7
2358,-7
2359,-5
2360,3
2361,3
2362,-1
2363,1
2364,1
2365,-7
2366,-5
2367,-9
2368,-7
2369,9
2370,-3
2371,5
2372,5
2373,3
2374,-1
2375,-1
2376,-7
2377,-9
2378,-7
2379,3
2380,-1
2381,1
2382,9
2383,5
2384,-1
2385,-1
2386,-7
2387,-9
2388,1
2389,-5
2390,5
2391,1
2392,11
2393,-5
2394,3
2395,-3
2396,-7
2397,-3
2398,-9
2399,1
2400,15
2401,5
2402,5
2403,25
2404,3
2405,3
2406,-5
2407,-1
2408,-9
2409,3
2410,3
2411,5
2412,1
2413,5
2414,3
2415,1
2416,-9
2417,-7
2418,-1
2419,3
2420,-5
2421,5
2422,1
2423,1
2424,-3
2425,-1
2426,-3
2427,-5
2428,-1
2429,-1
2430,-7
2431,-1
2432,3
2433,1
2434,-5
2435,1
2436,-7
2437,-9
2438,-3
2439,5
2440,3
2441,5
2442,5
2443,-1
2444,3
2445,-1
2446,-9
2447,-9
2448,-5
2449,-3
2450,-7
2451,11
2452,1
2453,-3
2454,3
2455,-1
2456,-3
2457,-1
2458,-3
2459,-5
2460,-1
2461,3
2462,3
2463,3
2464,1
2465,5
2466,-7
2467,-5
2468,-3
2469,-7
2470,1
2471,5
2472,3
2473,5
2474,-1
2475,-1
2476,19
2477,-1
2478,3
2479,-1
2480,1
2481,-9
2482,3
2483,3
2484,-3
2485,-5
2486,1
2487,-17
2488,1
2489,-5
2490,3
2491,3
2492,9
2493,3
2494,1
2495,-3
2496,-3
2497,-5
2498,-7
2499,-1
2500,-1
2501,3
2502,1
2503,5
2504,5
2505,3
2506,-7
2507,-3
2508,-5
2509,5
2510,5
2511,3
2512,-9
2513,3
2514,5
2515,-3
2516,-3
2517,-9
2518,-5
2519,5
2520,-13
2521,3
2522,5
2523,5
2524,1
2525,5
2526,-7
2527,-9
2528,-5
2529,-3
2530,1
2531,1
2532,5
2533,-5
2534,1
2535,-1
2536,-5
2537,-5
2538,-9
2539,1
2540,1
2541,1
2542,5
2543,15
2544,3
2545,1
2546,-3
2547,-7
2548,-19
2549,-1
2550,9
2551,1
2552,5
2553,9
2554,3
2555,-5
2556,3
2557,-5
2558,-7
2559,5
2560,1
2561,3
2562,5
2563,-3
2564,1
2565,5
2566,-3
2567,-1
2568,-1
2569,1
2570,1
2571,5
2572,5
2573,1
2574,5
2575,3
2576,-7
2577,-7
2578,-1
2579,-9
2580,3
2581,9
2582,3
2583,-1
2584,1
2585,-1
2586,-5
2587,-3
2588,3
2589,1
2590,5
2591,5
2592,9
2593,5
2594,-5
2595,5
2596,-5
2597,-3
2598,-5
2599,-3
2600,-7
2601,9
2602,5
2603,5
2604,9
2605,9
2606,1
2607,-1
2608,1
2609,-5
2610,3
2611,5
2612,1
2613,3
2614,-3
2615,9
2616,-1
2617,-5
2618,-7
2619,-3
2620,3
2621,5
2622,5
2623,5
2624,-1
2625,1
2626,-13
2627,-7
2628,-9
2629,-1
2630,-1
2631,1
2632,1
2633,5
2634,1
2635,-7
2636,-5
2637,-3
2638,-1
2639,-1
2640,-1
2641,5
2642,5
2643,27
2644,3
2645,-1
2646,-7
2647,-3
2648,-7
2649,-1
2650,-3
2651,5
2652,5
2653,13
2654,-1
2655,-7
2656,-15
2657,-9
2658,-5
2659,-1
2660,3
2661,5
2662,9
2663,1
2664,1
2665,5
2666,-9
2667,-9
2668,-9
2669,3
2670,5
2671,1
2672,-7
2673,3
2674,3
2675,21
2676,-9
2677,-3
2678,-5
2679,1
2680,3
2681,1
2682,9
2683,1
2684,1
2685,1
2686,-9
2687,-1
2688,-9
2689,3
2690,19
2691,5
2692,1
2693,1
2694,-3
2695,1
2696,-9
2697,-7
2698,-9
2699,-5
2700,-5
2701,5
2702,5
2703,9
2704,-3
2705,1
2706,-3
2707,-1
2708,-9
2709,1
2710,5
2711,13
2712,1
2713,5
2714,1
2715,3
2716,1
2717,-5
2718,-9
2719,-1
2720,5
2721,3
2722,5
2723,1
2724,-19
2725,1
2726,-5
2727,-7
2728,-5
2729,-1
2730,15
2731,5
2732,9
