data/raw/AC/ac2.csv

Channel              :,CH1
Frequency            :,	?
Period               :,  ?
PK-PK                :,468.0mV?
Average              :,-1.026mV?
Vertical pos         :,-35.000000mV
Probe attenuation    :,1X
Voltage per ADC value:,0.125000mV
Time interval        :,2000.00000uS

index,CH1_Voltage(mV)
1,13.000000
2,13.000000
3,1.000000
4,21.000000
5,-3.000000
6,-5.000000
7,-3.000000
8,-1.000000
9,-3.000000
10,5.000000
11,7.000000
12,13.000000
13,3.000000
14,-1.000000
15,1.000000
16,-5.000000
17,-5.000000
18,-5.000000
19,1.000000
20,1.000000
21,3.000000
22,15.000000
23,-3.000000
24,-1.000000
25,1.000000
26,-1.000000
27,-3.000000
28,-3.000000
29,-3.000000
30,-1.000000
31,9.000000
32,5.000000
33,7.000000
34,1.000000
35,1.000000
36,-3.000000
37,-13.000000
38,-7.000000
39,-7.000000
40,1.000000
41,5.000000
42,7.000000
43,1.000000
44,-1.000000
45,3.000000
46,-3.000000
47,-7.000000
48,-5.000000
49,5.000000
50,-1.000000
51,7.000000
52,5.000000
53,7.000000
54,-1.000000
55,1.000000
56,-7.000000
57,-7.000000
58,-9.000000
59,-7.000000
60,-5.000000
61,1.000000
62,5.000000
63,3.000000
64,3.000000
65,1.000000
66,-7.000000
67,-5.000000
68,-7.000000
69,-3.000000
70,-3.000000
71,3.000000
72,3.000000
73,1.000000
74,-5.000000
75,9.000000
76,-5.000000
77,-7.000000
78,-7.000000
79,1.000000
80,-1.000000
81,5.000000
82,3.000000
83,7.000000
84,3.000000
85,5.000000
86,-1.000000
87,-5.000000
88,1.000000
89,-3.000000
90,-1.000000
91,5.000000
92,9.000000
93,1.000000
94,21.000000
95,3.000000
96,-5.000000
97,-5.000000
98,-3.000000
99,-1.000000
100,-1.000000
101,11.000000
102,7.000000
103,3.000000
104,-9.000000
105,-3.000000
106,-3.000000
107,-5.000000
108,13.000000
109,-3.000000
110,-3.000000
111,5.000000
112,25.000000
113,21.000000
114,1.000000
115,1.000000
116,-1.000000
117,-3.000000
118,-5.000000
119,-1.000000
120,-3.000000
121,7.000000
122,13.000000
123,17.000000
124,1.000000
125,5.000000
126,-5.000000
127,-33.000000
128,-5.000000
129,-1.000000
130,-1.000000
131,-11.000000
132,3.000000
133,5.000000
134,-1.000000
135,1.000000
136,-3.000000
137,-9.000000
138,-7.000000
139,-7.000000
140,-3.000000
141,-17.000000
142,5.000000
143,-3.000000
144,-1.000000
145,1.000000
146,-43.000000
147,-5.000000
148,-9.000000
149,-7.000000
150,1.000000
151,3.000000
152,7.000000
153,-1.000000
154,-1.000000
155,-1.000000
156,-1.000000
157,-9.000000
158,-7.000000
159,-1.000000
160,-7.000000
161,3.000000
162,3.000000
163,13.000000
164,1.000000
165,3.000000
166,11.000000
167,-5.000000
168,-1.000000
169,1.000000
170,-1.000000
171,9.000000
172,9.000000
173,-5.000000
174,5.000000
175,-1.000000
176,-11.000000
177,-5.000000
178,-9.000000
179,-3.000000
180,-3.000000
181,3.000000
182,-1.000000
183,19.000000
184,31.000000
185,3.000000
186,-5.000000
187,-1.000000
188,-11.000000
189,-3.000000
190,-1.000000
191,5.000000
192,25.000000
193,-11.000000
194,1.000000
195,-1.000000
196,-3.000000
197,-9.000000
198,-3.000000
199,1.000000
200,1.000000
201,1.000000
202,3.000000
203,9.000000
204,1.000000
205,1.000000
206,-7.000000
207,-1.000000
208,-5.000000
209,-1.000000
210,1.000000
211,7.000000
212,3.000000
213,1.000000
214,1.000000
215,-1.000000
216,1.000000
217,-27.000000
218,-7.000000
219,-3.000000
220,-1.000000
221,7.000000
222,1.000000
223,-1.000000
224,1.000000
225,1.000000
226,-3.000000
227,-11.000000
228,-7.000000
229,-7.000000
230,-1.000000
231,5.000000
232,3.000000
233,7.000000
234,-1.000000
235,7.000000
236,-7.000000
237,-7.000000
238,1.000000
239,13.000000
240,-1.000000
241,1.000000
242,5.000000
243,-1.000000
244,1.000000
245,1.000000
246,-5.000000
247,-9.000000
248,-5.000000
249,1.000000
250,-1.000000
251,7.000000
252,5.000000
253,1.000000
254,-21.000000
255,1.000000
256,-5.000000
257,-7.000000
258,13.000000
259,-3.000000
260,-1.000000
261,9.000000
262,5.000000
263,3.000000
264,-5.000000
265,7.000000
266,-7.000000
267,-7.000000
268,25.000000
269,-3.000000
270,1.000000
271,1.000000
272,-1.000000
273,-3.000000
274,3.000000
275,-3.000000
276,-3.000000
277,-9.000000
278,-5.000000
279,-3.000000
280,1.000000
281,3.000000
282,-3.000000
283,3.000000
284,3.000000
285,-3.000000
286,-1.000000
287,-13.000000
288,-1.000000
289,-3.000000
290,-3.000000
291,3.000000
292,15.000000
293,7.000000
294,-1.000000
295,-1.000000
296,-7.000000
297,1.000000
298,-7.000000
299,-1.000000
300,1.000000
301,15.000000
302,7.000000
303,-1.000000
304,1.000000
305,-1.000000
306,-5.000000
307,-5.000000
308,5.000000
309,1.000000
310,3.000000
311,7.000000
312,1.000000
313,1.000000
314,-1.000000
315,-1.000000
316,-5.000000
317,-7.000000
318,-11.000000
319,-1.000000
320,13.000000
321,-1.000000
322,7.000000
323,5.000000
324,-1.000000
325,3.000000
326,-7.000000
327,-11.000000
328,-11.000000
329,-21.000000
330,-1.000000
331,3.000000
332,5.000000
333,23.000000
334,-5.000000
335,-1.000000
336,-1.000000
337,-5.000000
338,-5.000000
339,-3.000000
340,-3.000000
341,3.000000
342,5.000000
343,23.000000
344,15.000000
345,-3.000000
346,-7.000000
347,-3.000000
348,-11.000000
349,-1.000000
350,-3.000000
351,1.000000
352,1.000000
353,1.000000
354,7.000000
355,-5.000000
356,-1.000000
357,-9.000000
358,-3.000000
359,-1.000000
360,5.000000
361,7.000000
362,7.000000
363,1.000000
364,-1.000000
365,1.000000
366,1.000000
367,-11.000000
368,-1.000000
369,-1.000000
370,-5.000000
371,1.000000
372,-29.000000
373,5.000000
374,-3.000000
375,5.000000
376,-7.000000
377,-7.000000
378,-3.000000
379,-1.000000
380,1.000000
381,11.000000
382,3.000000
383,3.000000
384,5.000000
385,1.000000
386,-5.000000
387,-5.000000
388,-7.000000
389,-7.000000
390,-3.000000
391,5.000000
392,3.000000
393,1.000000
394,1.000000
395,19.000000
396,-7.000000
397,-5.000000
398,13.000000
399,-1.000000
400,-1.000000
401,3.000000
402,1.000000
403,-7.000000
404,-1.000000
405,-3.000000
406,-7.000000
407,-7.000000
408,-19.000000
409,3.000000
410,1.000000
411,-3.000000
412,9.000000
413,-1.000000
414,11.000000
415,3.000000
416,-5.000000
417,-7.000000
418,-5.000000
419,-1.000000
420,1.000000
421,3.000000
422,9.000000
423,3.000000
424,-7.000000
425,1.000000
426,-3.000000
427,-7.000000
428,-13.000000
429,-3.000000
430,1.000000
431,3.000000
432,1.000000
433,11.000000
434,31.000000
435,1.000000
436,-5.000000
437,-9.000000
438,-3.000000
439,1.000000
440,-5.000000
441,5.000000
442,-1.000000
443,1.000000
444,1.000000
445,-1.000000
446,-3.000000
447,-11.000000
448,-7.000000
449,-3.000000
450,-5.000000
451,5.000000
452,27.000000
453,1.000000
454,1.000000
455,-1.000000
456,-1.000000
457,11.000000
458,-11.000000
459,-3.000000
460,1.000000
461,5.000000
462,3.000000
463,5.000000
464,-3.000000
465,-1.000000
466,-3.000000
467,7.000000
468,-9.000000
469,-7.000000
470,5.000000
471,3.000000
472,5.000000
473,-1.000000
474,1.000000
475,-1.000000
476,-5.000000
477,-11.000000
478,-11.000000
479,-1.000000
480,-1.000000
481,5.000000
482,3.000000
483,7.000000
484,1.000000
485,-3.000000
486,-3.000000
487,-5.000000
488,1.000000
489,-3.000000
490,-3.000000
491,-9.000000
492,1.000000
493,1.000000
494,5.000000
495,5.000000
496,3.000000
497,-3.000000
498,-9.000000
499,-3.000000
500,-1.000000
501,13.000000
502,5.000000
503,-1.000000
504,17.000000
505,1.000000
506,-21.000000
507,-5.000000
508,-7.000000
509,-1.000000
510,1.000000
511,9.000000
512,5.000000
513,3.000000
514,35.000000
515,-1.000000
516,35.000000
517,-9.000000
518,-3.000000
519,-3.000000
520,-3.000000
521,7.000000
522,7.000000
523,7.000000
524,1.000000
525,-3.000000
526,25.000000
527,-7.000000
528,-3.000000
529,-3.000000
530,-1.000000
531,1.000000
532,-3.000000
533,5.000000
534,-1.000000
535,5.000000
536,-11.000000
537,-7.000000
538,-11.000000
539,-1.000000
540,-3.000000
541,7.000000
542,-1.000000
543,3.000000
544,-3.000000
545,-5.000000
546,-5.000000
547,1.000000
548,-7.000000
549,-1.000000
550,-3.000000
551,5.000000
552,9.000000
553,-7.000000
554,-3.000000
555,-1.000000
556,-5.000000
557,-11.000000
558,-3.000000
559,-5.000000
560,1.000000
561,1.000000
562,1.000000
563,3.000000
564,-1.000000
565,-3.000000
566,-3.000000
567,-9.000000
568,-7.000000
569,-3.000000
570,-1.000000
571,3.000000
572,7.000000
573,9.000000
574,-7.000000
575,3.000000
576,3.000000
577,-7.000000
578,-11.000000
579,-5.000000
580,-3.000000
581,3.000000
582,5.000000
583,-1.000000
584,1.000000
585,1.000000
586,-5.000000
587,-5.000000
588,-7.000000
589,-7.000000
590,-7.000000
591,1.000000
592,1.000000
593,-1.000000
594,-11.000000
595,-7.000000
596,-7.000000
597,-7.000000
598,-7.000000
599,-5.000000
600,-3.000000
601,7.000000
602,1.000000
603,1.000000
604,7.000000
605,-1.000000
606,-7.000000
607,-3.000000
608,-3.000000
609,3.000000
610,-5.000000
611,7.000000
612,13.000000
613,3.000000
614,3.000000
615,-1.000000
616,-5.000000
617,-9.000000
618,-3.000000
619,-1.000000
620,-3.000000
621,3.000000
622,-3.000000
623,13.000000
624,-3.000000
625,-3.000000
626,-7.000000
627,-3.000000
628,-1.000000
629,-5.000000
630,1.000000
631,5.000000
632,7.000000
633,-9.000000
634,1.000000
635,-1.000000
636,-1.000000
637,-3.000000
638,-5.000000
639,-5.000000
640,-3.000000
641,5.000000
642,3.000000
643,13.000000
644,1.000000
645,1.000000
646,-7.000000
647,-9.000000
648,-15.000000
649,-1.000000
650,-1.000000
651,3.000000
652,1.000000
653,-3.000000
654,-1.000000
655,1.000000
656,-3.000000
657,-7.000000
658,-17.000000
659,-1.000000
660,-3.000000
661,3.000000
662,3.000000
663,7.000000
664,5.000000
665,3.000000
666,-7.000000
667,-139.000000
668,5.000000
669,67.000000
670,13.000000
671,9.000000
672,5.000000
673,1.000000
674,3.000000
675,3.000000
676,-3.000000
677,-3.000000
678,-5.000000
679,-3.000000
680,-1.000000
681,1.000000
682,7.000000
683,1.000000
684,1.000000
685,1.000000
686,-5.000000
687,-7.000000
688,-15.000000
689,1.000000
690,-1.000000
691,5.000000
692,7.000000
693,13.000000
694,1.000000
695,-3.000000
696,-7.000000
697,-5.000000
698,-7.000000
699,-1.000000
700,1.000000
701,-11.000000
702,31.000000
703,7.000000
704,3.000000
705,-1.000000
706,-1.000000
707,-9.000000
708,1.000000
709,-3.000000
710,7.000000
711,7.000000
712,7.000000
713,7.000000
714,3.000000
715,-1.000000
716,-1.000000
717,-11.000000
718,-15.000000
719,-3.000000
720,-3.000000
721,7.000000
722,5.000000
723,-5.000000
724,17.000000
725,1.000000
726,-1.000000
727,-33.000000
728,1.000000
729,-3.000000
730,-7.000000
731,7.000000
732,3.000000
733,5.000000
734,-1.000000
735,-1.000000
736,-17.000000
737,-7.000000
738,-5.000000
739,1.000000
740,-3.000000
741,3.000000
742,5.000000
743,5.000000
744,-1.000000
745,1.000000
746,-3.000000
747,-3.000000
748,-3.000000
749,-1.000000
750,-1.000000
751,7.000000
752,7.000000
753,7.000000
754,-7.000000
755,3.000000
756,-1.000000
757,-13.000000
758,-7.000000
759,-5.000000
760,-3.000000
761,1.000000
762,1.000000
763,-1.000000
764,1.000000
765,-1.000000
766,-7.000000
767,-1.000000
768,-1.000000
769,-1.000000
770,1.000000
771,1.000000
772,-1.000000
773,1.000000
774,1.000000
775,1.000000
776,-3.000000
777,-1.000000
778,-1.000000
779,1.000000
780,-1.000000
781,5.000000
782,7.000000
783,3.000000
784,3.000000
785,-7.000000
786,-3.000000
787,-5.000000
788,-5.000000
789,-1.000000
790,1.000000
791,-1.000000
792,7.000000
793,-1.000000
794,1.000000
795,-3.000000
796,-1.000000
797,-1.000000
798,-7.000000
799,-3.000000
800,1.000000
801,7.000000
802,27.000000
803,-3.000000
804,-1.000000
805,-5.000000
806,-7.000000
807,-13.000000
808,-3.000000
809,-3.000000
810,1.000000
811,3.000000
812,7.000000
813,3.000000
814,1.000000
815,-3.000000
816,-7.000000
817,1.000000
818,-3.000000
819,-5.000000
820,-1.000000
821,1.000000
822,1.000000
823,1.000000
824,3.000000
825,1.000000
826,1.000000
827,-9.000000
828,21.000000
829,-3.000000
830,1.000000
831,1.000000
832,1.000000
833,-23.000000
834,1.000000
835,3.000000
836,-7.000000
837,-5.000000
838,-7.000000
839,-11.000000
840,-1.000000
841,3.000000
842,1.000000
843,27.000000
844,1.000000
845,-5.000000
846,-7.000000
847,-11.000000
848,-7.000000
849,11.000000
850,-1.000000
851,3.000000
852,5.000000
853,-1.000000
854,1.000000
855,1.000000
856,-1.000000
857,-7.000000
858,-5.000000
859,1.000000
860,-3.000000
861,9.000000
862,5.000000
863,3.000000
864,-1.000000
865,1.000000
866,-1.000000
867,-7.000000
868,-9.000000
869,-3.000000
870,-3.000000
871,1.000000
872,3.000000
873,5.000000
874,-1.000000
875,1.000000
876,-5.000000
877,-9.000000
878,1.000000
879,-3.000000
880,13.000000
881,3.000000
882,-1.000000
883,-3.000000
884,3.000000
885,-1.000000
886,-3.000000
887,-9.000000
888,-15.000000
889,-3.000000
890,-5.000000
891,-3.000000
892,9.000000
893,-15.000000
894,5.000000
895,-1.000000
896,-1.000000
897,-11.000000
898,-5.000000
899,-1.000000
900,-3.000000
901,-1.000000
902,11.000000
903,-21.000000
904,1.000000
905,1.000000
906,-3.000000
907,-3.000000
908,-5.000000
909,3.000000
910,1.000000
911,3.000000
912,5.000000
913,1.000000
914,1.000000
915,1.000000
916,-1.000000
917,-3.000000
918,-9.000000
919,17.000000
920,1.000000
921,-3.000000
922,9.000000
923,1.000000
924,5.000000
925,-3.000000
926,-9.000000
927,-7.000000
928,1.000000
929,1.000000
930,23.000000
931,1.000000
932,3.000000
933,1.000000
934,7.000000
935,1.000000
936,-7.000000
937,-5.000000
938,-3.000000
939,-1.000000
940,-1.000000
941,3.000000
942,1.000000
943,3.000000
944,19.000000
945,-3.000000
946,-3.000000
947,-7.000000
948,-7.000000
949,-7.000000
950,1.000000
951,-3.000000
952,1.000000
953,3.000000
954,-3.000000
955,-1.000000
956,-15.000000
957,-5.000000
958,-5.000000
959,19.000000
960,3.000000
961,7.000000
962,-15.000000
963,-17.000000
964,7.000000
965,1.000000
966,13.000000
967,1.000000
968,1.000000
969,-7.000000
970,1.000000
971,17.000000
972,1.000000
973,5.000000
974,-1.000000
975,-1.000000
976,-71.000000
977,1.000000
978,-7.000000
979,-3.000000
980,-3.000000
981,-29.000000
982,3.000000
983,7.000000
984,-1.000000
985,-1.000000
986,-5.000000
987,23.000000
988,-5.000000
989,-1.000000
990,-1.000000
991,35.000000
992,5.000000
993,7.000000
994,-3.000000
995,9.000000
996,-7.000000
997,-3.000000
998,-11.000000
999,-5.000000
1000,1.000000
1001,5.000000
1002,11.000000
1003,9.000000
1004,1.000000
1005,-1.000000
1006,-13.000000
1007,-3.000000
1008,-9.000000
1009,-3.000000
1010,-5.000000
1011,7.000000
1012,9.000000
1013,1.000000
1014,3.000000
1015,-3.000000
1016,-5.000000
1017,-11.000000
1018,1.000000
1019,-1.000000
1020,21.000000
1021,3.000000
1022,-1.000000
1023,-9.000000
1024,-29.000000
1025,-1.000000
1026,-3.000000
1027,-11.000000
1028,-15.000000
1029,1.000000
1030,1.000000
1031,1.000000
1032,7.000000
1033,-41.000000
1034,-1.000000
1035,-1.000000
1036,-5.000000
1037,-7.000000
1038,-9.000000
1039,1.000000
1040,1.000000
1041,-1.000000
1042,7.000000
1043,17.000000
1044,1.000000
1045,3.000000
1046,-5.000000
1047,-5.000000
1048,-5.000000
1049,-3.000000
1050,-3.000000
1051,-1.000000
1052,5.000000
1053,5.000000
1054,3.000000
1055,-1.000000
1056,-5.000000
1057,-3.000000
1058,-9.000000
1059,-11.000000
1060,-1.000000
1061,1.000000
1062,13.000000
1063,-1.000000
1064,3.000000
1065,-7.000000
1066,-7.000000
1067,1.000000
1068,-9.000000
1069,39.000000
1070,-1.000000
1071,3.000000
1072,7.000000
1073,1.000000
1074,23.000000
1075,-3.000000
1076,-5.000000
1077,-9.000000
1078,-15.000000
1079,-1.000000
1080,-1.000000
1081,5.000000
1082,9.000000
1083,7.000000
1084,-7.000000
1085,-3.000000
1086,-9.000000
1087,-5.000000
1088,-11.000000
1089,-5.000000
1090,1.000000
1091,-1.000000
1092,7.000000
1093,3.000000
1094,-21.000000
1095,3.000000
1096,-3.000000
1097,-7.000000
1098,19.000000
1099,-3.000000
1100,3.000000
1101,3.000000
1102,9.000000
1103,-1.000000
1104,-3.000000
1105,-1.000000
1106,-13.000000
1107,-15.000000
1108,-7.000000
1109,-7.000000
1110,-1.000000
1111,5.000000
1112,5.000000
1113,3.000000
1114,3.000000
1115,7.000000
1116,1.000000
1117,-3.000000
1118,-9.000000
1119,7.000000
1120,-3.000000
1121,3.000000
1122,1.000000
1123,7.000000
1124,-1.000000
1125,-3.000000
1126,-3.000000
1127,-3.000000
1128,-7.000000
1129,-11.000000
1130,-1.000000
1131,5.000000
1132,3.000000
1133,7.000000
1134,3.000000
1135,-3.000000
1136,1.000000
1137,-15.000000
1138,-7.000000
1139,-3.000000
1140,1.000000
1141,-1.000000
1142,3.000000
1143,3.000000
1144,7.000000
1145,-1.000000
1146,-1.000000
1147,-7.000000
1148,-11.000000
1149,-3.000000
1150,-1.000000
1151,-1.000000
1152,35.000000
1153,-3.000000
1154,-33.000000
1155,1.000000
1156,-1.000000
1157,-11.000000
1158,41.000000
1159,-3.000000
1160,-1.000000
1161,1.000000
1162,3.000000
1163,17.000000
1164,1.000000
1165,-3.000000
1166,-5.000000
1167,-1.000000
1168,-3.000000
1169,-5.000000
1170,1.000000
1171,1.000000
1172,7.000000
1173,3.000000
1174,-1.000000
1175,1.000000
1176,-3.000000
1177,-11.000000
1178,-7.000000
1179,1.000000
1180,-1.000000
1181,7.000000
1182,3.000000
1183,13.000000
1184,-3.000000
1185,1.000000
1186,1.000000
1187,-7.000000
1188,-5.000000
1189,7.000000
1190,-3.000000
1191,1.000000
1192,5.000000
1193,-1.000000
1194,7.000000
1195,-21.000000
1196,-5.000000
1197,-15.000000
1198,-11.000000
1199,-7.000000
1200,1.000000
1201,3.000000
1202,5.000000
1203,9.000000
1204,3.000000
1205,29.000000
1206,-1.000000
1207,-3.000000
1208,7.000000
1209,-1.000000
1210,-3.000000
1211,3.000000
1212,9.000000
1213,13.000000
1214,-9.000000
1215,-5.000000
1216,-5.000000
1217,-7.000000
1218,31.000000
1219,-7.000000
1220,-3.000000
1221,1.000000
1222,13.000000
1223,-15.000000
1224,-3.000000
1225,1.000000
1226,1.000000
1227,-3.000000
1228,-7.000000
1229,-1.000000
1230,1.000000
1231,1.000000
1232,15.000000
1233,-3.000000
1234,-7.000000
1235,1.000000
1236,-1.000000
1237,7.000000
1238,-3.000000
1239,-5.000000
1240,-3.000000
1241,3.000000
1242,7.000000
1243,5.000000
1244,3.000000
1245,1.000000
1246,-7.000000
1247,-39.000000
1248,-1.000000
1249,-7.000000
1250,35.000000
1251,1.000000
1252,7.000000
1253,5.000000
1254,1.000000
1255,1.000000
1256,-1.000000
1257,-11.000000
1258,-7.000000
1259,-17.000000
1260,1.000000
1261,5.000000
1262,3.000000
1263,5.000000
1264,-1.000000
1265,1.000000
1266,-3.000000
1267,-7.000000
1268,1.000000
1269,-1.000000
1270,1.000000
1271,3.000000
1272,5.000000
1273,-1.000000
1274,7.000000
1275,-3.000000
1276,1.000000
1277,-15.000000
1278,-1.000000
1279,-3.000000
1280,-1.000000
1281,1.000000
1282,1.000000
1283,5.000000
1284,-17.000000
1285,-3.000000
1286,-5.000000
1287,-9.000000
1288,-3.000000
1289,-3.000000
1290,1.000000
1291,9.000000
1292,5.000000
1293,9.000000
1294,1.000000
1295,1.000000
1296,-17.000000
1297,-7.000000
1298,-1.000000
1299,-7.000000
1300,1.000000
1301,9.000000
1302,5.000000
1303,1.000000
1304,1.000000
1305,1.000000
1306,-1.000000
1307,-5.000000
1308,-9.000000
1309,-7.000000
1310,-3.000000
1311,-11.000000
1312,-1.000000
1313,1.000000
1314,1.000000
1315,3.000000
1316,-1.000000
1317,-5.000000
1318,-7.000000
1319,1.000000
1320,-1.000000
1321,5.000000
1322,3.000000
1323,-3.000000
1324,1.000000
1325,-1.000000
1326,21.000000
1327,9.000000
1328,-1.000000
1329,17.000000
1330,1.000000
1331,1.000000
1332,9.000000
1333,3.000000
1334,3.000000
1335,-1.000000
1336,-23.000000
1337,-3.000000
1338,-3.000000
1339,-1.000000
1340,-1.000000
1341,11.000000
1342,9.000000
1343,1.000000
1344,-23.000000
1345,1.000000
1346,-3.000000
1347,-11.000000
1348,-1.000000
1349,-1.000000
1350,1.000000
1351,3.000000
1352,3.000000
1353,-1.000000
1354,21.000000
1355,-1.000000
1356,-7.000000
1357,-7.000000
1358,-9.000000
1359,-5.000000
1360,3.000000
1361,-7.000000
1362,5.000000
1363,-7.000000
1364,1.000000
1365,-1.000000
1366,-5.000000
1367,-11.000000
1368,-7.000000
1369,7.000000
1370,-3.000000
1371,3.000000
1372,-1.000000
1373,1.000000
1374,1.000000
1375,-1.000000
1376,1.000000
1377,-1.000000
1378,-7.000000
1379,-7.000000
1380,1.000000
1381,-1.000000
1382,-23.000000
1383,-1.000000
1384,7.000000
1385,1.000000
1386,-7.000000
1387,-3.000000
1388,-5.000000
1389,-5.000000
1390,-3.000000
1391,5.000000
1392,9.000000
1393,9.000000
1394,1.000000
1395,-27.000000
1396,-3.000000
1397,-1.000000
1398,-5.000000
1399,-5.000000
1400,-1.000000
1401,5.000000
1402,-11.000000
1403,-9.000000
1404,-13.000000
1405,-5.000000
1406,-3.000000
1407,-5.000000
1408,-1.000000
1409,-1.000000
1410,-3.000000
1411,1.000000
1412,9.000000
1413,3.000000
1414,1.000000
1415,1.000000
1416,5.000000
1417,-5.000000
1418,-7.000000
