data/raw/AC/ac4.csv

Channel              :,CH1
Frequency            :,	?
Period               :,  ?
PK-PK                :,188.0mV
Average              :,-0.908mV
Vertical pos         :,-35.000000mV
Probe attenuation    :,1X
Voltage per ADC value:,0.125000mV
Time interval        :,2000.00000uS

index,CH1_Voltage(mV)
1,-3.000000
2,-3.000000
3,-5.000000
4,-7.000000
5,1.000000
6,3.000000
7,3.000000
8,-1.000000
9,-1.000000
10,-5.000000
11,-5.000000
12,-5.000000
13,1.000000
14,-5.000000
15,-1.000000
16,3.000000
17,3.000000
18,-3.000000
19,-1.000000
20,-3.000000
21,-7.000000
22,-7.000000
23,-3.000000
24,1.000000
25,3.000000
26,1.000000
27,5.000000
28,-1.000000
29,1.000000
30,1.000000
31,-3.000000
32,-5.000000
33,-11.000000
34,-11.000000
35,3.000000
36,7.000000
37,3.000000
38,3.000000
39,1.000000
40,-1.000000
41,-5.000000
42,-7.000000
43,-9.000000
44,5.000000
45,3.000000
46,5.000000
47,-1.000000
48,1.000000
49,-1.000000
50,-7.000000
51,-5.000000
52,-3.000000
53,-7.000000
54,-7.000000
55,1.000000
56,1.000000
57,-1.000000
58,1.000000
59,-1.000000
60,-11.000000
61,-3.000000
62,-7.000000
63,-3.000000
64,-1.000000
65,3.000000
66,3.000000
67,5.000000
68,1.000000
69,-1.000000
70,-1.000000
71,-7.000000
72,-7.000000
73,-3.000000
74,-1.000000
75,1.000000
76,1.000000
77,1.000000
78,-1.000000
79,1.000000
80,-3.000000
81,-1.000000
82,-5.000000
83,-3.000000
84,-1.000000
85,-1.000000
86,1.000000
87,1.000000
88,1.000000
89,-1.000000
90,-3.000000
91,-5.000000
92,-5.000000
93,-3.000000
94,3.000000
95,1.000000
96,3.000000
97,1.000000
98,-3.000000
99,3.000000
100,-3.000000
101,-5.000000
102,-7.000000
103,-1.000000
104,-3.000000
105,3.000000
106,3.000000
107,3.000000
108,5.000000
109,-1.000000
110,1.000000
111,-9.000000
112,-5.000000
113,-3.000000
114,1.000000
115,1.000000
116,3.000000
117,7.000000
118,1.000000
119,1.000000
120,3.000000
121,-7.000000
122,-5.000000
123,-7.000000
124,-5.000000
125,5.000000
126,1.000000
127,1.000000
128,-3.000000
129,3.000000
130,-3.000000
131,-7.000000
132,-7.000000
133,-1.000000
134,-1.000000
135,3.000000
136,-1.000000
137,-1.000000
138,-7.000000
139,-1.000000
140,-1.000000
141,-7.000000
142,-1.000000
143,-5.000000
144,-7.000000
145,-1.000000
146,7.000000
147,5.000000
148,-7.000000
149,1.000000
150,-9.000000
151,-7.000000
152,-5.000000
153,1.000000
154,-3.000000
155,-3.000000
156,1.000000
157,5.000000
158,1.000000
159,-3.000000
160,-3.000000
161,-7.000000
162,-3.000000
163,-1.000000
164,-1.000000
165,1.000000
166,3.000000
167,3.000000
168,3.000000
169,1.000000
170,-3.000000
171,-5.000000
172,-3.000000
173,-1.000000
174,1.000000
175,1.000000
176,5.000000
177,1.000000
178,1.000000
179,1.000000
180,1.000000
181,-7.000000
182,-9.000000
183,-3.000000
184,-1.000000
185,3.000000
186,1.000000
187,-1.000000
188,-3.000000
189,1.000000
190,-5.000000
191,-7.000000
192,-7.000000
193,-1.000000
194,-3.000000
195,1.000000
196,-1.000000
197,3.000000
198,-7.000000
199,1.000000
200,-5.000000
201,-7.000000
202,-15.000000
203,-1.000000
204,-3.000000
205,1.000000
206,1.000000
207,-1.000000
208,11.000000
209,-3.000000
210,1.000000
211,-9.000000
212,-3.000000
213,-1.000000
214,1.000000
215,1.000000
216,3.000000
217,3.000000
218,1.000000
219,3.000000
220,-1.000000
221,-7.000000
222,-1.000000
223,-5.000000
224,-3.000000
225,3.000000
226,5.000000
227,-3.000000
228,1.000000
229,1.000000
230,-1.000000
231,-7.000000
232,-11.000000
233,-3.000000
234,-1.000000
235,1.000000
236,3.000000
237,5.000000
238,9.000000
239,-1.000000
240,3.000000
241,-5.000000
242,-7.000000
243,-3.000000
244,1.000000
245,1.000000
246,5.000000
247,5.000000
248,7.000000
249,-1.000000
250,-5.000000
251,-7.000000
252,1.000000
253,1.000000
254,-1.000000
255,1.000000
256,3.000000
257,5.000000
258,1.000000
259,1.000000
260,-7.000000
261,-1.000000
262,-5.000000
263,-1.000000
264,-3.000000
265,1.000000
266,9.000000
267,3.000000
268,7.000000
269,-3.000000
270,-3.000000
271,-9.000000
272,-3.000000
273,-5.000000
274,-1.000000
275,3.000000
276,3.000000
277,1.000000
278,7.000000
279,1.000000
280,-1.000000
281,-13.000000
282,-5.000000
283,-1.000000
284,-1.000000
285,1.000000
286,5.000000
287,7.000000
288,13.000000
289,3.000000
290,-1.000000
291,-7.000000
292,-9.000000
293,-7.000000
294,1.000000
295,9.000000
296,3.000000
297,1.000000
298,-5.000000
299,-1.000000
300,-1.000000
301,-7.000000
302,-3.000000
303,-5.000000
304,-5.000000
305,3.000000
306,5.000000
307,13.000000
308,-5.000000
309,-1.000000
310,-5.000000
311,-9.000000
312,-3.000000
313,-5.000000
314,1.000000
315,5.000000
316,1.000000
317,5.000000
318,9.000000
319,3.000000
320,-7.000000
321,-7.000000
322,-7.000000
323,-5.000000
324,-1.000000
325,1.000000
326,1.000000
327,-5.000000
328,-5.000000
329,1.000000
330,-3.000000
331,-5.000000
332,-11.000000
333,-7.000000
334,-3.000000
335,1.000000
336,5.000000
337,-1.000000
338,9.000000
339,-1.000000
340,-3.000000
341,-5.000000
342,-3.000000
343,-1.000000
344,-3.000000
345,-1.000000
346,3.000000
347,7.000000
348,7.000000
349,1.000000
350,-5.000000
351,-9.000000
352,-3.000000
353,1.000000
354,1.000000
355,-1.000000
356,5.000000
357,1.000000
358,-7.000000
359,-1.000000
360,-1.000000
361,-7.000000
362,-5.000000
363,-5.000000
364,1.000000
365,1.000000
366,1.000000
367,7.000000
368,1.000000
369,-1.000000
370,-3.000000
371,-5.000000
372,-3.000000
373,-1.000000
374,1.000000
375,1.000000
376,1.000000
377,5.000000
378,1.000000
379,1.000000
380,-3.000000
381,-5.000000
382,-9.000000
383,-5.000000
384,-7.000000
385,3.000000
386,1.000000
387,7.000000
388,3.000000
389,1.000000
390,-5.000000
391,-3.000000
392,-5.000000
393,-3.000000
394,-3.000000
395,1.000000
396,3.000000
397,1.000000
398,1.000000
399,1.000000
400,-7.000000
401,-5.000000
402,-9.000000
403,-3.000000
404,-1.000000
405,3.000000
406,1.000000
407,11.000000
408,-7.000000
409,-7.000000
410,-3.000000
411,-5.000000
412,-5.000000
413,-1.000000
414,-3.000000
415,1.000000
416,3.000000
417,5.000000
418,1.000000
419,-1.000000
420,-7.000000
421,-3.000000
422,-3.000000
423,-5.000000
424,1.000000
425,5.000000
426,-1.000000
427,5.000000
428,-1.000000
429,1.000000
430,-1.000000
431,-7.000000
432,-3.000000
433,-5.000000
434,-3.000000
435,-1.000000
436,5.000000
437,1.000000
438,-1.000000
439,-1.000000
440,-5.000000
441,-7.000000
442,-5.000000
443,-1.000000
444,-1.000000
445,5.000000
446,3.000000
447,3.000000
448,1.000000
449,-1.000000
450,1.000000
451,-7.000000
452,-5.000000
453,-3.000000
454,1.000000
455,1.000000
456,3.000000
457,3.000000
458,1.000000
459,5.000000
460,1.000000
461,-5.000000
462,-1.000000
463,-9.000000
464,-1.000000
465,5.000000
466,3.000000
467,3.000000
468,-7.000000
469,1.000000
470,1.000000
471,-7.000000
472,-3.000000
473,1.000000
474,-1.000000
475,1.000000
476,3.000000
477,-1.000000
478,-5.000000
479,1.000000
480,-3.000000
481,-7.000000
482,-7.000000
483,-1.000000
484,-1.000000
485,-1.000000
486,5.000000
487,1.000000
488,-1.000000
489,-3.000000
490,-1.000000
491,-5.000000
492,-5.000000
493,-1.000000
494,1.000000
495,3.000000
496,1.000000
497,-1.000000
498,-7.000000
499,-1.000000
500,-7.000000
501,-7.000000
502,-7.000000
503,-1.000000
504,-1.000000
505,1.000000
506,3.000000
507,1.000000
508,5.000000
509,-3.000000
510,-3.000000
511,-3.000000
512,-7.000000
513,7.000000
514,-11.000000
515,1.000000
516,7.000000
517,3.000000
518,1.000000
519,1.000000
520,-3.000000
521,-7.000000
522,-5.000000
523,1.000000
524,-1.000000
525,3.000000
526,3.000000
527,5.000000
528,1.000000
529,-1.000000
530,-1.000000
531,-3.000000
532,-5.000000
533,-11.000000
534,-1.000000
535,3.000000
536,3.000000
537,3.000000
538,-1.000000
539,-1.000000
540,-3.000000
541,-7.000000
542,-3.000000
543,-1.000000
544,-3.000000
545,-1.000000
546,5.000000
547,1.000000
548,-7.000000
549,1.000000
550,-1.000000
551,-7.000000
552,-3.000000
553,-7.000000
554,1.000000
555,3.000000
556,5.000000
557,3.000000
558,-1.000000
559,-1.000000
560,-3.000000
561,-3.000000
562,-7.000000
563,-3.000000
564,1.000000
565,-1.000000
566,1.000000
567,1.000000
568,1.000000
569,1.000000
570,-9.000000
571,-7.000000
572,-5.000000
573,-1.000000
574,-1.000000
575,3.000000
576,1.000000
577,5.000000
578,-1.000000
579,1.000000
580,-3.000000
581,-5.000000
582,-3.000000
583,-1.000000
584,1.000000
585,1.000000
586,3.000000
587,5.000000
588,1.000000
589,1.000000
590,-1.000000
591,-7.000000
592,-7.000000
593,-1.000000
594,-3.000000
595,1.000000
596,1.000000
597,5.000000
598,-1.000000
599,1.000000
600,-3.000000
601,-7.000000
602,-7.000000
603,1.000000
604,1.000000
605,-1.000000
606,1.000000
607,1.000000
608,1.000000
609,-1.000000
610,-3.000000
611,-7.000000
612,-7.000000
613,-5.000000
614,-1.000000
615,3.000000
616,3.000000
617,5.000000
618,1.000000
619,-1.000000
620,-3.000000
621,-7.000000
622,-3.000000
623,-3.000000
624,-1.000000
625,3.000000
626,1.000000
627,3.000000
628,3.000000
629,-1.000000
630,-3.000000
631,-5.000000
632,-7.000000
633,1.000000
634,-1.000000
635,3.000000
636,3.000000
637,5.000000
638,-1.000000
639,-3.000000
640,-3.000000
641,-5.000000
642,-3.000000
643,-7.000000
644,1.000000
645,1.000000
646,3.000000
647,3.000000
648,3.000000
649,-1.000000
650,-5.000000
651,-5.000000
652,-3.000000
653,-7.000000
654,-9.000000
655,3.000000
656,3.000000
657,3.000000
658,-1.000000
659,-1.000000
660,-3.000000
661,-9.000000
662,-3.000000
663,-3.000000
664,-1.000000
665,1.000000
666,7.000000
667,1.000000
668,1.000000
669,1.000000
670,-1.000000
671,-7.000000
672,-7.000000
673,-1.000000
674,-7.000000
675,1.000000
676,3.000000
677,1.000000
678,1.000000
679,1.000000
680,1.000000
681,-5.000000
682,-3.000000
683,-3.000000
684,-3.000000
685,-1.000000
686,3.000000
687,3.000000
688,-1.000000
689,-1.000000
690,-5.000000
691,-7.000000
692,-3.000000
693,-3.000000
694,1.000000
695,1.000000
696,1.000000
697,5.000000
698,1.000000
699,1.000000
700,1.000000
701,-5.000000
702,-7.000000
703,-3.000000
704,-3.000000
705,3.000000
706,3.000000
707,3.000000
708,1.000000
709,-1.000000
710,1.000000
711,-7.000000
712,-7.000000
713,-3.000000
714,-1.000000
715,1.000000
716,3.000000
717,1.000000
718,1.000000
719,-1.000000
720,-3.000000
721,-5.000000
722,-5.000000
723,-1.000000
724,1.000000
725,3.000000
726,3.000000
727,3.000000
728,1.000000
729,-1.000000
730,-3.000000
731,-7.000000
732,-5.000000
733,1.000000
734,-1.000000
735,1.000000
736,5.000000
737,5.000000
738,-1.000000
739,-1.000000
740,-3.000000
741,-1.000000
742,-5.000000
743,-3.000000
744,-1.000000
745,1.000000
746,1.000000
747,3.000000
748,-1.000000
749,1.000000
750,-5.000000
751,-5.000000
752,-3.000000
753,-3.000000
754,1.000000
755,-1.000000
756,5.000000
757,3.000000
758,-1.000000
759,-1.000000
760,-3.000000
761,-5.000000
762,-5.000000
763,-3.000000
764,-3.000000
765,3.000000
766,3.000000
767,3.000000
768,-1.000000
769,-1.000000
770,-1.000000
771,-5.000000
772,-7.000000
773,-3.000000
774,1.000000
775,1.000000
776,5.000000
777,1.000000
778,1.000000
779,1.000000
780,1.000000
781,-7.000000
782,-7.000000
783,-1.000000
784,-3.000000
785,1.000000
786,5.000000
787,3.000000
788,-1.000000
789,1.000000
790,9.000000
791,-7.000000
792,-5.000000
793,1.000000
794,1.000000
795,1.000000
796,3.000000
797,3.000000
798,-1.000000
799,-1.000000
800,-3.000000
801,-5.000000
802,-5.000000
803,1.000000
804,-1.000000
805,-1.000000
806,3.000000
807,3.000000
808,1.000000
809,-1.000000
810,1.000000
811,-5.000000
812,-5.000000
813,-3.000000
814,1.000000
815,1.000000
816,5.000000
817,3.000000
818,-1.000000
819,1.000000
820,-7.000000
821,-1.000000
822,-5.000000
823,-1.000000
824,1.000000
825,1.000000
826,3.000000
827,3.000000
828,3.000000
829,1.000000
830,-7.000000
831,-5.000000
832,-3.000000
833,-3.000000
834,-1.000000
835,1.000000
836,3.000000
837,3.000000
838,1.000000
839,-1.000000
840,-1.000000
841,-3.000000
842,-7.000000
843,-3.000000
844,-1.000000
845,3.000000
846,1.000000
847,3.000000
848,1.000000
849,-1.000000
850,-1.000000
851,-5.000000
852,-5.000000
853,-1.000000
854,-1.000000
855,1.000000
856,3.000000
857,1.000000
858,-3.000000
859,-1.000000
860,-3.000000
861,-7.000000
862,-5.000000
863,-3.000000
864,1.000000
865,3.000000
866,1.000000
867,3.000000
868,1.000000
869,-11.000000
870,-1.000000
871,-5.000000
872,-3.000000
873,-3.000000
874,1.000000
875,1.000000
876,3.000000
877,3.000000
878,1.000000
879,-1.000000
880,1.000000
881,-5.000000
882,-3.000000
883,-3.000000
884,-1.000000
885,1.000000
886,3.000000
887,5.000000
888,-3.000000
889,1.000000
890,-7.000000
891,-7.000000
892,-7.000000
893,1.000000
894,1.000000
895,1.000000
896,3.000000
897,-11.000000
898,1.000000
899,11.000000
900,1.000000
901,-9.000000
902,-5.000000
903,-3.000000
904,1.000000
905,3.000000
906,5.000000
907,5.000000
908,1.000000
909,-1.000000
910,-1.000000
911,-3.000000
912,-19.000000
913,-1.000000
914,1.000000
915,1.000000
916,5.000000
917,-1.000000
918,-5.000000
919,-3.000000
920,-3.000000
921,-3.000000
922,-15.000000
923,-3.000000
924,-3.000000
925,3.000000
926,1.000000
927,3.000000
928,5.000000
929,3.000000
930,-7.000000
931,-17.000000
932,-11.000000
933,-3.000000
934,-3.000000
935,3.000000
936,3.000000
937,7.000000
938,-1.000000
939,-5.000000
940,-1.000000
941,1.000000
942,-7.000000
943,-5.000000
944,-1.000000
945,1.000000
946,3.000000
947,-1.000000
948,3.000000
949,-3.000000
950,-3.000000
951,-3.000000
952,-7.000000
953,-3.000000
954,-1.000000
955,1.000000
956,7.000000
957,3.000000
958,3.000000
959,-1.000000
960,-3.000000
961,-5.000000
962,-7.000000
963,1.000000
964,1.000000
965,3.000000
966,5.000000
967,1.000000
968,1.000000
969,-1.000000
970,-1.000000
971,-5.000000
972,-7.000000
973,-3.000000
974,-1.000000
975,1.000000
976,-3.000000
977,5.000000
978,-1.000000
979,-1.000000
980,1.000000
981,21.000000
982,7.000000
983,5.000000
984,1.000000
985,1.000000
986,13.000000
987,3.000000
988,1.000000
989,-1.000000
990,-1.000000
991,-7.000000
992,-3.000000
993,-1.000000
994,-1.000000
995,3.000000
996,7.000000
997,1.000000
998,1.000000
999,-1.000000
1000,-5.000000
1001,-7.000000
1002,-7.000000
1003,7.000000
1004,-1.000000
1005,3.000000
1006,5.000000
1007,5.000000
1008,-1.000000
1009,-1.000000
1010,-1.000000
1011,3.000000
1012,-5.000000
1013,-5.000000
1014,1.000000
1015,1.000000
1016,5.000000
1017,-1.000000
1018,1.000000
1019,-1.000000
1020,-1.000000
1021,-5.000000
1022,-5.000000
1023,-1.000000
1024,-1.000000
1025,3.000000
1026,7.000000
1027,5.000000
1028,1.000000
1029,1.000000
1030,-3.000000
1031,-37.000000
1032,-11.000000
1033,3.000000
1034,-3.000000
1035,-1.000000
1036,1.000000
1037,3.000000
1038,1.000000
1039,1.000000
1040,-1.000000
1041,-7.000000
1042,-7.000000
1043,-1.000000
1044,1.000000
1045,1.000000
1046,1.000000
1047,3.000000
1048,1.000000
1049,1.000000
1050,-3.000000
1051,-5.000000
1052,-5.000000
1053,-1.000000
1054,-3.000000
1055,1.000000
1056,5.000000
1057,3.000000
1058,-1.000000
1059,1.000000
1060,-3.000000
1061,-3.000000
1062,-7.000000
1063,-3.000000
1064,-1.000000
1065,1.000000
1066,3.000000
1067,5.000000
1068,1.000000
1069,1.000000
1070,5.000000
1071,-5.000000
1072,-3.000000
1073,-3.000000
1074,-5.000000
1075,1.000000
1076,1.000000
1077,3.000000
1078,1.000000
1079,1.000000
1080,-1.000000
1081,-5.000000
1082,-5.000000
1083,-7.000000
1084,-1.000000
1085,3.000000
1086,3.000000
1087,-1.000000
1088,1.000000
1089,-3.000000
1090,1.000000
1091,-5.000000
1092,-7.000000
1093,-1.000000
1094,-1.000000
1095,1.000000
1096,5.000000
1097,3.000000
1098,1.000000
1099,1.000000
1100,-3.000000
1101,-7.000000
1102,-5.000000
1103,-3.000000
1104,3.000000
1105,1.000000
1106,7.000000
1107,3.000000
1108,3.000000
1109,-1.000000
1110,-1.000000
1111,-3.000000
1112,-5.000000
1113,1.000000
1114,-11.000000
1115,1.000000
1116,3.000000
1117,7.000000
1118,5.000000
1119,-1.000000
1120,-1.000000
1121,-7.000000
1122,-7.000000
1123,1.000000
1124,-5.000000
1125,-1.000000
1126,5.000000
1127,5.000000
1128,-1.000000
1129,-1.000000
1130,-1.000000
1131,-3.000000
1132,-7.000000
1133,-7.000000
1134,3.000000
1135,3.000000
1136,3.000000
1137,5.000000
1138,-5.000000
1139,1.000000
1140,-1.000000
1141,-7.000000
1142,-5.000000
1143,-1.000000
1144,-3.000000
1145,3.000000
1146,7.000000
1147,3.000000
1148,1.000000
1149,-3.000000
1150,-1.000000
1151,-5.000000
1152,-7.000000
1153,-3.000000
1154,1.000000
1155,-1.000000
1156,1.000000
1157,3.000000
1158,3.000000
1159,-5.000000
1160,-1.000000
1161,-7.000000
1162,-7.000000
1163,-3.000000
1164,-1.000000
1165,3.000000
1166,5.000000
1167,3.000000
1168,3.000000
1169,-1.000000
1170,1.000000
1171,-5.000000
1172,-11.000000
1173,-1.000000
1174,1.000000
1175,3.000000
1176,5.000000
1177,-1.000000
1178,3.000000
1179,3.000000
1180,-7.000000
1181,-5.000000
1182,-7.000000
1183,-1.000000
1184,1.000000
1185,3.000000
1186,3.000000
1187,3.000000
1188,5.000000
1189,1.000000
1190,-3.000000
1191,-9.000000
1192,-1.000000
1193,-5.000000
1194,1.000000
1195,1.000000
1196,7.000000
1197,-1.000000
1198,5.000000
1199,-1.000000
1200,-5.000000
1201,-5.000000
1202,1.000000
1203,-1.000000
1204,-1.000000
1205,1.000000
1206,3.000000
1207,11.000000
1208,1.000000
1209,-3.000000
1210,-3.000000
1211,-5.000000
1212,-7.000000
1213,-7.000000
1214,-1.000000
1215,-3.000000
1216,5.000000
1217,1.000000
1218,-1.000000
1219,-1.000000
1220,-3.000000
1221,-7.000000
1222,-7.000000
1223,-5.000000
1224,-3.000000
1225,-1.000000
1226,3.000000
1227,5.000000
1228,3.000000
1229,-3.000000
1230,-5.000000
1231,-3.000000
1232,-3.000000
1233,-1.000000
1234,-1.000000
1235,3.000000
1236,3.000000
1237,5.000000
1238,-3.000000
1239,-1.000000
1240,-5.000000
1241,-7.000000
1242,-7.000000
1243,-3.000000
1244,-1.000000
1245,5.000000
1246,1.000000
1247,3.000000
1248,-1.000000
1249,-3.000000
1250,-3.000000
1251,-9.000000
1252,-7.000000
1253,-3.000000
1254,-1.000000
1255,1.000000
1256,5.000000
1257,7.000000
1258,1.000000
1259,-3.000000
1260,-1.000000
1261,-5.000000
1262,-5.000000
1263,-7.000000
1264,5.000000
1265,1.000000
1266,7.000000
1267,3.000000
1268,3.000000
1269,-1.000000
1270,-3.000000
1271,-3.000000
1272,-7.000000
1273,-3.000000
1274,1.000000
1275,-1.000000
1276,-1.000000
1277,5.000000
1278,5.000000
1279,-1.000000
1280,-7.000000
1281,-7.000000
1282,-7.000000
1283,-3.000000
1284,-3.000000
1285,3.000000
1286,7.000000
1287,5.000000
1288,1.000000
1289,3.000000
1290,-3.000000
1291,-5.000000
1292,-7.000000
1293,1.000000
1294,-1.000000
1295,3.000000
1296,3.000000
1297,1.000000
1298,-1.000000
1299,-5.000000
1300,-1.000000
1301,-7.000000
1302,-7.000000
1303,1.000000
1304,3.000000
1305,3.000000
1306,5.000000
1307,9.000000
1308,-1.000000
1309,1.000000
1310,1.000000
1311,-19.000000
1312,-11.000000
1313,-1.000000
1314,-1.000000
1315,1.000000
1316,5.000000
1317,5.000000
1318,1.000000
1319,1.000000
1320,-3.000000
1321,-3.000000
1322,-7.000000
1323,-3.000000
1324,-1.000000
1325,1.000000
1326,3.000000
1327,5.000000
1328,5.000000
1329,1.000000
1330,-1.000000
1331,-5.000000
1332,-5.000000
1333,-7.000000
1334,-1.000000
1335,5.000000
1336,-5.000000
1337,5.000000
1338,1.000000
1339,3.000000
1340,-5.000000
1341,-7.000000
1342,-7.000000
1343,1.000000
1344,-1.000000
1345,3.000000
1346,7.000000
1347,3.000000
1348,-1.000000
1349,-3.000000
1350,-7.000000
1351,-7.000000
1352,-5.000000
1353,-1.000000
1354,-1.000000
1355,-1.000000
1356,3.000000
1357,3.000000
1358,-3.000000
1359,-5.000000
1360,-3.000000
1361,-7.000000
1362,-3.000000
1363,-3.000000
1364,-1.000000
1365,1.000000
1366,-1.000000
1367,3.000000
1368,-7.000000
1369,3.000000
1370,-3.000000
1371,-7.000000
1372,-9.000000
1373,-1.000000
1374,-1.000000
1375,1.000000
1376,-3.000000
1377,5.000000
1378,-1.000000
1379,-1.000000
1380,-3.000000
1381,-5.000000
1382,-5.000000
1383,-1.000000
1384,-1.000000
1385,-1.000000
1386,3.000000
1387,13.000000
1388,-9.000000
1389,-1.000000
1390,-1.000000
1391,-5.000000
1392,-17.000000
1393,-1.000000
1394,-3.000000
1395,3.000000
1396,5.000000
1397,7.000000
1398,3.000000
1399,1.000000
1400,-3.000000
1401,-11.000000
1402,7.000000
1403,-3.000000
1404,-9.000000
1405,3.000000
1406,7.000000
1407,1.000000
1408,3.000000
1409,-1.000000
1410,-3.000000
1411,-5.000000
1412,-19.000000
1413,-3.000000
1414,3.000000
1415,1.000000
1416,7.000000
1417,11.000000
1418,-1.000000
1419,1.000000
1420,-3.000000
1421,-1.000000
1422,1.000000
1423,-1.000000
1424,7.000000
1425,3.000000
1426,3.000000
