data/raw/AB/ab3.csv

Channel              :,CH1
Frequency            :,"	?"
Period               :,  ?
PK-PK                :,193.6mV?
Average              :,-0.353mV?
Vertical pos         :,0.000000mV
Probe attenuation    :,1X
Voltage per ADC value:,0.050000mV
Time interval        :,400.00000uS
,
index,CH1_Voltage(mV)
1,4
2,4
3,0
4,2.4
5,-1.6
6,0
7,6.4
8,0
9,0
10,0
11,0
12,0.8
13,-3.2
14,2.4
15,0.8
16,0.8
17,0
18,0.8
19,0
20,2.4
21,-3.2
22,2.4
23,0.8
24,0
25,0.8
26,0
27,2.4
28,0.8
29,2.4
30,0.8
31,-0.8
32,-2.4
33,0.8
34,-1.6
35,-0.8
36,-1.6
37,-5.6
38,-0.8
39,-0.8
40,2.4
41,0.8
42,-0.8
43,-15.2
44,1.6
45,2.4
46,2.4
47,2.4
48,0.8
49,0
50,0.8
51,0
52,-6.4
53,0
54,-0.8
55,-3.2
56,0
57,-0.8
58,-3.2
59,0
60,-0.8
61,-1.6
62,0
63,4
64,4
65,11.2
66,0
67,2.4
68,-0.8
69,-3.2
70,0
71,0
72,0.8
73,-1.6
74,0.8
75,0.8
76,0
77,-0.8
78,-2.4
79,0
80,1.6
81,0
82,0.8
83,-0.8
84,-0.8
85,-3.2
86,0
87,-1.6
88,-3.2
89,0
90,-4
91,0
92,0
93,-1.6
94,0
95,0
96,-0.8
97,8.8
98,-2.4
99,0
100,2.4
101,0
102,0.8
103,-0.8
104,0.8
105,3.2
106,0
107,0.8
108,-3.2
109,-3.2
110,-1.6
111,1.6
112,2.4
113,-0.8
114,-1.6
115,0
116,0.8
117,0
118,0.8
119,-2.4
120,1.6
121,-2.4
122,0
123,0
124,0
125,-3.2
126,0
127,0.8
128,-3.2
129,-0.8
130,-0.8
131,0
132,0.8
133,-0.8
134,-2.4
135,2.4
136,2.4
137,2.4
138,-0.8
139,0
140,-1.6
141,3.2
142,-0.8
143,-0.8
144,-4
145,-1.6
146,-0.8
147,0.8
148,0
149,2.4
150,1.6
151,-0.8
152,-7.2
153,1.6
154,0
155,-8.8
156,2.4
157,0.8
158,0.8
159,-0.8
160,-3.2
161,0.8
162,2.4
163,-3.2
164,2.4
165,0.8
166,0.8
167,0.8
168,-0.8
169,0
170,0.8
171,2.4
172,2.4
173,0
174,2.4
175,0.8
176,1.6
177,2.4
178,-3.2
179,0
180,-6.4
181,0.8
182,4
183,-0.8
184,0
185,2.4
186,-0.8
187,0
188,-0.8
189,-0.8
190,0.8
191,-0.8
192,-3.2
193,4
194,1.6
195,0
196,1.6
197,5.6
198,0
199,-2.4
200,0.8
201,0
202,0
203,0
204,0
205,2.4
206,-3.2
207,-0.8
208,-0.8
209,0
210,-0.8
211,-1.6
212,0
213,-2.4
214,0.8
215,0.8
216,0.8
217,2.4
218,0.8
219,2.4
220,0.8
221,-1.6
222,0.8
223,-0.8
224,2.4
225,0.8
226,-2.4
227,2.4
228,-0.8
229,0.8
230,-1.6
231,0.8
232,2.4
233,-2.4
234,1.6
235,-1.6
236,-1.6
237,2.4
238,4
239,0
240,-1.6
241,-0.8
242,-3.2
243,0
244,-1.6
245,0
246,-0.8
247,2.4
248,-2.4
249,-2.4
250,0.8
251,0
252,-3.2
253,-4
254,-3.2
255,0
256,3.2
257,1.6
258,-0.8
259,0.8
260,0
261,0.8
262,0
263,0
264,2.4
265,-1.6
266,-1.6
267,2.4
268,0
269,2.4
270,0.8
271,1.6
272,0
273,2.4
274,1.6
275,0.8
276,1.6
277,0.8
278,0.8
279,-3.2
280,0
281,1.6
282,-3.2
283,0.8
284,0.8
285,0.8
286,2.4
287,-0.8
288,-0.8
289,0.8
290,-1.6
291,-3.2
292,2.4
293,0
294,2.4
295,-0.8
296,-2.4
297,-4.8
298,0.8
299,-0.8
300,0.8
301,0.8
302,-0.8
303,2.4
304,-6.4
305,2.4
306,0.8
307,-1.6
308,-0.8
309,0.8
310,-0.8
311,0.8
312,2.4
313,2.4
314,2.4
315,0
316,0.8
317,0
318,2.4
319,2.4
320,0
321,-0.8
322,0.8
323,-0.8
324,0
325,0.8
326,0.8
327,1.6
328,0.8
329,-1.6
330,0.8
331,2.4
332,0
333,-1.6
334,-4
335,-3.2
336,-2.4
337,-2.4
338,-1.6
339,0
340,0
341,-1.6
342,-2.4
343,0
344,0
345,2.4
346,-0.8
347,-2.4
348,2.4
349,0.8
350,0
351,-1.6
352,2.4
353,0.8
354,1.6
355,0
356,0.8
357,0.8
358,-1.6
359,-2.4
360,-3.2
361,0
362,0.8
363,0.8
364,-3.2
365,-0.8
366,-2.4
367,0.8
368,2.4
369,4
370,0.8
371,2.4
372,0.8
373,0
374,1.6
375,2.4
376,1.6
377,0.8
378,1.6
379,-2.4
380,0.8
381,-4
382,-2.4
383,-1.6
384,0.8
385,2.4
386,2.4
387,-3.2
388,0
389,-2.4
390,-4
391,-1.6
392,0
393,0
394,-1.6
395,0.8
396,0
397,2.4
398,0.8
399,-2.4
400,2.4
401,0.8
402,0.8
403,-1.6
404,-3.2
405,-0.8
406,0.8
407,-2.4
408,-0.8
409,-6.4
410,-1.6
411,-4
412,-0.8
413,-1.6
414,0
415,-3.2
416,-2.4
417,0
418,-3.2
419,-3.2
420,2.4
421,0
422,-0.8
423,4
424,2.4
425,0.8
426,-1.6
427,2.4
428,0
429,-0.8
430,3.2
431,4
432,2.4
433,-0.8
434,-2.4
435,-0.8
436,0
437,-1.6
438,4
439,-1.6
440,-0.8
441,0.8
442,-0.8
443,-0.8
444,-1.6
445,-1.6
446,0
447,-3.2
448,-0.8
449,-1.6
450,0.8
451,0.8
452,-1.6
453,-2.4
454,2.4
455,-3.2
456,0
457,3.2
458,-3.2
459,-4.8
460,-1.6
461,1.6
462,2.4
463,-0.8
464,4
465,0.8
466,0
467,0.8
468,2.4
469,0.8
470,-1.6
471,-0.8
472,0.8
473,2.4
474,4
475,0.8
476,-3.2
477,0
478,-0.8
479,0.8
480,-1.6
481,2.4
482,0
483,-0.8
484,0
485,0.8
486,0.8
487,1.6
488,2.4
489,0
490,1.6
491,0
492,-0.8
493,-1.6
494,0
495,0.8
496,0.8
497,0.8
498,2.4
499,-0.8
500,0
501,0
502,0.8
503,0.8
504,2.4
505,0.8
506,-3.2
507,-0.8
508,-2.4
509,-0.8
510,0
511,0
512,0
513,-3.2
514,0
515,0.8
516,2.4
517,0
518,-0.8
519,0
520,-1.6
521,-3.2
522,2.4
523,0
524,-1.6
525,0
526,0
527,0
528,-0.8
529,0.8
530,2.4
531,-5.6
532,2.4
533,0
534,-2.4
535,-0.8
536,0.8
537,0.8
538,-4
539,-3.2
540,-0.8
541,0
542,-0.8
543,2.4
544,-0.8
545,2.4
546,1.6
547,-0.8
548,2.4
549,0.8
550,0
551,0
552,0
553,-1.6
554,-0.8
555,-3.2
556,0
557,-0.8
558,-0.8
559,0
560,0
561,0
562,1.6
563,0
564,1.6
565,-4
566,2.4
567,2.4
568,0
569,-0.8
570,-1.6
571,2.4
572,2.4
573,2.4
574,2.4
575,0.8
576,5.6
577,2.4
578,-2.4
579,-3.2
580,2.4
581,-3.2
582,-3.2
583,0.8
584,0
585,-2.4
586,0.8
587,0
588,0.8
589,-3.2
590,0.8
591,-0.8
592,-1.6
593,0
594,-0.8
595,0
596,-3.2
597,-8.8
598,-0.8
599,0.8
600,-1.6
601,-0.8
602,-1.6
603,-0.8
604,-4
605,-0.8
606,2.4
607,-0.8
608,-1.6
609,-1.6
610,-0.8
611,-3.2
612,-0.8
613,-5.6
614,0.8
615,-0.8
616,0.8
617,0
618,-1.6
619,-4
620,-1.6
621,0
622,2.4
623,0
624,0
625,-0.8
626,0
627,-3.2
628,4
629,0
630,0
631,2.4
632,-0.8
633,0.8
634,-2.4
635,-0.8
636,-0.8
637,-0.8
638,-5.6
639,-3.2
640,0
641,0
642,0
643,2.4
644,-0.8
645,-1.6
646,0.8
647,-1.6
648,0
649,-1.6
650,-0.8
651,2.4
652,-2.4
653,-0.8
654,0
655,-0.8
656,2.4
657,-1.6
658,-3.2
659,0.8
660,0
661,1.6
662,0
663,0
664,0
665,0
666,2.4
667,5.6
668,3.2
669,0
670,0
671,-1.6
672,0
673,3.2
674,2.4
675,-0.8
676,2.4
677,3.2
678,0.8
679,0.8
680,0
681,-9.6
682,2.4
683,-3.2
684,0
685,0.8
686,2.4
687,-3.2
688,-1.6
689,-3.2
690,0
691,0
692,0.8
693,0.8
694,-0.8
695,0.8
696,0.8
697,2.4
698,2.4
699,0.8
700,0.8
701,0.8
702,-0.8
703,0
704,-1.6
705,0
706,1.6
707,3.2
708,-0.8
709,2.4
710,-1.6
711,0.8
712,-0.8
713,0
714,0.8
715,-1.6
716,-1.6
717,-0.8
718,-4
719,-3.2
720,0
721,0.8
722,-3.2
723,0
724,2.4
725,0.8
726,-5.6
727,-3.2
728,-3.2
729,-3.2
730,-0.8
731,-4
732,-3.2
733,0
734,-3.2
735,-2.4
736,0
737,0.8
738,-0.8
739,-4
740,0
741,0
742,0.8
743,-0.8
744,2.4
745,0
746,0
747,0.8
748,0
749,-1.6
750,-0.8
751,0.8
752,0
753,-0.8
754,3.2
755,-0.8
756,0.8
757,-0.8
758,0.8
759,2.4
760,-1.6
761,-3.2
762,2.4
763,0.8
764,0.8
765,-0.8
766,0.8
767,0.8
768,-1.6
769,0.8
770,2.4
771,0
772,-0.8
773,-2.4
774,0
775,-3.2
776,-3.2
777,2.4
778,-0.8
779,-3.2
780,0
781,-8
782,-1.6
783,-0.8
784,-0.8
785,0.8
786,0.8
787,1.6
788,2.4
789,-1.6
790,0
791,0
792,-0.8
793,-2.4
794,0
795,-0.8
796,-0.8
797,1.6
798,-0.8
799,-1.6
800,0.8
801,0
802,-0.8
803,2.4
804,5.6
805,0
806,-1.6
807,-0.8
808,-0.8
809,-3.2
810,0.8
811,0
812,0
813,-2.4
814,0.8
815,0.8
816,0.8
817,0
818,0
819,2.4
820,-2.4
821,2.4
822,0
823,-2.4
824,-0.8
825,1.6
826,-0.8
827,-1.6
828,0
829,-4
830,0
831,-0.8
832,0
833,0
834,0
835,0.8
836,0.8
837,0.8
838,-0.8
839,0.8
840,-2.4
841,-0.8
842,0
843,0
844,-0.8
845,0
846,0
847,-0.8
848,-1.6
849,0.8
850,2.4
851,0
852,-1.6
853,0
854,8
855,-0.8
856,3.2
857,0
858,0
859,0
860,0
861,0.8
862,-0.8
863,0.8
864,-3.2
865,0
866,3.2
867,4
868,0
869,0.8
870,0.8
871,-0.8
872,-0.8
873,2.4
874,2.4
875,0.8
876,4
877,0
878,-1.6
879,2.4
880,2.4
881,-0.8
882,-5.6
883,0.8
884,0
885,0.8
886,0.8
887,-4
888,1.6
889,-0.8
890,-2.4
891,-0.8
892,3.2
893,-1.6
894,-0.8
895,0
896,2.4
897,2.4
898,-1.6
899,-0.8
900,2.4
901,2.4
902,-3.2
903,-0.8
904,0.8
905,-3.2
906,2.4
907,0
908,-1.6
909,0
910,-2.4
911,2.4
912,4
913,0.8
914,0.8
915,-3.2
916,2.4
917,0.8
918,-1.6
919,-3.2
920,0.8
921,4
922,2.4
923,2.4
924,2.4
925,0
926,-4
927,0
928,0.8
929,2.4
930,0.8
931,2.4
932,0
933,0
934,0.8
935,1.6
936,0
937,0.8
938,4
939,-3.2
940,-1.6
941,0
942,2.4
943,1.6
944,-3.2
945,-0.8
946,3.2
947,-0.8
948,1.6
949,1.6
950,-1.6
951,-4
952,1.6
953,-1.6
954,1.6
955,-0.8
956,2.4
957,2.4
958,-2.4
959,2.4
960,-0.8
961,1.6
962,-6.4
963,0.8
964,0.8
965,-0.8
966,1.6
967,0.8
968,0.8
969,2.4
970,0.8
971,0
972,-3.2
973,1.6
974,2.4
975,1.6
976,2.4
977,1.6
978,2.4
979,-11.2
980,0.8
981,0
982,0.8
983,0.8
984,-0.8
985,0
986,-3.2
987,-1.6
988,0.8
989,-4
990,-1.6
991,1.6
992,-1.6
993,-0.8
994,2.4
995,2.4
996,-0.8
997,0.8
998,-0.8
999,2.4
1000,0
1001,-3.2
1002,0.8
1003,-1.6
1004,-0.8
1005,-3.2
1006,4
1007,0.8
1008,-1.6
1009,-1.6
1010,0
1011,0
1012,-1.6
1013,-1.6
1014,0.8
1015,0
1016,-0.8
1017,0.8
1018,1.6
1019,-0.8
1020,2.4
1021,-0.8
1022,-0.8
1023,-3.2
1024,2.4
1025,4
1026,-4
1027,0.8
1028,0.8
1029,5.6
1030,2.4
1031,-5.6
1032,-1.6
1033,0
1034,-2.4
1035,0.8
1036,0.8
1037,3.2
1038,5.6
1039,-3.2
1040,2.4
1041,-0.8
1042,-3.2
1043,0
1044,-0.8
1045,-0.8
1046,0
1047,0.8
1048,1.6
1049,0
1050,-0.8
1051,0.8
1052,0.8
1053,-3.2
1054,-0.8
1055,7.2
1056,3.2
1057,-4.8
1058,-1.6
1059,-2.4
1060,-2.4
1061,-2.4
1062,-2.4
1063,-3.2
1064,0
1065,-0.8
1066,0.8
1067,0
1068,-2.4
1069,0
1070,2.4
1071,3.2
1072,-0.8
1073,4
1074,0.8
1075,-1.6
1076,-4
1077,0
1078,-1.6
1079,5.6
1080,0.8
1081,-2.4
1082,0
1083,2.4
1084,-2.4
1085,-0.8
1086,0.8
1087,0
1088,-1.6
1089,-3.2
1090,1.6
1091,0
1092,-1.6
1093,-2.4
1094,-0.8
1095,1.6
1096,0.8
1097,0
1098,-0.8
1099,-0.8
1100,0.8
1101,7.2
1102,-4.8
1103,-0.8
1104,-0.8
1105,-0.8
1106,0
1107,1.6
1108,-3.2
1109,2.4
1110,-3.2
1111,2.4
1112,0
1113,1.6
1114,4
1115,2.4
1116,-0.8
1117,0
1118,-0.8
1119,2.4
1120,4
1121,0.8
1122,-3.2
1123,0
1124,-1.6
1125,0
1126,-1.6
1127,0
1128,0
1129,2.4
1130,2.4
1131,1.6
1132,-0.8
1133,-2.4
1134,-0.8
1135,0
1136,0
1137,0.8
1138,-4
1139,2.4
1140,2.4
1141,2.4
1142,0
1143,-3.2
1144,0.8
1145,0.8
1146,0
1147,0
1148,-3.2
1149,0
1150,0
1151,0
1152,-1.6
1153,-2.4
1154,-7.2
1155,-3.2
1156,0
1157,0
1158,0
1159,-1.6
1160,2.4
1161,0.8
1162,0.8
1163,0
1164,2.4
1165,0
1166,0.8
1167,0
1168,0.8
1169,0.8
1170,0.8
1171,0.8
1172,3.2
1173,0.8
1174,0.8
1175,0.8
1176,2.4
1177,-0.8
1178,-1.6
1179,0.8
1180,-3.2
1181,2.4
1182,-0.8
1183,3.2
1184,2.4
1185,2.4
1186,-0.8
1187,0.8
1188,-1.6
1189,0.8
1190,0.8
1191,-3.2
1192,-3.2
1193,-0.8
1194,2.4
1195,0
1196,-0.8
1197,0.8
1198,-2.4
1199,0.8
1200,0.8
1201,2.4
1202,0.8
1203,2.4
1204,0.8
1205,-3.2
1206,0.8
1207,2.4
1208,-1.6
1209,0
1210,-3.2
1211,2.4
1212,0
1213,0.8
1214,1.6
1215,0
1216,0.8
1217,-0.8
1218,-0.8
1219,2.4
1220,-0.8
1221,0
1222,4
1223,0.8
1224,-0.8
1225,0.8
1226,-1.6
1227,0
1228,2.4
1229,0
1230,2.4
1231,-4
1232,2.4
1233,-3.2
1234,-3.2
1235,0
1236,-1.6
1237,-0.8
1238,-3.2
1239,-0.8
1240,0
1241,-3.2
1242,-1.6
1243,-1.6
1244,1.6
1245,-0.8
1246,0.8
1247,0.8
1248,-3.2
1249,-0.8
1250,-7.2
1251,0
1252,2.4
1253,0.8
1254,-0.8
1255,0.8
1256,2.4
1257,-4
1258,2.4
1259,1.6
1260,-1.6
1261,-1.6
1262,-0.8
1263,-3.2
1264,0.8
1265,0.8
1266,0
1267,0.8
1268,2.4
1269,-3.2
1270,2.4
1271,0.8
1272,0
1273,0.8
1274,-2.4
1275,2.4
1276,-7.2
1277,0.8
1278,-0.8
1279,2.4
1280,-3.2
1281,1.6
1282,2.4
1283,-0.8
1284,0.8
1285,2.4
1286,2.4
1287,-0.8
1288,-3.2
1289,-2.4
1290,4
1291,-0.8
1292,-1.6
1293,-1.6
1294,-4
1295,-0.8
1296,0
1297,2.4
1298,-0.8
1299,0.8
1300,0
1301,0
1302,0
1303,0.8
1304,-3.2
1305,3.2
1306,2.4
1307,0
1308,-3.2
1309,0
1310,-3.2
1311,0.8
1312,0.8
1313,-0.8
1314,-1.6
1315,0
1316,1.6
1317,0.8
1318,-1.6
1319,1.6
1320,4
1321,-2.4
1322,-0.8
1323,2.4
1324,0.8
1325,-11.2
1326,-0.8
1327,2.4
1328,2.4
1329,9.6
1330,0
1331,-0.8
1332,-0.8
1333,0
1334,-0.8
1335,-1.6
1336,0.8
1337,-4
1338,0
1339,-5.6
1340,-0.8
1341,0.8
1342,-3.2
1343,2.4
1344,-0.8
1345,0.8
1346,-0.8
1347,2.4
1348,0
1349,0.8
1350,-3.2
1351,0
1352,-1.6
1353,-0.8
1354,2.4
1355,0.8
1356,0.8
1357,7.2
1358,-2.4
1359,0
1360,0.8
1361,-0.8
1362,0
1363,-0.8
1364,-1.6
1365,0
1366,0.8
1367,-1.6
1368,-3.2
1369,-0.8
1370,5.6
1371,-3.2
1372,1.6
1373,1.6
1374,-1.6
1375,0
1376,0
1377,-0.8
1378,-1.6
1379,8
1380,2.4
1381,-3.2
1382,-0.8
1383,0
1384,-0.8
1385,0
1386,-3.2
1387,-3.2
1388,0.8
1389,-2.4
1390,-3.2
1391,-0.8
1392,-3.2
1393,0
1394,0.8
1395,1.6
1396,-0.8
1397,-1.6
1398,-0.8
1399,-0.8
1400,0
1401,4
1402,0
1403,0
1404,0.8
1405,0.8
1406,-3.2
1407,-2.4
1408,-0.8
1409,0
1410,-0.8
1411,0.8
1412,0.8
1413,0.8
1414,0.8
1415,1.6
1416,0.8
1417,-3.2
1418,-0.8
1419,0.8
1420,3.2
1421,-0.8
1422,0.8
1423,0.8
1424,-4
1425,1.6
1426,0
1427,1.6
1428,0
1429,-5.6
1430,0
1431,0.8
1432,-0.8
1433,0
1434,-0.8
1435,0
1436,2.4
1437,0.8
1438,-0.8
1439,-2.4
1440,-3.2
1441,-4
1442,-0.8
1443,0
1444,-2.4
1445,0.8
1446,-3.2
1447,-0.8
1448,-0.8
1449,-2.4
1450,0.8
1451,0
1452,-0.8
1453,7.2
1454,-0.8
1455,2.4
1456,0.8
1457,-3.2
1458,-0.8
1459,0
1460,-0.8
1461,0
1462,4
1463,-0.8
1464,0
1465,0.8
1466,0.8
1467,-2.4
1468,-3.2
1469,-0.8
1470,2.4
1471,0
1472,0
1473,0.8
1474,1.6
1475,2.4
1476,-3.2
1477,0.8
1478,-0.8
1479,3.2
1480,5.6
1481,-3.2
1482,0
1483,-2.4
1484,0
1485,0.8
1486,0
1487,-1.6
1488,-1.6
1489,-2.4
1490,0
1491,-1.6
1492,-0.8
1493,-0.8
1494,-0.8
1495,-1.6
1496,-1.6
1497,2.4
1498,-3.2
1499,-0.8
1500,-3.2
1501,-1.6
1502,2.4
1503,-3.2
1504,-0.8
1505,2.4
1506,0.8
1507,2.4
1508,-0.8
1509,0
1510,-0.8
1511,-0.8
1512,2.4
1513,-3.2
1514,4
1515,4
1516,4
1517,0
1518,-0.8
1519,-3.2
1520,-0.8
1521,0
1522,1.6
1523,0.8
1524,-0.8
1525,0
1526,0.8
1527,-4
1528,-0.8
1529,0
1530,2.4
1531,2.4
1532,1.6
1533,0.8
1534,-3.2
1535,0
1536,2.4
1537,-4
1538,3.2
1539,-0.8
1540,-0.8
1541,-0.8
1542,0.8
1543,0
1544,0
1545,0.8
1546,-0.8
1547,0
1548,-1.6
1549,0.8
1550,0
1551,-0.8
1552,-0.8
1553,0
1554,2.4
1555,0
1556,-0.8
1557,4
1558,2.4
1559,0.8
1560,1.6
1561,-0.8
1562,-1.6
1563,-2.4
1564,2.4
1565,2.4
1566,0
1567,-4
1568,0
1569,0
1570,0.8
1571,0
1572,0
1573,0.8
1574,-0.8
1575,-1.6
1576,0
1577,2.4
1578,1.6
1579,-0.8
1580,-2.4
1581,-0.8
1582,-3.2
1583,0
1584,0
1585,-3.2
1586,-0.8
1587,-3.2
1588,-0.8
1589,-0.8
1590,0.8
1591,-2.4
1592,0.8
1593,0.8
1594,0
1595,0.8
1596,-2.4
1597,-3.2
1598,-3.2
1599,0.8
1600,-0.8
1601,-3.2
1602,-8.8
1603,-3.2
1604,-0.8
1605,4
1606,-0.8
1607,2.4
1608,0.8
1609,0
1610,-1.6
1611,0.8
1612,-0.8
1613,0
1614,0.8
1615,0.8
1616,2.4
1617,2.4
1618,0.8
1619,-1.6
1620,0.8
1621,0.8
1622,0
1623,4
1624,-0.8
1625,0.8
1626,0
1627,-1.6
1628,3.2
1629,2.4
1630,0.8
1631,-0.8
1632,2.4
1633,2.4
1634,0.8
1635,-0.8
1636,-5.6
1637,2.4
1638,-0.8
1639,-6.4
1640,-1.6
1641,-3.2
1642,-0.8
1643,0.8
1644,1.6
1645,0.8
1646,-0.8
1647,0
1648,-1.6
1649,0.8
1650,0
1651,-1.6
1652,7.2
1653,-1.6
1654,-0.8
1655,-8
1656,2.4
1657,2.4
1658,0.8
1659,0.8
1660,-4
1661,0
1662,1.6
1663,-2.4
1664,2.4
1665,-0.8
1666,0
1667,0
1668,0
1669,-4
1670,2.4
1671,0.8
1672,-4
1673,2.4
1674,-3.2
1675,-3.2
1676,0
1677,4
1678,2.4
1679,1.6
1680,0.8
1681,-1.6
1682,-0.8
1683,-0.8
1684,0
1685,-0.8
1686,-1.6
1687,-1.6
1688,0.8
1689,-4
1690,0.8
1691,0
1692,0
1693,-4
1694,1.6
1695,1.6
1696,-0.8
1697,0
1698,0
1699,0
1700,4
1701,0.8
1702,-4.8
1703,-0.8
1704,-7.2
1705,-3.2
1706,2.4
1707,0
1708,2.4
1709,1.6
1710,-1.6
1711,-3.2
1712,0
1713,-3.2
1714,2.4
1715,2.4
1716,0
1717,-0.8
1718,-2.4
1719,0
1720,-4
1721,2.4
1722,0
1723,0.8
1724,-1.6
1725,0.8
1726,0
1727,-4
1728,-1.6
1729,0.8
1730,-2.4
1731,-3.2
1732,2.4
1733,0.8
1734,-4
1735,-1.6
1736,0
1737,0
1738,0
1739,-3.2
1740,1.6
1741,0
1742,-3.2
1743,-1.6
1744,0.8
1745,0.8
1746,0.8
1747,0
1748,-2.4
1749,1.6
1750,0
1751,-1.6
1752,0
1753,-4
1754,-4
1755,-1.6
1756,0
1757,2.4
1758,0
1759,-1.6
1760,2.4
1761,0.8
1762,2.4
1763,-3.2
1764,2.4
1765,1.6
1766,0
1767,2.4
1768,0.8
1769,2.4
1770,2.4
1771,2.4
1772,0
1773,-3.2
1774,-2.4
1775,-0.8
1776,2.4
1777,0.8
1778,0
1779,0.8
1780,2.4
1781,-3.2
1782,0.8
1783,1.6
1784,2.4
1785,0.8
1786,-3.2
1787,-0.8
1788,-4
1789,-4
1790,0.8
1791,-4
1792,-3.2
1793,-0.8
1794,1.6
1795,0.8
1796,2.4
1797,1.6
1798,-0.8
1799,-3.2
1800,0
1801,0
1802,0.8
1803,2.4
1804,-1.6
1805,0
1806,2.4
1807,0
1808,-1.6
1809,0
1810,-0.8
1811,0.8
1812,-0.8
1813,2.4
1814,0
1815,2.4
1816,0.8
1817,0
1818,-1.6
1819,-1.6
1820,-3.2
1821,1.6
1822,0.8
1823,-0.8
1824,-3.2
1825,0
1826,0.8
1827,-4
1828,3.2
1829,0
1830,-3.2
1831,-1.6
1832,-3.2
1833,2.4
1834,-2.4
1835,2.4
1836,-0.8
1837,-1.6
1838,0
1839,-0.8
1840,-0.8
1841,-2.4
1842,0
1843,0
1844,-3.2
1845,-2.4
1846,0
1847,0
1848,-1.6
1849,0
1850,0.8
1851,-0.8
1852,1.6
1853,-3.2
1854,-1.6
1855,-3.2
1856,0
1857,2.4
1858,0.8
1859,0.8
1860,-1.6
1861,0
1862,-1.6
1863,-4
1864,0.8
1865,2.4
1866,-3.2
1867,0
1868,2.4
1869,1.6
1870,0.8
1871,-2.4
1872,0.8
1873,0.8
1874,-1.6
1875,0.8
1876,1.6
1877,-4
1878,4
1879,4
1880,-0.8
1881,-2.4
1882,0
1883,0
1884,-4
1885,-1.6
1886,-3.2
1887,-0.8
1888,-3.2
1889,0.8
1890,-0.8
1891,0
1892,-0.8
1893,2.4
1894,0
1895,2.4
1896,0.8
1897,3.2
1898,-1.6
1899,-0.8
1900,0.8
1901,0.8
1902,0
1903,-1.6
1904,-4
1905,-1.6
1906,2.4
1907,2.4
1908,-0.8
1909,0.8
1910,-0.8
1911,0
1912,2.4
1913,3.2
1914,2.4
1915,0.8
1916,0
1917,0.8
1918,-0.8
1919,-0.8
1920,-3.2
1921,-2.4
1922,1.6
1923,-0.8
1924,0.8
1925,0
1926,2.4
1927,0.8
1928,0
1929,0
1930,0
1931,0
1932,-2.4
1933,0
1934,2.4
1935,0
1936,-3.2
1937,-1.6
1938,2.4
1939,-3.2
1940,-0.8
1941,-2.4
1942,-1.6
1943,-1.6
1944,3.2
1945,-5.6
1946,-0.8
1947,0.8
1948,0.8
1949,0
1950,-1.6
1951,-0.8
1952,-2.4
1953,0
1954,-2.4
1955,0
1956,-4
1957,0
1958,0
1959,-3.2
1960,-0.8
1961,-3.2
1962,4
1963,2.4
1964,2.4
1965,-0.8
1966,1.6
1967,0.8
1968,0
1969,0.8
1970,-0.8
1971,0
1972,0
1973,7.2
1974,-0.8
1975,0
1976,-0.8
1977,0.8
1978,-1.6
1979,0
1980,3.2
1981,-0.8
1982,-4
1983,-0.8
1984,-1.6
1985,0
1986,0
1987,0.8
1988,0.8
1989,0
1990,-0.8
1991,-0.8
1992,2.4
1993,0
1994,-5.6
1995,0.8
1996,-3.2
1997,-0.8
1998,0
1999,0.8
2000,0
2001,0.8
2002,0
2003,0.8
2004,1.6
2005,-0.8
2006,0
2007,2.4
2008,-0.8
2009,0.8
2010,2.4
2011,-1.6
2012,0
2013,2.4
2014,0
2015,0.8
2016,2.4
2017,1.6
2018,2.4
2019,-5.6
2020,-0.8
2021,0.8
2022,2.4
2023,0.8
2024,-2.4
2025,-3.2
2026,4
2027,4
2028,-3.2
2029,2.4
2030,-4.8
2031,0
2032,0.8
2033,0
2034,-1.6
2035,0.8
2036,1.6
2037,-0.8
2038,-1.6
2039,-2.4
2040,0
2041,0
2042,0
2043,0
2044,5.6
2045,-3.2
2046,-4
2047,1.6
2048,-3.2
2049,0
2050,0
2051,0.8
2052,-0.8
2053,5.6
2054,0
2055,-2.4
2056,-0.8
2057,-0.8
2058,-0.8
2059,0
2060,-3.2
2061,0.8
2062,0.8
2063,-0.8
2064,-2.4
2065,-0.8
2066,2.4
2067,2.4
2068,4
2069,-4
2070,0
2071,-0.8
2072,-0.8
2073,2.4
2074,-0.8
2075,0.8
2076,2.4
2077,-0.8
2078,-3.2
2079,-1.6
2080,0.8
2081,0.8
2082,-3.2
2083,0
2084,-4
2085,0
2086,-0.8
2087,-0.8
2088,1.6
2089,-4
2090,2.4
2091,-0.8
2092,2.4
2093,3.2
2094,4
2095,-4
2096,-0.8
2097,4
2098,1.6
2099,0
2100,0
2101,0
2102,-0.8
2103,-1.6
2104,-3.2
2105,-3.2
2106,2.4
2107,2.4
2108,0
2109,-0.8
2110,-0.8
2111,2.4
2112,0.8
2113,0.8
2114,0
2115,3.2
2116,2.4
2117,0.8
2118,2.4
2119,0.8
2120,-1.6
2121,2.4
2122,-0.8
2123,3.2
2124,-4
2125,0
2126,-1.6
2127,-1.6
2128,3.2
2129,-3.2
2130,3.2
2131,-1.6
2132,0.8
2133,1.6
2134,2.4
2135,-3.2
2136,-1.6
2137,-2.4
2138,-2.4
2139,-1.6
2140,-1.6
2141,-0.8
2142,-3.2
2143,0
2144,-2.4
2145,-0.8
2146,-0.8
2147,-0.8
2148,0
2149,0
2150,2.4
2151,-4.8
2152,0.8
2153,0
2154,3.2
2155,-3.2
2156,-2.4
2157,0.8
2158,0
2159,0
2160,0.8
2161,0.8
2162,-1.6
2163,0
2164,0
2165,0
2166,0.8
2167,2.4
2168,0.8
2169,-3.2
2170,0
2171,7.2
2172,0
2173,5.6
2174,0.8
2175,-0.8
2176,2.4
2177,0
2178,2.4
2179,-0.8
2180,2.4
2181,0.8
2182,-2.4
2183,-3.2
2184,0.8
2185,0.8
2186,0.8
2187,0
2188,0
2189,-5.6
2190,0.8
2191,-1.6
2192,0.8
2193,2.4
2194,-0.8
2195,0
2196,0
2197,-4
2198,-1.6
2199,0.8
2200,-0.8
2201,1.6
2202,-0.8
2203,0
2204,4
2205,0.8
2206,2.4
2207,4
2208,-0.8
2209,0
2210,0
2211,2.4
2212,-0.8
2213,0
2214,-0.8
2215,-3.2
2216,2.4
2217,0
2218,0
2219,-4
2220,0
2221,-4
2222,0.8
2223,4
2224,0
2225,-0.8
2226,2.4
2227,0.8
2228,-0.8
2229,-3.2
2230,2.4
2231,-0.8
2232,11.2
2233,0
2234,2.4
2235,0
2236,0.8
2237,-4.8
2238,-3.2
2239,-4
2240,2.4
2241,0
2242,-3.2
2243,0.8
2244,0
2245,0
2246,-2.4
2247,0.8
2248,-2.4
2249,-1.6
2250,0
2251,-4
2252,-0.8
2253,0.8
2254,-4
2255,2.4
2256,2.4
2257,1.6
2258,0.8
2259,-1.6
2260,-0.8
2261,-3.2
2262,2.4
2263,-1.6
2264,-0.8
2265,-1.6
2266,-1.6
2267,0.8
2268,0.8
2269,0.8
2270,0
2271,0
2272,0.8
2273,0
2274,0.8
2275,2.4
2276,0
2277,0.8
2278,0
2279,-0.8
2280,4
2281,-0.8
2282,0.8
2283,0
2284,0
2285,0
2286,-1.6
2287,0
2288,2.4
2289,-0.8
2290,0
2291,0.8
2292,1.6
2293,0.8
2294,-3.2
2295,0.8
2296,1.6
2297,2.4
2298,0
2299,-3.2
2300,0.8
2301,0
2302,5.6
2303,-4
2304,-1.6
2305,2.4
2306,0
2307,-2.4
2308,0
2309,0.8
2310,0.8
2311,-4.8
2312,0
2313,2.4
2314,0
2315,2.4
2316,-3.2
2317,1.6
2318,0
2319,0.8
2320,2.4
2321,-0.8
2322,-0.8
2323,-0.8
2324,0.8
2325,0.8
2326,-0.8
2327,-3.2
2328,0
2329,-3.2
2330,0
2331,-1.6
2332,-3.2
2333,0.8
2334,-0.8
2335,1.6
2336,0.8
