data/raw/AB/ab4.csv

Channel              :,CH1
Frequency            :,	?
Period               :,  ?
PK-PK                :,148.0mV
Average              :,-0.240mV
Vertical pos         :,0.000000mV
Probe attenuation    :,1X
Voltage per ADC value:,0.050000mV
Time interval        :,400.00000uS

index,CH1_Voltage(mV)
1,-2.400000
2,-3.200000
3,0.000000
4,0.000000
5,-1.600000
6,-1.600000
7,0.000000
8,4.000000
9,0.000000
10,-1.600000
11,0.000000
12,0.000000
13,-1.600000
14,-1.600000
15,-2.400000
16,1.600000
17,5.600000
18,0.000000
19,2.400000
20,-5.600000
21,-3.200000
22,-1.600000
23,-1.600000
24,0.800000
25,1.600000
26,0.000000
27,-1.600000
28,4.000000
29,-6.400000
30,-2.400000
31,-1.600000
32,0.000000
33,2.400000
34,-1.600000
35,-3.200000
36,-8.000000
37,1.600000
38,0.000000
39,0.000000
40,-3.200000
41,-1.600000
42,-1.600000
43,0.000000
44,-3.200000
45,-4.000000
46,-1.600000
47,0.000000
48,0.000000
49,-1.600000
50,-1.600000
51,3.200000
52,-1.600000
53,0.000000
54,2.400000
55,0.000000
56,2.400000
57,-3.200000
58,-1.600000
59,-2.400000
60,2.400000
61,2.400000
62,0.800000
63,2.400000
64,3.200000
65,0.000000
66,1.600000
67,-2.400000
68,1.600000
69,-1.600000
70,-5.600000
71,-3.200000
72,-1.600000
73,0.000000
74,0.000000
75,0.000000
76,0.800000
77,-1.600000
78,3.200000
79,0.000000
80,0.000000
81,0.000000
82,-1.600000
83,-4.000000
84,0.000000
85,-1.600000
86,0.000000
87,1.600000
88,-1.600000
89,-1.600000
90,-3.200000
91,0.000000
92,-5.600000
93,2.400000
94,-3.200000
95,0.800000
96,0.800000
97,-1.600000
98,-3.200000
99,2.400000
100,0.000000
101,-3.200000
102,3.200000
103,0.000000
104,-1.600000
105,0.000000
106,1.600000
107,2.400000
108,1.600000
109,-1.600000
110,-5.600000
111,4.000000
112,2.400000
113,-1.600000
114,-1.600000
115,-4.000000
116,-3.200000
117,2.400000
118,0.000000
119,3.200000
120,-1.600000
121,3.200000
122,0.800000
123,-1.600000
124,-3.200000
125,0.000000
126,-1.600000
127,0.000000
128,-1.600000
129,-3.200000
130,-5.600000
131,0.000000
132,-1.600000
133,0.000000
134,-4.800000
135,-1.600000
136,-1.600000
137,0.800000
138,-1.600000
139,-1.600000
140,-1.600000
141,0.000000
142,-6.400000
143,1.600000
144,-1.600000
145,-1.600000
146,-1.600000
147,0.000000
148,-1.600000
149,0.800000
150,0.000000
151,0.000000
152,0.000000
153,0.000000
154,0.000000
155,0.000000
156,0.000000
157,0.000000
158,-1.600000
159,0.000000
160,0.000000
161,0.800000
162,0.000000
163,-1.600000
164,4.000000
165,-3.200000
166,-1.600000
167,1.600000
168,-1.600000
169,2.400000
170,-2.400000
171,0.000000
172,2.400000
173,0.000000
174,-3.200000
175,-5.600000
176,-1.600000
177,0.000000
178,1.600000
179,-4.000000
180,0.000000
181,0.000000
182,0.800000
183,0.800000
184,0.000000
185,-1.600000
186,-2.400000
187,2.400000
188,0.800000
189,-3.200000
190,-1.600000
191,-1.600000
192,0.000000
193,0.000000
194,0.000000
195,3.200000
196,0.000000
197,-1.600000
198,0.000000
199,-2.400000
200,0.000000
201,0.000000
202,4.000000
203,-1.600000
204,-2.400000
205,2.400000
206,-1.600000
207,2.400000
208,0.000000
209,1.600000
210,-1.600000
211,-1.600000
212,-3.200000
213,0.000000
214,4.000000
215,2.400000
216,1.600000
217,0.800000
218,-1.600000
219,0.000000
220,-1.600000
221,-1.600000
222,2.400000
223,0.000000
224,-1.600000
225,0.000000
226,0.800000
227,2.400000
228,0.000000
229,0.000000
230,2.400000
231,0.000000
232,-3.200000
233,-3.200000
234,0.800000
235,0.000000
236,-3.200000
237,-1.600000
238,2.400000
239,-4.000000
240,-1.600000
241,0.800000
242,-2.400000
243,0.000000
244,1.600000
245,0.000000
246,-1.600000
247,0.000000
248,0.000000
249,0.000000
250,2.400000
251,-1.600000
252,0.000000
253,-1.600000
254,-2.400000
255,0.000000
256,0.000000
257,0.000000
258,-1.600000
259,-1.600000
260,-2.400000
261,0.000000
262,0.000000
263,2.400000
264,0.000000
265,-1.600000
266,0.000000
267,2.400000
268,1.600000
269,0.000000
270,0.000000
271,-3.200000
272,0.000000
273,-1.600000
274,-1.600000
275,-2.400000
276,1.600000
277,2.400000
278,1.600000
279,-6.400000
280,0.000000
281,0.000000
282,0.800000
283,-3.200000
284,-2.400000
285,-1.600000
286,-3.200000
287,2.400000
288,-1.600000
289,-2.400000
290,-1.600000
291,0.000000
292,0.000000
293,-1.600000
294,-1.600000
295,-1.600000
296,2.400000
297,0.800000
298,-1.600000
299,0.800000
300,-1.600000
301,-1.600000
302,-3.200000
303,-1.600000
304,0.000000
305,1.600000
306,0.000000
307,-3.200000
308,-4.000000
309,-1.600000
310,-3.200000
311,0.000000
312,0.800000
313,2.400000
314,-1.600000
315,-4.000000
316,-1.600000
317,3.200000
318,5.600000
319,-2.400000
320,-2.400000
321,1.600000
322,0.000000
323,0.800000
324,-3.200000
325,0.000000
326,0.800000
327,0.800000
328,2.400000
329,-4.000000
330,-3.200000
331,-1.600000
332,-1.600000
333,1.600000
334,-2.400000
335,0.000000
336,-3.200000
337,2.400000
338,0.000000
339,-2.400000
340,-2.400000
341,-1.600000
342,-1.600000
343,1.600000
344,0.000000
345,-1.600000
346,-2.400000
347,-1.600000
348,0.000000
349,1.600000
350,0.000000
351,1.600000
352,-3.200000
353,-1.600000
354,2.400000
355,0.000000
356,-1.600000
357,0.000000
358,0.000000
359,0.000000
360,0.000000
361,-5.600000
362,0.800000
363,-1.600000
364,-1.600000
365,-4.000000
366,4.000000
367,0.000000
368,2.400000
369,2.400000
370,-1.600000
371,-1.600000
372,0.800000
373,0.000000
374,-2.400000
375,-3.200000
376,-3.200000
377,0.000000
378,2.400000
379,0.000000
380,0.000000
381,-2.400000
382,2.400000
383,1.600000
384,4.000000
385,-1.600000
386,-3.200000
387,-1.600000
388,0.000000
389,0.000000
390,-1.600000
391,2.400000
392,-1.600000
393,1.600000
394,4.000000
395,2.400000
396,-1.600000
397,0.000000
398,0.000000
399,0.000000
400,2.400000
401,2.400000
402,0.800000
403,0.000000
404,0.000000
405,1.600000
406,-4.000000
407,-1.600000
408,0.000000
409,0.000000
410,-3.200000
411,0.000000
412,-1.600000
413,0.000000
414,-1.600000
415,-3.200000
416,2.400000
417,-1.600000
418,-1.600000
419,-3.200000
420,-5.600000
421,-2.400000
422,-1.600000
423,0.000000
424,-3.200000
425,2.400000
426,0.000000
427,-2.400000
428,3.200000
429,-4.000000
430,0.000000
431,-2.400000
432,0.000000
433,-1.600000
434,-1.600000
435,-3.200000
436,-2.400000
437,0.000000
438,0.000000
439,-5.600000
440,2.400000
441,-1.600000
442,-3.200000
443,0.000000
444,2.400000
445,2.400000
446,0.000000
447,4.000000
448,0.000000
449,0.000000
450,-1.600000
451,-3.200000
452,-2.400000
453,-1.600000
454,2.400000
455,-1.600000
456,0.000000
457,-1.600000
458,0.000000
459,-1.600000
460,-2.400000
461,4.000000
462,0.000000
463,-1.600000
464,2.400000
465,0.000000
466,0.000000
467,7.200000
468,-1.600000
469,-5.600000
470,0.000000
471,2.400000
472,0.800000
473,-1.600000
474,0.000000
475,-5.600000
476,-1.600000
477,1.600000
478,1.600000
479,0.000000
480,-3.200000
481,-3.200000
482,-1.600000
483,-3.200000
484,0.000000
485,0.000000
486,-1.600000
487,0.000000
488,-1.600000
489,-1.600000
490,-1.600000
491,-3.200000
492,0.000000
493,3.200000
494,1.600000
495,2.400000
496,2.400000
497,4.000000
498,2.400000
499,-1.600000
500,-1.600000
501,-3.200000
502,-1.600000
503,0.000000
504,0.800000
505,0.800000
506,-3.200000
507,0.000000
508,0.000000
509,-1.600000
510,0.000000
511,0.800000
512,0.000000
513,0.000000
514,-1.600000
515,-3.200000
516,-1.600000
517,-6.400000
518,4.000000
519,-3.200000
520,-1.600000
521,-1.600000
522,-1.600000
523,-4.800000
524,-5.600000
525,-1.600000
526,0.000000
527,4.000000
528,0.000000
529,-5.600000
530,-1.600000
531,-2.400000
532,2.400000
533,1.600000
534,0.000000
535,0.000000
536,-5.600000
537,0.000000
538,0.000000
539,-1.600000
540,0.000000
541,-1.600000
542,2.400000
543,-1.600000
544,-4.000000
545,-4.000000
546,0.000000
547,-1.600000
548,0.000000
549,-1.600000
550,0.000000
551,1.600000
552,2.400000
553,-1.600000
554,0.000000
555,0.000000
556,-4.800000
557,-3.200000
558,0.000000
559,2.400000
560,3.200000
561,0.800000
562,2.400000
563,0.000000
564,-2.400000
565,3.200000
566,0.000000
567,0.000000
568,-1.600000
569,-1.600000
570,-5.600000
571,0.000000
572,-1.600000
573,1.600000
574,0.000000
575,-4.000000
576,-1.600000
577,0.000000
578,-3.200000
579,-3.200000
580,-1.600000
581,0.000000
582,2.400000
583,-1.600000
584,0.000000
585,1.600000
586,-3.200000
587,-1.600000
588,1.600000
589,0.000000
590,-1.600000
591,0.000000
592,0.000000
593,1.600000
594,-3.200000
595,0.000000
596,1.600000
597,0.000000
598,0.000000
599,-3.200000
600,0.800000
601,4.000000
602,0.000000
603,0.800000
604,1.600000
605,1.600000
606,1.600000
607,0.000000
608,-1.600000
609,-3.200000
610,-3.200000
611,0.000000
612,0.000000
613,2.400000
614,4.000000
615,-4.000000
616,-1.600000
617,0.800000
618,-1.600000
619,2.400000
620,0.800000
621,1.600000
622,0.000000
623,-1.600000
624,-1.600000
625,1.600000
626,0.800000
627,0.000000
628,0.000000
629,3.200000
630,1.600000
631,0.000000
632,-1.600000
633,-1.600000
634,-3.200000
635,-1.600000
636,-4.000000
637,2.400000
638,0.000000
639,-3.200000
640,-4.000000
641,-4.000000
642,-1.600000
643,0.000000
644,-3.200000
645,0.000000
646,-1.600000
647,2.400000
648,-1.600000
649,-2.400000
650,-2.400000
651,-2.400000
652,-3.200000
653,0.000000
654,0.000000
655,-1.600000
656,-3.200000
657,-1.600000
658,-1.600000
659,-1.600000
660,-1.600000
661,4.000000
662,1.600000
663,-2.400000
664,0.000000
665,-1.600000
666,1.600000
667,4.000000
668,3.200000
669,0.000000
670,0.000000
671,0.000000
672,0.000000
673,3.200000
674,-3.200000
675,-1.600000
676,-3.200000
677,-1.600000
678,3.200000
679,-4.000000
680,0.800000
681,-1.600000
682,2.400000
683,3.200000
684,0.000000
685,-1.600000
686,-3.200000
687,2.400000
688,0.000000
689,-4.800000
690,-1.600000
691,-2.400000
692,0.000000
693,-1.600000
694,2.400000
695,0.800000
696,-2.400000
697,0.000000
698,0.000000
699,-1.600000
700,-1.600000
701,-1.600000
702,0.000000
703,2.400000
704,0.000000
705,-1.600000
706,0.000000
707,2.400000
708,2.400000
709,2.400000
710,-1.600000
711,2.400000
712,3.200000
713,1.600000
714,-1.600000
715,0.000000
716,-3.200000
717,-1.600000
718,0.000000
719,2.400000
720,-4.000000
721,-3.200000
722,0.000000
723,-5.600000
724,-3.200000
725,-3.200000
726,-1.600000
727,1.600000
728,1.600000
729,-3.200000
730,0.000000
731,0.000000
732,2.400000
733,-1.600000
734,0.800000
735,-1.600000
736,-4.000000
737,-1.600000
738,-4.000000
739,0.000000
740,0.000000
741,-3.200000
742,-1.600000
743,-1.600000
744,2.400000
745,2.400000
746,1.600000
747,3.200000
748,-3.200000
749,0.000000
750,0.000000
751,-2.400000
752,2.400000
753,-1.600000
754,0.000000
755,4.000000
756,-1.600000
757,-2.400000
758,-1.600000
759,-3.200000
760,0.000000
761,-1.600000
762,-3.200000
763,0.000000
764,1.600000
765,-2.400000
766,-1.600000
767,-1.600000
768,0.000000
769,0.000000
770,2.400000
771,5.600000
772,-1.600000
773,-1.600000
774,-1.600000
775,0.000000
776,0.000000
777,2.400000
778,0.000000
779,0.000000
780,2.400000
781,-1.600000
782,-1.600000
783,-1.600000
784,-3.200000
785,0.000000
786,0.000000
787,0.000000
788,-3.200000
789,0.000000
790,-1.600000
791,0.000000
792,-1.600000
793,-1.600000
794,2.400000
795,0.000000
796,2.400000
797,-5.600000
798,-1.600000
799,0.000000
800,1.600000
801,-1.600000
802,-1.600000
803,0.000000
804,-3.200000
805,5.600000
806,0.000000
807,0.000000
808,-2.400000
809,3.200000
810,1.600000
811,3.200000
812,0.000000
813,4.000000
814,1.600000
815,1.600000
816,-1.600000
817,1.600000
818,-1.600000
819,-2.400000
820,-1.600000
821,-1.600000
822,-3.200000
823,2.400000
824,2.400000
825,4.000000
826,-1.600000
827,0.000000
828,-3.200000
829,0.000000
830,3.200000
831,0.000000
832,-2.400000
833,0.000000
834,0.000000
835,-1.600000
836,2.400000
837,-1.600000
838,-3.200000
839,-1.600000
840,-1.600000
841,-1.600000
842,0.000000
843,2.400000
844,4.000000
845,-3.200000
846,-1.600000
847,4.000000
848,0.000000
849,2.400000
850,0.000000
851,-1.600000
852,-1.600000
853,0.000000
854,-3.200000
855,-1.600000
856,-1.600000
857,1.600000
858,2.400000
859,-1.600000
860,0.000000
861,0.000000
862,-1.600000
863,-1.600000
864,0.000000
865,0.000000
866,-1.600000
867,0.000000
868,-1.600000
869,2.400000
870,-1.600000
871,-2.400000
872,0.000000
873,1.600000
874,1.600000
875,4.000000
876,-1.600000
877,-1.600000
878,2.400000
879,2.400000
880,4.000000
881,2.400000
882,-2.400000
883,-1.600000
884,-3.200000
885,-3.200000
886,0.800000
887,-3.200000
888,-2.400000
889,-1.600000
890,0.000000
891,-1.600000
892,-1.600000
893,1.600000
894,0.800000
895,0.000000
896,0.000000
897,-5.600000
898,-2.400000
899,1.600000
900,0.800000
901,-1.600000
902,-3.200000
903,-1.600000
904,2.400000
905,-1.600000
906,1.600000
907,0.000000
908,-1.600000
909,0.000000
910,0.800000
911,-3.200000
912,0.000000
913,4.000000
914,2.400000
915,0.000000
916,-2.400000
917,-1.600000
918,2.400000
919,0.000000
920,3.200000
921,-4.800000
922,1.600000
923,-1.600000
924,0.000000
925,1.600000
926,0.000000
927,-1.600000
928,-3.200000
929,0.000000
930,0.000000
931,-1.600000
932,-3.200000
933,0.000000
934,-1.600000
935,0.000000
936,-1.600000
937,3.200000
938,-3.200000
939,-1.600000
940,0.000000
941,-3.200000
942,0.000000
943,1.600000
944,1.600000
945,-3.200000
946,-3.200000
947,0.000000
948,-1.600000
949,-1.600000
950,3.200000
951,-2.400000
952,1.600000
953,-1.600000
954,-3.200000
955,-1.600000
956,1.600000
957,0.000000
958,-2.400000
959,0.000000
960,-1.600000
961,-1.600000
962,2.400000
963,2.400000
964,0.000000
965,2.400000
966,0.000000
967,-1.600000
968,1.600000
969,-2.400000
970,-1.600000
971,0.000000
972,-2.400000
973,0.800000
974,0.000000
975,2.400000
976,2.400000
977,2.400000
978,-2.400000
979,2.400000
980,0.000000
981,-2.400000
982,0.000000
983,-3.200000
984,0.000000
985,0.000000
986,-1.600000
987,0.000000
988,-1.600000
989,-1.600000
990,0.000000
991,0.000000
992,0.000000
993,0.000000
994,-2.400000
995,-3.200000
996,-4.800000
997,0.800000
998,2.400000
999,3.200000
1000,0.000000
1001,-1.600000
1002,2.400000
1003,-3.200000
1004,1.600000
1005,-1.600000
1006,-1.600000
1007,0.000000
1008,-2.400000
1009,0.000000
1010,0.000000
1011,-3.200000
1012,2.400000
1013,4.000000
1014,0.000000
1015,0.000000
1016,-3.200000
1017,-1.600000
1018,0.000000
1019,-4.800000
1020,0.000000
1021,1.600000
1022,-3.200000
1023,-1.600000
1024,0.000000
1025,0.000000
1026,-1.600000
1027,-5.600000
1028,0.000000
1029,0.000000
1030,-1.600000
1031,0.000000
1032,2.400000
1033,-1.600000
1034,-3.200000
1035,0.000000
1036,0.000000
1037,1.600000
1038,0.800000
1039,-3.200000
1040,-1.600000
1041,-1.600000
1042,-1.600000
1043,0.000000
1044,0.000000
1045,-1.600000
1046,-1.600000
1047,0.000000
1048,1.600000
1049,3.200000
1050,-1.600000
1051,-1.600000
1052,-3.200000
1053,-2.400000
1054,-3.200000
1055,-1.600000
1056,4.000000
1057,0.000000
1058,0.000000
1059,-1.600000
1060,0.000000
1061,-1.600000
1062,-1.600000
1063,2.400000
1064,2.400000
1065,-1.600000
1066,-1.600000
1067,-1.600000
1068,8.800000
1069,5.600000
1070,0.000000
1071,0.000000
1072,-1.600000
1073,-1.600000
1074,0.000000
1075,1.600000
1076,0.000000
1077,-3.200000
1078,0.000000
1079,-3.200000
1080,0.000000
1081,0.000000
1082,-1.600000
1083,1.600000
1084,-3.200000
1085,-2.400000
1086,0.000000
1087,0.000000
1088,-5.600000
1089,0.800000
1090,-2.400000
1091,-3.200000
1092,0.000000
1093,8.000000
1094,2.400000
1095,-1.600000
1096,-3.200000
1097,0.000000
1098,0.800000
1099,0.000000
1100,1.600000
1101,-3.200000
1102,0.000000
1103,2.400000
1104,0.000000
1105,-2.400000
1106,2.400000
1107,-1.600000
1108,-3.200000
1109,0.800000
1110,2.400000
1111,0.000000
1112,-1.600000
1113,2.400000
1114,0.800000
1115,0.000000
1116,1.600000
1117,0.000000
1118,1.600000
1119,3.200000
1120,4.000000
1121,-4.000000
1122,-1.600000
1123,-1.600000
1124,-1.600000
1125,2.400000
1126,0.000000
1127,0.000000
1128,1.600000
1129,0.800000
1130,2.400000
1131,0.000000
1132,-3.200000
1133,1.600000
1134,-4.000000
1135,-1.600000
1136,-2.400000
1137,-1.600000
1138,-1.600000
1139,-3.200000
1140,4.000000
1141,0.000000
1142,-1.600000
1143,3.200000
1144,0.800000
1145,-1.600000
1146,-3.200000
1147,0.000000
1148,-1.600000
1149,0.000000
1150,2.400000
1151,0.800000
1152,4.000000
1153,-1.600000
1154,2.400000
1155,-3.200000
1156,2.400000
1157,-1.600000
1158,0.000000
1159,0.000000
1160,-3.200000
1161,-1.600000
1162,-1.600000
1163,2.400000
1164,1.600000
1165,-1.600000
1166,2.400000
1167,1.600000
1168,-2.400000
1169,-1.600000
1170,-6.400000
1171,0.000000
1172,0.800000
1173,0.000000
1174,0.000000
1175,-3.200000
1176,0.000000
1177,2.400000
1178,-3.200000
1179,0.000000
1180,0.000000
1181,-1.600000
1182,-3.200000
1183,-3.200000
1184,-1.600000
1185,0.800000
1186,-4.800000
1187,0.800000
1188,-4.000000
1189,1.600000
1190,-1.600000
1191,-1.600000
1192,0.000000
1193,-1.600000
1194,-1.600000
1195,-3.200000
1196,-1.600000
1197,2.400000
1198,2.400000
1199,-1.600000
1200,-1.600000
1201,1.600000
1202,2.400000
1203,-2.400000
1204,0.800000
1205,-2.400000
1206,1.600000
1207,-2.400000
1208,-1.600000
1209,-1.600000
1210,0.000000
1211,-2.400000
1212,0.000000
1213,1.600000
1214,0.000000
1215,1.600000
1216,0.000000
1217,-4.800000
1218,0.800000
1219,0.000000
1220,-1.600000
1221,1.600000
1222,-1.600000
1223,-1.600000
1224,1.600000
1225,1.600000
1226,-4.000000
1227,0.000000
1228,-1.600000
1229,2.400000
1230,0.000000
1231,-3.200000
1232,-1.600000
1233,-2.400000
1234,-1.600000
1235,-3.200000
1236,-4.800000
1237,4.000000
1238,-6.400000
1239,0.000000
1240,0.000000
1241,-3.200000
1242,1.600000
1243,-1.600000
1244,0.000000
1245,0.800000
1246,-1.600000
1247,1.600000
1248,2.400000
1249,0.800000
1250,1.600000
1251,-1.600000
1252,-1.600000
1253,-1.600000
1254,0.800000
1255,0.000000
1256,0.000000
1257,-1.600000
1258,2.400000
1259,1.600000
1260,1.600000
1261,-1.600000
1262,-2.400000
1263,4.000000
1264,-1.600000
1265,-3.200000
1266,2.400000
1267,0.000000
1268,0.000000
1269,2.400000
1270,0.800000
1271,0.000000
1272,-3.200000
1273,-1.600000
1274,-3.200000
1275,-1.600000
1276,-1.600000
1277,0.000000
1278,-1.600000
1279,4.000000
1280,-4.800000
1281,-3.200000
1282,0.000000
1283,1.600000
1284,-1.600000
1285,0.000000
1286,-1.600000
1287,1.600000
1288,-3.200000
1289,-2.400000
1290,0.800000
1291,0.000000
1292,-1.600000
1293,-1.600000
1294,3.200000
1295,1.600000
1296,1.600000
1297,2.400000
1298,-1.600000
1299,0.000000
1300,0.000000
1301,0.000000
1302,1.600000
1303,0.000000
1304,0.800000
1305,-1.600000
1306,2.400000
1307,-1.600000
1308,4.000000
1309,0.000000
1310,-1.600000
1311,-1.600000
1312,0.000000
1313,4.000000
1314,2.400000
1315,0.000000
1316,-3.200000
1317,0.000000
1318,2.400000
1319,0.000000
1320,0.000000
1321,3.200000
1322,-4.000000
1323,0.000000
1324,-1.600000
1325,2.400000
1326,0.000000
1327,-3.200000
1328,4.000000
1329,0.000000
1330,0.000000
1331,-3.200000
1332,-1.600000
1333,-6.400000
1334,0.000000
1335,2.400000
1336,-1.600000
1337,-1.600000
1338,-2.400000
1339,-2.400000
1340,-1.600000
1341,0.000000
1342,-1.600000
1343,-3.200000
1344,-8.800000
1345,-1.600000
1346,-1.600000
1347,2.400000
1348,0.000000
1349,0.800000
1350,-1.600000
1351,-1.600000
1352,0.800000
1353,0.000000
1354,0.000000
1355,-5.600000
1356,-1.600000
1357,-1.600000
1358,2.400000
1359,0.800000
1360,-3.200000
1361,-3.200000
1362,-2.400000
1363,4.000000
1364,0.000000
1365,-1.600000
1366,-3.200000
1367,-2.400000
1368,0.000000
1369,-2.400000
1370,-1.600000
1371,0.800000
1372,4.000000
1373,-1.600000
1374,-1.600000
1375,-3.200000
1376,0.000000
1377,0.000000
1378,0.000000
1379,0.800000
1380,-1.600000
1381,-1.600000
1382,-3.200000
1383,-2.400000
1384,0.000000
1385,0.000000
1386,-1.600000
1387,0.000000
1388,-3.200000
1389,1.600000
1390,-1.600000
1391,-2.400000
1392,-1.600000
1393,-1.600000
1394,4.000000
1395,4.000000
1396,-4.800000
1397,2.400000
1398,-1.600000
1399,1.600000
1400,-1.600000
1401,0.800000
1402,1.600000
1403,-1.600000
1404,-1.600000
1405,-6.400000
1406,2.400000
1407,-1.600000
1408,0.000000
1409,2.400000
1410,-1.600000
1411,0.000000
1412,0.000000
1413,3.200000
1414,0.000000
1415,-1.600000
1416,-3.200000
1417,0.800000
1418,0.000000
1419,2.400000
1420,0.000000
1421,-3.200000
1422,0.000000
1423,-1.600000
1424,0.000000
1425,-1.600000
1426,-1.600000
1427,-1.600000
1428,1.600000
1429,-1.600000
1430,4.000000
1431,-1.600000
1432,-3.200000
1433,-4.800000
1434,2.400000
1435,0.000000
1436,0.000000
1437,-1.600000
1438,-1.600000
1439,1.600000
