data/raw/BD/bd1.csv

Channel              :,CH1
Frequency            :,"	?"
Period               :,  ?
PK-PK                :,1.632V?
Average              :,-16.66mV?
Vertical pos         :,-140.000000mV
Probe attenuation    :,1X
Voltage per ADC value:,0.500000mV
Time interval        :,2000.00000uS
,
index,CH1_Voltage(mV)
1,-36
2,-36
3,-12
4,-28
5,-20
6,-20
7,-12
8,-20
9,-20
10,-4
11,-20
12,-12
13,-28
14,-28
15,-4
16,-12
17,-12
18,-12
19,-12
20,-12
21,-4
22,-12
23,-4
24,-4
25,-28
26,-28
27,-4
28,-20
29,-12
30,-20
31,-20
32,-20
33,-20
34,-28
35,-12
36,-12
37,-4
38,-12
39,-12
40,-12
41,4
42,-4
43,-4
44,-4
45,-20
46,-12
47,-4
48,-4
49,-20
50,-20
51,-12
52,-20
53,-20
54,-36
55,-4
56,-28
57,-12
58,-20
59,-12
60,12
61,-12
62,-4
63,-12
64,-20
65,-36
66,-12
67,-12
68,-12
69,-12
70,-12
71,-12
72,-20
73,-36
74,-12
75,-20
76,-12
77,-12
78,-12
79,-12
80,-12
81,-20
82,-20
83,-12
84,-28
85,-28
86,-28
87,-20
88,-28
89,-4
90,-12
91,-12
92,-20
93,-12
94,-12
95,-28
96,-12
97,-28
98,-20
99,-12
100,-4
101,-20
102,-12
103,-4
104,12
105,-20
106,-36
107,-4
108,-12
109,-20
110,-28
111,-12
112,-20
113,-12
114,-20
115,20
116,-4
117,-28
118,-28
119,-28
120,-20
121,-20
122,-20
123,-20
124,-20
125,-20
126,-28
127,-20
128,-20
129,-28
130,-20
131,-4
132,-36
133,-20
134,-20
135,-12
136,-28
137,-12
138,-4
139,-12
140,-4
141,-12
142,-4
143,-12
144,-4
145,-20
146,20
147,-20
148,-4
149,-4
150,-12
151,-28
152,-12
153,-12
154,-28
155,-12
156,-4
157,-20
158,-12
159,-12
160,-20
161,-20
162,-20
163,-12
164,-20
165,-20
166,-4
167,-4
168,-20
169,-12
170,4
171,-20
172,-28
173,-12
174,-20
175,-20
176,-4
177,-28
178,-12
179,-28
180,-28
181,-20
182,-12
183,-12
184,-4
185,-28
186,-12
187,4
188,-20
189,-20
190,-4
191,-28
192,-4
193,-12
194,-28
195,-12
196,-12
197,-4
198,-12
199,4
200,-4
201,-12
202,-52
203,-28
204,-20
205,-20
206,-12
207,-20
208,-20
209,-4
210,-4
211,-12
212,-28
213,-28
214,-12
215,-12
216,-28
217,-12
218,-28
219,-28
220,12
221,-20
222,-28
223,-20
224,4
225,-36
226,-20
227,-36
228,-20
229,-12
230,-12
231,-12
232,-4
233,-4
234,-28
235,-28
236,-12
237,-28
238,-4
239,-4
240,-4
241,-20
242,-12
243,-20
244,-4
245,-20
246,-20
247,-12
248,4
249,-20
250,-28
251,-20
252,-28
253,-12
254,-20
255,-28
256,-28
257,-28
258,-28
259,-12
260,-12
261,-4
262,-12
263,-12
264,-20
265,-12
266,-20
267,-20
268,-12
269,-20
270,-4
271,-28
272,-20
273,-12
274,-20
275,-20
276,-28
277,-20
278,-12
279,-4
280,-12
281,-12
282,-4
283,4
284,-20
285,-20
286,-4
287,-20
288,-12
289,-20
290,-4
291,-12
292,-12
293,-12
294,-12
295,-12
296,-4
297,-12
298,-20
299,-28
300,-4
301,-12
302,-12
303,-28
304,-12
305,-4
306,-20
307,4
308,-12
309,-4
310,-4
311,-4
312,-12
313,-20
314,-4
315,-12
316,-28
317,-4
318,-4
319,-12
320,12
321,12
322,-12
323,-4
324,-20
325,-4
326,-4
327,-28
328,-20
329,-4
330,-20
331,-20
332,-36
333,-12
334,-20
335,-52
336,-12
337,-20
338,-12
339,-28
340,-4
341,-20
342,-20
343,-28
344,-20
345,-28
346,-20
347,-4
348,-20
349,-20
350,-20
351,-12
352,-12
353,-20
354,-28
355,-12
356,-12
357,-20
358,-20
359,-12
360,-20
361,4
362,-20
363,-12
364,-12
365,-20
366,-20
367,-12
368,-12
369,-12
370,-12
371,-36
372,-4
373,-12
374,-12
375,-4
376,-12
377,-20
378,-12
379,-20
380,-4
381,-12
382,-28
383,-4
384,-20
385,-28
386,-36
387,-20
388,-4
389,-4
390,-36
391,-28
392,-12
393,-28
394,-12
395,-20
396,-28
397,-12
398,-12
399,-28
400,-12
401,-20
402,-20
403,4
404,-20
405,-20
406,-12
407,-20
408,-4
409,-20
410,-4
411,-12
412,-4
413,-4
414,-28
415,-12
416,-20
417,-20
418,-12
419,-4
420,-4
421,-20
422,-12
423,-4
424,-28
425,-28
426,-4
427,-12
428,-4
429,-20
430,4
431,-4
432,-12
433,-28
434,-4
435,-20
436,-12
437,-12
438,-28
439,-20
440,-4
441,-20
442,-12
443,-28
444,-28
445,-20
446,-28
447,-12
448,4
449,-12
450,-12
451,-20
452,-12
453,-20
454,-4
455,-20
456,-12
457,-12
458,-12
459,-28
460,-4
461,-12
462,-4
463,-28
464,-20
465,-20
466,-12
467,-12
468,-20
469,-28
470,-20
471,-4
472,-28
473,-4
474,-12
475,-20
476,-12
477,-12
478,-12
479,-4
480,-20
481,-20
482,-12
483,-12
484,-4
485,-28
486,-20
487,-12
488,-12
489,-20
490,-28
491,-20
492,-20
493,-20
494,-4
495,-20
496,-12
497,-28
498,-20
499,-12
500,-20
501,-12
502,-20
503,-28
504,-12
505,-12
506,-20
507,-12
508,-4
509,-20
510,-12
511,-20
512,-4
513,-28
514,-20
515,-20
516,-28
517,-12
518,-20
519,-12
520,-12
521,-20
522,-12
523,-4
524,-12
525,-12
526,20
527,-12
528,-12
529,-4
530,-12
531,-12
532,-12
533,-12
534,-12
535,-4
536,-4
537,-4
538,-12
539,-4
540,-28
541,-20
542,-12
543,-28
544,-12
545,-4
546,-20
547,-12
548,-12
549,-20
550,4
551,-12
552,-12
553,-12
554,-28
555,-20
556,-12
557,-12
558,-12
559,-20
560,-12
561,4
562,-12
563,-4
564,-12
565,-36
566,-4
567,-4
568,-20
569,-12
570,-12
571,-12
572,-28
573,-20
574,-28
575,-20
576,-12
577,-20
578,-12
579,4
580,-12
581,-12
582,-28
583,-12
584,-28
585,-12
586,-4
587,-20
588,-12
589,-28
590,-12
591,-12
592,-4
593,-12
594,4
595,-20
596,-20
597,-12
598,-12
599,-12
600,-28
601,-12
602,-12
603,-4
604,-20
605,-12
606,-12
607,-12
608,-20
609,-20
610,-4
611,-20
612,-20
613,-20
614,-12
615,-20
616,-20
617,-12
618,-12
619,-20
620,-12
621,-4
622,-12
623,-12
624,-12
625,20
626,-20
627,4
628,-12
629,-20
630,-12
631,-4
632,-20
633,-20
634,4
635,-20
636,20
637,-4
638,-20
639,-4
640,-12
641,-36
642,-20
643,-12
644,-28
645,-20
646,-12
647,-4
648,-12
649,-20
650,-20
651,-20
652,12
653,-28
654,-20
655,-20
656,-28
657,-20
658,-12
659,-20
660,-20
661,-12
662,-20
663,-12
664,-12
665,-36
666,-20
667,-12
668,-20
669,-4
670,-28
671,-12
672,-12
673,-12
674,-12
675,-12
676,-28
677,-4
678,-20
679,-12
680,-28
681,-4
682,-28
683,-20
684,-28
685,-28
686,-20
687,-12
688,-28
689,-20
690,-4
691,-12
692,-20
693,36
694,-28
695,-28
696,-12
697,-12
698,-28
699,-20
700,-12
701,-4
702,-28
703,-28
704,-20
705,-28
706,-4
707,-28
708,-28
709,-20
710,-12
711,4
712,-20
713,-28
714,-68
715,-188
716,12
717,-28
718,-28
719,-12
720,-4
721,-20
722,4
723,-20
724,-12
725,12
726,4
727,-12
728,-20
729,-28
730,-4
731,-20
732,-4
733,-12
734,-12
735,-12
736,-20
737,-12
738,12
739,-12
740,-4
741,-12
742,-4
743,-20
744,-12
745,-12
746,-12
747,-20
748,-12
749,-4
750,4
751,-4
752,-4
753,-4
754,-20
755,4
756,-28
757,-12
758,-28
759,-4
760,-4
761,-12
762,-12
763,-28
764,-12
765,-12
766,-28
767,-28
768,-20
769,-4
770,-12
771,-12
772,-20
773,-12
774,-20
775,-12
776,-12
777,-12
778,-12
779,-4
780,-36
781,-4
782,-4
783,-20
784,-12
785,-12
786,-20
787,-20
788,-20
789,-4
790,-12
791,-20
792,-20
793,-20
794,-12
795,-20
796,-12
797,-20
798,-4
799,-12
800,-4
801,-28
802,-4
803,-4
804,-4
805,-12
806,-20
807,-4
808,-12
809,-20
810,-12
811,-36
812,-4
813,-4
814,-4
815,-4
816,4
817,-20
818,-4
819,-4
820,-4
821,20
822,-4
823,-20
824,-4
825,-12
826,-4
827,-4
828,-4
829,-12
830,-12
831,4
832,-20
833,4
834,-12
835,-20
836,-4
837,-4
838,4
839,-20
840,-20
841,-4
842,-4
843,-20
844,-28
845,-12
846,-12
847,-20
848,-4
849,-4
850,-20
851,-12
852,-4
853,-4
854,-4
855,-4
856,-12
857,-12
858,-12
859,-12
860,-12
861,-20
862,-12
863,-12
864,-4
865,-12
866,-12
867,-4
868,-20
869,-12
870,-4
871,4
872,-12
873,-12
874,-20
875,4
876,-12
877,-20
878,-20
879,-4
880,-12
881,-12
882,-12
883,-28
884,-20
885,-12
886,-12
887,4
888,-12
889,-4
890,-20
891,-4
892,-20
893,-12
894,-20
895,-12
896,-20
897,-20
898,-12
899,-4
900,-12
901,-12
902,-12
903,-12
904,-20
905,-20
906,-12
907,-20
908,-12
909,-4
910,-12
911,-4
912,-12
913,4
914,-12
915,-20
916,-4
917,-20
918,-4
919,-20
920,-4
921,12
922,-12
923,-12
924,-12
925,-12
926,-4
927,-12
928,-12
929,-28
930,-12
931,-36
932,-20
933,-12
934,-4
935,-36
936,-20
937,-20
938,-4
939,12
940,-12
941,-20
942,-4
943,-12
944,-20
945,-12
946,-12
947,-28
948,-4
949,-12
950,-20
951,-12
952,-12
953,-20
954,-60
955,-20
956,-28
957,-28
958,-20
959,-12
960,-12
961,-28
962,-28
963,-20
964,4
965,-12
966,-12
967,-12
968,-12
969,-20
970,-12
971,-4
972,-20
973,-12
974,-20
975,-20
976,-36
977,-12
978,-12
979,-12
980,-4
981,-20
982,20
983,-4
984,-28
985,-20
986,-20
987,-4
988,-4
989,-20
990,-12
991,-36
992,-20
993,-12
994,-20
995,-28
996,-4
997,-4
998,-20
999,-12
1000,-4
1001,-4
1002,-28
1003,-12
1004,-4
1005,-12
1006,-20
1007,-4
1008,-20
1009,-12
1010,-12
1011,-4
1012,-12
1013,4
1014,-12
1015,-12
1016,-4
1017,-12
1018,-20
1019,-12
1020,-12
1021,-4
1022,12
1023,-12
1024,-12
1025,-12
1026,-20
1027,-20
1028,-20
1029,-4
1030,-20
1031,-20
1032,-12
1033,-28
1034,-28
1035,-28
1036,-12
1037,-20
1038,-28
1039,-20
1040,-4
1041,-12
1042,-36
1043,-4
1044,-20
1045,-20
1046,-12
1047,-12
1048,-20
1049,-28
1050,-4
1051,4
1052,-20
1053,-28
1054,-4
1055,-28
1056,-4
1057,-12
1058,-4
1059,-20
1060,-12
1061,-20
1062,-4
1063,-4
1064,-4
1065,-36
1066,4
1067,-4
1068,-4
1069,-20
1070,-12
1071,-12
1072,-12
1073,-20
1074,-12
1075,-12
1076,-12
1077,-20
1078,-28
1079,4
1080,-4
1081,-12
1082,-20
1083,-20
1084,-28
1085,-20
1086,4
1087,-20
1088,-12
1089,12
1090,-12
1091,-4
1092,-12
1093,-12
1094,-12
1095,-28
1096,-12
1097,-20
1098,-12
1099,-4
1100,-4
1101,-12
1102,-20
1103,-20
1104,-20
1105,-20
1106,-20
1107,-12
1108,-20
1109,-4
1110,-12
1111,-4
1112,-12
1113,-12
1114,-12
1115,-20
1116,-12
1117,-12
1118,-12
1119,-20
1120,-28
1121,-12
1122,-28
1123,-20
1124,-28
1125,-28
1126,-12
1127,-12
1128,-12
1129,-12
1130,-28
1131,-28
1132,-20
1133,-4
1134,-28
1135,-20
1136,-4
1137,-20
1138,-12
1139,-4
1140,-12
1141,-20
1142,-4
1143,-4
1144,-12
1145,-12
1146,-20
1147,-12
1148,-4
1149,-12
1150,-20
1151,-12
1152,-28
1153,-4
1154,-20
1155,-12
1156,-12
1157,4
1158,-4
1159,-12
1160,-28
1161,-4
1162,-4
1163,-4
1164,-28
1165,-20
1166,-12
1167,-12
1168,-4
1169,-4
1170,-20
1171,-20
1172,-12
1173,-12
1174,-12
1175,-4
1176,-12
1177,-12
1178,-20
1179,-12
1180,-12
1181,-12
1182,-20
1183,-20
1184,-28
1185,-12
1186,-20
1187,-12
1188,-12
1189,-20
1190,-12
1191,-4
1192,-12
1193,-12
1194,-20
1195,-28
1196,-4
1197,-4
1198,-12
1199,-12
1200,-4
1201,-20
1202,-28
1203,-20
1204,-20
1205,-12
1206,-4
1207,-12
1208,-28
1209,-20
1210,-12
1211,12
1212,-20
1213,-12
1214,-12
1215,-4
1216,-28
1217,-12
1218,-20
1219,-12
1220,-20
1221,-12
1222,-12
1223,-12
1224,-20
1225,-12
1226,-20
1227,-28
1228,-12
1229,-20
1230,-12
1231,-20
1232,-20
1233,-4
1234,-20
1235,-12
1236,-20
1237,-20
1238,-12
1239,-36
1240,-28
1241,-28
1242,-12
1243,-20
1244,4
1245,-4
1246,-28
1247,4
1248,-20
1249,-20
1250,-4
1251,-12
1252,-20
1253,-4
1254,-12
1255,-20
1256,-20
1257,-28
1258,-20
1259,-20
1260,-12
1261,-12
1262,-20
1263,-20
1264,-20
1265,-28
1266,-20
1267,12
1268,-12
1269,-12
1270,-4
1271,-36
1272,4
1273,-12
1274,-20
1275,-20
1276,-12
1277,-20
1278,-4
1279,-12
1280,4
1281,-12
1282,-12
1283,-20
1284,-20
1285,-20
1286,-12
1287,-28
1288,-20
1289,-12
1290,-12
1291,-12
1292,4
1293,-28
1294,-12
1295,-28
1296,-12
1297,-12
1298,-12
1299,-12
1300,-12
1301,-20
1302,-20
1303,-28
1304,-20
1305,-12
1306,-12
1307,-12
1308,-20
1309,-4
1310,-12
1311,-20
1312,-4
1313,-12
1314,-20
1315,-20
1316,-12
1317,-12
1318,-20
1319,-28
1320,-36
1321,-12
1322,-12
1323,-20
1324,-12
1325,-20
1326,-20
1327,-20
1328,-12
1329,-20
1330,-52
1331,-20
1332,-20
1333,-28
1334,-12
1335,-36
1336,-20
1337,-20
1338,-12
1339,-20
1340,-12
1341,-28
1342,-36
1343,-20
1344,-28
1345,-28
1346,-20
1347,-20
1348,-12
1349,-12
1350,-12
1351,-20
1352,-12
1353,-12
1354,-28
1355,-28
1356,-12
1357,-28
1358,-36
1359,-28
1360,-12
1361,-20
1362,4
1363,-20
1364,-28
1365,-20
1366,-12
1367,-28
1368,-28
1369,-20
1370,-20
1371,-20
1372,-12
1373,-4
1374,-28
1375,-20
1376,-20
1377,-20
1378,-4
1379,-28
1380,-20
1381,-20
1382,-20
1383,-12
1384,-20
1385,-20
1386,-4
1387,-20
1388,20
1389,-12
1390,-12
1391,-36
1392,-12
1393,-28
1394,-28
1395,-12
1396,-4
1397,-12
1398,-12
1399,-20
1400,-12
1401,-4
1402,-20
1403,-20
1404,-20
1405,-12
1406,-20
1407,-12
1408,-28
1409,-20
1410,-4
1411,-20
1412,-20
1413,-20
1414,-28
1415,-20
1416,-20
1417,-4
1418,-12
1419,-12
1420,-4
1421,4
1422,-20
1423,-20
1424,-4
1425,-12
1426,-12
1427,-4
1428,-20
1429,-12
1430,-12
1431,-28
1432,-4
1433,-28
1434,-20
1435,-12
1436,-12
1437,4
1438,-12
1439,-4
1440,-4
1441,-28
1442,-12
1443,-12
1444,-20
1445,-28
1446,-20
1447,-28
1448,-12
1449,-20
1450,-28
1451,-12
1452,-12
1453,-20
1454,-20
1455,-28
1456,-12
1457,-20
1458,-4
1459,-20
1460,-12
1461,4
1462,-12
1463,12
1464,-28
1465,-20
1466,-4
1467,-28
1468,-28
1469,-12
1470,-28
1471,-12
1472,-20
1473,4
1474,-12
1475,-28
1476,-20
1477,-12
1478,-4
1479,-28
1480,-20
1481,-20
1482,-20
1483,-28
1484,-28
1485,-12
1486,-28
1487,-20
1488,-20
1489,-12
1490,-4
1491,-36
1492,-12
1493,-12
1494,-28
1495,-20
1496,-20
1497,-20
1498,-28
1499,-12
1500,-12
1501,-12
1502,-20
1503,-12
1504,-4
1505,-12
1506,-20
1507,-28
1508,-12
1509,-4
1510,-20
1511,-12
1512,-20
1513,-12
1514,-20
1515,-20
1516,-12
1517,4
1518,-20
1519,-4
1520,-20
1521,-12
1522,-28
1523,4
1524,-12
1525,-12
1526,-4
1527,-12
1528,-12
1529,-20
1530,-4
1531,-12
1532,4
1533,-4
1534,-4
1535,-20
1536,-4
1537,-4
1538,4
1539,-20
1540,20
1541,-4
1542,-28
1543,-4
1544,-20
1545,-20
1546,-52
1547,-20
1548,-12
1549,-12
1550,-12
1551,4
1552,-20
1553,4
1554,-20
1555,-20
1556,-12
1557,-12
1558,-12
1559,-12
1560,-12
1561,-12
1562,-20
1563,-12
1564,-4
1565,-28
1566,-28
1567,-28
1568,-20
1569,4
1570,-20
1571,-12
1572,-20
1573,-4
1574,-4
1575,-28
1576,-12
1577,-4
1578,4
1579,-12
1580,4
1581,-4
1582,-20
1583,-4
1584,-20
1585,-20
1586,-12
1587,-12
1588,-12
1589,-20
1590,-12
1591,-28
1592,4
1593,-20
1594,-28
1595,-12
1596,-12
1597,-20
1598,-20
1599,-20
1600,-12
1601,-20
1602,-12
1603,-28
1604,-20
1605,-36
1606,-20
1607,-12
1608,-28
1609,-28
1610,4
1611,4
1612,-4
1613,-20
1614,-20
1615,-12
1616,-36
1617,-4
1618,-12
1619,-12
1620,4
1621,-12
1622,-20
1623,-12
1624,-28
1625,-20
1626,4
1627,-20
1628,-12
1629,-4
1630,4
1631,-12
1632,-4
1633,-12
1634,-4
1635,-20
1636,-20
1637,-28
1638,-28
1639,-12
1640,-12
1641,-4
1642,-12
1643,-12
1644,-12
1645,-20
1646,-36
1647,-20
1648,-20
1649,-12
1650,-28
1651,-12
1652,4
1653,-28
1654,-28
1655,-20
1656,-20
1657,-20
1658,-20
1659,-12
1660,-20
1661,4
1662,-20
1663,-36
1664,-12
1665,-12
1666,-20
1667,-28
1668,-20
1669,-12
1670,-28
1671,-60
1672,-28
1673,-12
1674,-20
1675,-12
1676,-12
1677,-20
1678,-4
1679,-12
1680,-12
1681,-20
1682,4
1683,-28
1684,-12
1685,-12
1686,-12
1687,-28
1688,-4
1689,-20
1690,-12
1691,-4
1692,-20
1693,-12
1694,-20
1695,-36
1696,-28
1697,-28
1698,-12
1699,-12
1700,-4
1701,-4
1702,4
1703,-20
1704,-12
1705,-12
1706,-12
1707,-28
1708,-12
1709,-4
1710,-20
1711,-20
1712,-28
1713,-12
1714,-20
1715,-12
1716,-12
1717,-36
1718,-12
1719,-12
1720,-4
1721,-4
1722,-20
1723,-12
1724,-20
1725,-28
1726,-20
1727,-12
1728,-20
1729,-4
1730,-12
1731,-12
1732,-20
1733,-20
1734,-20
1735,-12
1736,-20
1737,-12
1738,-20
1739,-28
1740,-20
1741,-20
1742,-20
1743,-28
1744,-12
1745,-28
1746,-4
1747,-28
1748,-28
1749,-20
1750,-12
1751,-20
1752,-28
1753,-4
1754,-12
1755,-4
1756,-28
1757,-12
1758,-28
1759,-12
1760,4
1761,-12
1762,-12
1763,-12
1764,-20
1765,-12
1766,-20
1767,-20
1768,-20
1769,-12
1770,-28
1771,-20
1772,-28
1773,-20
1774,-12
1775,-28
1776,-20
1777,-20
1778,-12
1779,-20
1780,-20
1781,4
1782,-28
1783,-20
1784,-12
1785,-28
1786,-28
1787,-12
1788,-20
1789,-20
1790,-12
1791,-4
1792,-4
1793,-12
1794,-12
1795,-20
1796,-12
1797,-12
1798,-28
1799,-12
1800,-12
1801,-28
1802,-28
1803,-108
1804,36
1805,-92
1806,-12
1807,-20
1808,4
1809,-4
1810,-12
1811,-4
1812,-20
1813,-36
1814,-12
1815,-28
1816,-20
1817,-4
1818,-4
1819,4
1820,4
1821,-12
1822,12
1823,-12
1824,-4
1825,-28
1826,-12
1827,-12
1828,-4
1829,-4
1830,20
1831,4
1832,-12
1833,-20
1834,-12
1835,-20
1836,-12
1837,-12
1838,-36
1839,-4
1840,-4
1841,-20
1842,-20
1843,-12
1844,-12
1845,-12
1846,-20
1847,-4
1848,-20
1849,-20
1850,-28
1851,-12
1852,-28
1853,-12
1854,-12
1855,-28
1856,-28
1857,-12
1858,-20
1859,-12
1860,-12
1861,-20
1862,-12
1863,-20
1864,-20
1865,-20
1866,-28
1867,-4
1868,-12
1869,-4
1870,-12
1871,-20
1872,-12
1873,-4
1874,-12
1875,-20
1876,-12
1877,-20
1878,-12
1879,-12
1880,-4
1881,-12
1882,-28
1883,-4
1884,-28
1885,-12
1886,-28
1887,-20
1888,-20
1889,-4
1890,-20
1891,-12
1892,-4
1893,-20
1894,-28
1895,-28
1896,-12
1897,-12
1898,-12
1899,-12
1900,-4
1901,-12
1902,-12
1903,-12
1904,-12
1905,-12
1906,-12
1907,-12
1908,-20
1909,-12
1910,-20
1911,-4
1912,-12
1913,-28
1914,-20
1915,-28
1916,-20
1917,-20
1918,-20
1919,-28
1920,-4
1921,-12
1922,-20
1923,-12
1924,-12
1925,-4
1926,-36
1927,-36
1928,-12
1929,-4
1930,-12
1931,4
1932,-20
1933,-28
1934,-28
1935,-28
1936,4
1937,-12
1938,-20
1939,-20
1940,-4
1941,-12
1942,-36
1943,-12
1944,-20
1945,-20
1946,-20
1947,-28
1948,-20
1949,-12
1950,-12
1951,-20
1952,-20
1953,-28
1954,-12
1955,-4
1956,-4
1957,4
1958,-20
1959,-20
1960,-12
1961,-4
1962,-20
1963,-20
1964,-12
1965,-12
1966,-4
1967,-4
1968,-20
1969,-20
1970,-12
1971,-28
1972,-20
1973,-20
1974,-28
1975,-28
1976,-20
1977,-12
1978,-12
1979,-20
1980,-4
1981,-12
1982,-4
1983,-12
1984,-20
1985,-20
1986,-20
1987,-12
1988,-20
1989,-12
1990,-20
1991,-20
1992,-20
1993,-28
1994,-28
1995,-20
1996,-12
1997,-20
1998,-12
1999,-20
2000,-20
2001,-20
2002,-12
2003,-20
2004,-12
2005,-36
2006,-12
2007,-20
2008,-4
2009,-12
2010,-20
2011,-20
2012,-12
2013,-4
2014,-20
2015,-20
2016,-12
2017,-4
2018,-28
2019,-12
2020,-4
2021,-4
2022,-20
2023,-28
2024,-20
2025,-20
2026,-20
2027,-20
2028,-20
2029,-12
2030,-12
2031,-4
2032,-28
2033,-28
2034,-20
2035,-20
2036,-12
2037,-36
2038,-20
2039,-20
2040,-20
2041,-12
2042,-12
2043,-28
2044,-28
2045,-12
2046,-4
2047,-20
2048,-4
2049,-20
2050,-28
2051,-4
2052,-28
2053,-36
2054,-20
2055,-28
2056,-20
2057,-28
2058,-12
2059,-28
2060,-12
2061,-12
2062,-4
2063,-4
2064,-20
2065,-20
2066,-12
2067,-12
2068,-20
2069,-4
2070,4
2071,-4
2072,-4
2073,-12
2074,-20
2075,-28
2076,-28
2077,-12
2078,-4
2079,-4
2080,4
2081,-20
2082,-4
2083,-12
2084,-20
2085,-28
2086,-12
2087,4
2088,-20
2089,-4
2090,-20
2091,-4
2092,-12
2093,-4
2094,-20
2095,-20
2096,-12
2097,-20
2098,-12
2099,-12
2100,-12
2101,-12
2102,-28
2103,-4
2104,-12
2105,-36
2106,-20
2107,-12
2108,-12
2109,-20
2110,-12
2111,-36
2112,-28
2113,-28
2114,-12
2115,-36
2116,-12
2117,-20
2118,-12
2119,-12
2120,-4
2121,-28
2122,-20
2123,-12
2124,-28
2125,-28
2126,-20
2127,-12
2128,-12
2129,-28
2130,-20
2131,4
2132,-28
2133,-12
2134,-28
2135,-28
2136,-12
2137,-12
2138,-20
2139,-20
2140,-4
2141,-20
2142,-12
2143,-28
2144,-28
2145,-12
2146,-20
2147,-36
2148,-4
2149,-12
2150,-4
2151,-12
2152,-12
2153,-12
2154,-28
2155,-20
2156,4
2157,-12
2158,-28
2159,-4
2160,-28
2161,-12
2162,-20
2163,-20
2164,-20
2165,-36
2166,-20
2167,-12
2168,-4
2169,-20
2170,-20
2171,-4
2172,-20
2173,-28
2174,-28
2175,-12
2176,-36
2177,-20
2178,-12
2179,-12
2180,-12
2181,-20
2182,-28
2183,-12
2184,-28
2185,-20
2186,-20
2187,-28
2188,-4
2189,-12
2190,-12
2191,4
2192,-12
2193,-12
2194,-12
2195,-4
2196,-20
2197,-20
2198,-12
2199,-28
2200,-20
2201,-4
2202,-4
2203,-12
2204,4
2205,-12
2206,-28
2207,-28
2208,4
2209,-20
2210,-12
2211,-12
2212,-36
2213,-4
2214,-20
2215,-20
2216,12
2217,-12
2218,-20
2219,4
2220,-4
2221,-60
2222,-36
2223,12
2224,-4
2225,-20
2226,-12
2227,-20
2228,-28
2229,4
2230,20
2231,-12
2232,4
2233,-4
2234,4
2235,-20
2236,-12
2237,-20
2238,-4
2239,-12
2240,-4
2241,-12
2242,-12
2243,-12
2244,-20
2245,-12
2246,-12
2247,-12
2248,-12
2249,-12
2250,-4
2251,-12
2252,-4
2253,-12
2254,-4
2255,-4
2256,-12
2257,-36
2258,-20
2259,-4
2260,-12
2261,-12
2262,-28
2263,-28
2264,-20
2265,-12
2266,4
2267,-12
2268,-20
2269,-12
2270,-20
2271,-4
2272,-12
2273,-28
2274,-28
2275,-20
2276,-12
2277,-20
2278,-12
2279,-12
2280,-12
2281,-20
2282,-28
2283,-28
2284,-4
2285,-12
2286,-20
2287,-28
2288,-12
2289,-20
2290,-20
2291,-20
2292,-28
2293,-20
2294,-20
2295,-20
2296,-20
2297,-20
2298,-20
2299,-12
2300,-20
2301,-20
2302,-20
2303,-12
2304,-20
2305,-28
2306,-28
2307,-28
2308,-28
2309,-12
2310,12
2311,-12
2312,-12
2313,-20
2314,-28
2315,-12
2316,-12
2317,-12
2318,-20
2319,-4
2320,12
2321,4
2322,-4
2323,-28
2324,-4
2325,-36
2326,-4
2327,-12
2328,-20
2329,-4
2330,-4
2331,-28
2332,-20
2333,-28
2334,-20
2335,-12
2336,-20
2337,-20
2338,-20
2339,-4
2340,-12
2341,-12
2342,-20
2343,-28
2344,-12
2345,-20
2346,-20
2347,-20
2348,-20
2349,-4
2350,-12
2351,-20
2352,-28
2353,-12
2354,-12
2355,-28
2356,-20
2357,-4
2358,-28
2359,-12
2360,-12
2361,-12
2362,-20
2363,-20
2364,-20
2365,-20
2366,-4
2367,12
2368,-28
2369,-28
2370,-28
2371,-20
2372,-20
2373,-36
2374,-12
2375,-12
2376,-4
2377,-4
