data/raw/repeatability/5HZCD.csv

Channel              :,CH1
Frequency            :,"	?"
Period               :,  ?
PK-PK                :,282.0mV
Average              :,0.780mV
Vertical pos         :,-1.000000mV
Probe attenuation    :,1X
Voltage per ADC value:,0.125000mV
Time interval        :,400.00000uS
,
index,CH1_Voltage(mV)
1,9
2,9
3,-27
4,7
5,-25
6,13
7,-25
8,7
9,-33
10,-5
11,-3
12,-3
13,-9
14,-7
15,-5
16,-29
17,-3
18,-29
19,-3
20,-25
21,5
22,11
23,11
24,13
25,9
26,11
27,9
28,11
29,11
30,11
31,11
32,11
33,9
34,25
35,25
36,29
37,29
38,-17
39,21
40,-21
41,21
42,-21
43,21
44,-15
45,15
46,-23
47,9
48,-23
49,9
50,-21
51,9
52,-21
53,11
54,-25
55,9
56,-21
57,9
58,-21
59,-3
60,-41
61,-7
62,-33
63,-7
64,-31
65,-5
66,-11
67,1
68,5
69,-3
70,-9
71,5
72,-21
73,7
74,11
75,9
76,11
77,9
78,9
79,13
80,-23
81,9
82,-31
83,13
84,-19
85,29
86,-9
87,25
88,27
89,21
90,19
91,25
92,21
93,19
94,19
95,15
96,13
97,1
98,7
99,-23
100,9
101,-23
102,13
103,-13
104,7
105,7
106,7
107,-17
108,5
109,-33
110,-3
111,-19
112,-7
113,-7
114,-25
115,1
116,-37
117,1
118,-35
119,5
120,-25
121,7
122,-27
123,15
124,-31
125,11
126,-31
127,19
128,-21
129,9
130,-19
131,5
132,-23
133,13
134,-7
135,29
136,25
137,25
138,25
139,21
140,-13
141,21
142,-7
143,19
144,15
145,15
146,11
147,15
148,5
149,-19
150,9
151,-21
152,11
153,-21
154,11
155,-19
156,11
157,-21
158,11
159,-35
160,-3
161,-5
162,1
163,-5
164,1
165,-1
166,-35
167,1
168,-29
169,1
170,-25
171,5
172,-27
173,13
174,-23
175,13
176,-21
177,9
178,-21
179,7
180,9
181,9
182,7
183,1
184,19
185,25
186,29
187,25
188,25
189,19
190,21
191,25
192,-3
193,19
194,-15
195,21
196,-25
197,19
198,-31
199,15
200,11
201,13
202,11
203,-21
204,11
205,-21
206,11
207,-19
208,9
209,-25
210,-5
211,-33
212,-7
213,-29
214,1
215,-25
216,-7
217,1
218,1
219,1
220,7
221,9
222,-23
223,17
224,-23
225,11
226,-23
227,21
228,-21
229,17
230,13
231,-23
232,13
233,-23
234,19
235,-7
236,29
237,-7
238,21
239,-13
240,19
241,-7
242,19
243,-15
244,19
245,11
246,13
247,11
248,5
249,11
250,-15
251,9
252,-23
253,15
254,-23
255,11
256,-25
257,13
258,-21
259,9
260,-5
261,-41
262,-3
263,-43
264,7
265,-37
266,-5
267,-33
268,1
269,-33
270,1
271,-25
272,9
273,-23
274,15
275,-21
276,11
277,-17
278,9
279,-13
280,9
281,-17
282,15
283,-23
284,21
285,-5
286,33
287,31
288,31
289,19
290,29
291,27
292,27
293,25
294,31
295,25
296,19
297,15
298,-25
299,11
300,-21
301,13
302,-21
303,11
304,-23
305,13
306,-23
307,17
308,-15
309,5
310,-35
311,-3
312,-41
313,-3
314,-37
315,5
316,-3
317,5
318,1
319,-19
320,7
321,-25
322,15
323,25
324,13
325,21
326,11
327,13
328,17
329,13
330,13
331,-21
332,15
333,-19
334,21
335,1
336,31
337,5
338,25
339,-7
340,27
341,1
342,25
343,-13
344,25
345,-13
346,21
347,-29
348,19
349,-27
350,19
351,-23
352,21
353,-37
354,25
355,-35
356,17
357,-33
358,17
359,-31
360,-3
361,-43
362,-3
363,-43
364,5
365,-37
366,-3
367,-29
368,-5
369,-1
370,-9
371,11
372,-25
373,19
374,-27
375,19
376,25
377,19
378,13
379,25
380,19
381,25
382,21
383,27
384,21
385,41
386,-3
387,43
388,-13
389,27
390,-17
391,39
392,-19
393,31
394,25
395,15
396,15
397,15
398,15
399,-23
400,21
401,-29
402,21
403,-29
404,19
405,-33
406,25
407,-33
408,25
409,21
410,7
411,1
412,1
413,-3
414,7
415,5
416,1
417,1
418,-41
419,7
420,-35
421,15
422,-31
423,15
424,-23
425,13
426,-33
427,19
428,-41
429,25
430,21
431,25
432,25
433,33
434,29
435,-9
436,59
437,-17
438,63
439,-23
440,41
441,-9
442,35
443,-21
444,35
445,-23
446,31
447,-31
448,19
449,-29
450,19
451,-27
452,21
453,-37
454,29
455,-41
456,31
457,29
458,-9
459,29
460,-75
461,-1
462,11
463,-87
464,25
465,-79
466,1
467,-57
468,7
469,-59
470,15
471,-51
472,11
473,-41
474,25
475,-37
476,21
477,15
478,39
479,31
480,-43
481,31
482,-49
483,35
484,-51
485,53
486,-37
487,39
488,-67
489,19
490,-79
491,29
492,-63
493,17
494,-61
495,13
496,13
497,11
498,-41
499,15
500,-27
501,11
502,-43
503,-17
504,-111
505,-17
506,-5
507,5
508,-55
509,19
510,-99
511,-3
512,-107
513,19
514,27
515,-75
516,-3
517,-69
518,25
519,-73
520,19
521,-53
522,29
523,-19
524,39
525,-41
526,39
527,-41
528,25
529,-29
530,31
531,-29
532,33
533,-23
534,43
535,-5
536,91
537,-3
538,81
539,-31
540,69
541,85
542,63
543,61
544,-37
545,55
546,-47
547,43
548,-73
549,55
550,9
551,39
552,-33
553,39
554,-35
555,35
556,-41
557,39
558,-37
559,45
560,-91
561,-25
562,-91
563,-3
564,11
565,-59
566,-5
567,-47
568,-17
569,-59
570,29
571,-33
572,41
573,-29
574,53
575,-29
576,67
577,-27
578,61
579,-33
580,57
581,-49
582,67
583,-43
584,53
585,9
586,103
587,7
588,83
589,-25
590,75
591,73
592,-7
593,55
594,-9
595,43
596,-27
597,73
598,49
599,-37
600,45
601,-33
602,45
603,53
604,-37
605,61
606,-53
607,49
608,-59
609,87
610,19
611,-81
612,5
613,-69
614,21
615,-63
616,1
617,-63
618,1
619,-57
620,-43
621,19
622,-25
623,31
624,-31
625,33
626,-41
627,-37
628,33
629,-43
630,35
631,-47
632,33
633,-45
634,43
635,-23
636,67
637,-15
638,63
639,43
640,-13
641,47
642,-17
643,39
644,-19
645,35
646,-25
647,21
648,-21
649,13
650,-17
651,-37
652,29
653,29
654,-35
655,29
656,-37
657,27
658,-35
659,29
660,-59
661,13
662,-67
663,15
664,15
665,-37
666,1
667,-43
668,7
669,-41
670,17
671,-21
672,25
673,-21
674,19
675,-21
676,31
677,-35
678,31
679,25
680,-31
681,25
682,-29
683,31
684,-25
685,-3
686,55
687,-9
688,53
689,-21
690,43
691,-7
692,31
693,-7
694,33
695,-23
696,31
697,-29
698,25
699,15
700,-19
701,13
702,-19
703,21
704,-23
705,25
706,21
707,-25
708,21
709,-27
710,9
711,-53
712,9
713,-51
714,11
715,-41
716,1
717,-37
718,9
719,-37
720,9
721,-21
722,15
723,-13
724,13
725,-17
726,25
727,19
728,-21
729,21
730,-19
731,21
732,-25
733,25
734,-25
735,-9
736,49
737,-5
738,35
739,-3
740,33
741,1
742,29
743,-7
744,25
745,-7
746,15
747,-7
748,-13
749,19
750,-23
751,19
752,-15
753,31
754,-21
755,-21
756,21
757,-27
758,25
759,-27
760,-43
761,1
762,-37
763,5
764,-29
765,9
766,-1
767,-29
768,7
769,-25
770,7
771,-13
772,-23
773,19
774,-17
775,19
776,-21
777,21
778,-23
779,27
780,21
781,-21
782,15
783,-17
784,17
785,1
786,33
787,5
788,33
789,-5
790,29
791,9
792,25
793,-17
794,25
795,-7
796,21
797,-21
798,21
799,-15
800,13
801,-17
802,17
803,-23
804,21
805,-19
806,-17
807,19
808,-13
809,15
810,-29
811,1
812,-27
813,-3
814,-21
815,1
816,-27
817,5
818,-29
819,7
820,-21
821,11
822,-21
823,21
824,-21
825,21
826,-17
827,19
828,-17
829,21
830,-19
831,-13
832,13
833,-13
834,11
835,1
836,27
837,-3
838,33
839,-13
840,27
841,-5
842,29
843,25
844,-13
845,31
846,-19
847,21
848,-15
849,-13
850,15
851,-17
852,15
853,-11
854,15
855,-9
856,13
857,-13
858,15
859,-17
860,1
861,-31
862,-17
863,1
864,-21
865,9
866,-33
867,1
868,-27
869,5
870,-19
871,9
872,-13
873,11
874,-9
875,-17
876,15
877,-15
878,15
879,-15
880,17
881,-15
882,19
883,-19
884,19
885,-7
886,43
887,1
888,33
889,-9
890,31
891,-3
892,29
893,-7
894,-3
895,25
896,-9
897,9
898,-9
899,15
900,-15
901,-17
902,19
903,-21
904,17
905,-19
906,21
907,-21
908,21
909,-13
910,1
911,-29
912,1
913,-27
914,7
915,-27
916,-27
917,-3
918,-23
919,5
920,-23
921,11
922,-17
923,21
924,-19
925,15
926,-27
927,19
928,-21
929,15
930,-17
931,17
932,-15
933,15
934,-13
935,29
936,7
937,29
938,5
939,25
940,-7
941,35
942,-3
943,1
944,29
945,-9
946,29
947,-17
948,21
949,-19
950,21
951,-13
952,19
953,-19
954,15
955,-15
956,15
957,-11
958,15
959,-17
960,-3
961,-37
962,5
963,-45
964,15
965,-35
966,-17
967,11
968,-33
969,7
970,-23
971,11
972,-9
973,19
974,-15
975,19
976,-15
977,13
978,-3
979,21
980,-19
981,21
982,-23
983,21
984,-21
985,41
986,-5
987,47
988,1
989,33
990,35
991,-3
992,31
993,-5
994,35
995,-9
996,25
997,-21
998,17
999,-21
1000,25
1001,-27
1002,-21
1003,-19
1004,-23
1005,25
1006,-25
1007,31
1008,-25
1009,25
1010,-41
1011,-3
1012,-41
1013,-5
1014,-31
1015,5
1016,-37
1017,1
1018,-31
1019,5
1020,-29
1021,15
1022,-23
1023,-29
1024,29
1025,-31
1026,31
1027,-37
1028,39
1029,-27
1030,25
1031,-23
1032,25
1033,-21
1034,25
1035,7
1036,53
1037,7
1038,45
1039,1
1040,49
1041,-9
1042,49
1043,-11
1044,43
1045,-19
1046,39
1047,-41
1048,35
1049,-33
1050,35
1051,-31
1052,31
1053,-27
1054,29
1055,-27
1056,21
1057,-15
1058,25
1059,-27
1060,5
1061,-59
1062,5
1063,-57
1064,11
1065,-57
1066,15
1067,-71
1068,25
1069,-55
1070,11
1071,-41
1072,15
1073,-35
1074,-49
1075,41
1076,-35
1077,25
1078,-29
1079,-13
1080,-37
1081,39
1082,-41
1083,43
1084,-41
1085,81
1086,-13
1087,89
1088,-37
1089,25
1090,-51
1091,5
1092,-67
1093,5
1094,-75
1095,11
1096,-67
1097,-7
1098,-49
1099,7
1100,-47
1101,21
1102,-41
1103,5
1104,-91
1105,-33
1106,-63
1107,17
1108,-43
1109,-31
1110,7
1111,-73
1112,5
1113,-73
1114,17
1115,-67
1116,-3
1117,-55
1118,15
1119,-55
1120,31
1121,-49
1122,47
1123,-29
1124,53
1125,-35
1126,-37
1127,53
1128,-45
1129,55
1130,-45
1131,57
1132,-33
1133,43
1134,-29
1135,89
1136,11
1137,95
1138,9
1139,67
1140,9
1141,77
1142,9
1143,61
1144,5
1145,49
1146,-21
1147,53
1148,-35
1149,43
1150,-41
1151,53
1152,-23
1153,61
1154,-35
1155,-21
1156,101
1157,-41
1158,77
1159,-9
1160,39
1161,-47
1162,21
1163,-57
1164,33
1165,29
1166,-61
1167,17
1168,-45
1169,-33
1170,-47
1171,39
1172,-41
1173,55
1174,-23
1175,57
1176,-23
1177,67
1178,-21
1179,61
1180,9
1181,43
1182,-25
1183,47
1184,-29
1185,81
1186,1
1187,5
1188,69
1189,-3
1190,63
1191,-3
1192,1
1193,49
1194,-9
1195,49
1196,-35
1197,41
1198,-43
1199,33
1200,-43
1201,47
1202,-47
1203,47
1204,-41
1205,33
1206,-35
1207,31
1208,-29
1209,-41
1210,5
1211,-69
1212,5
1213,-53
1214,9
1215,-49
1216,15
1217,-55
1218,17
1219,-47
1220,27
1221,-41
1222,29
1223,-25
1224,41
1225,-37
1226,45
1227,-29
1228,29
1229,-29
1230,29
1231,-25
1232,33
1233,-23
1234,29
1235,9
1236,53
1237,5
1238,43
1239,1
1240,49
1241,-13
1242,49
1243,-15
1244,57
1245,-23
1246,39
1247,-31
1248,39
1249,-37
1250,35
1251,-27
1252,25
1253,-25
1254,25
1255,-21
1256,25
1257,-21
1258,21
1259,-17
1260,-3
1261,-37
1262,7
1263,-49
1264,15
1265,-45
1266,19
1267,-43
1268,21
1269,-43
1270,19
1271,-37
1272,39
1273,-21
1274,27
1275,-23
1276,27
1277,-19
1278,27
1279,-23
1280,25
1281,-9
1282,15
1283,-15
1284,-27
1285,7
1286,-13
1287,57
1288,-7
1289,53
1290,-7
1291,63
1292,-23
1293,53
1294,-21
1295,39
1296,-21
1297,45
1298,-21
1299,29
1300,-37
1301,25
1302,-23
1303,25
1304,-23
1305,17
1306,-19
1307,21
1308,-27
1309,21
1310,-37
1311,7
1312,-37
1313,-3
1314,-31
1315,7
1316,-37
1317,11
1318,-31
1319,11
1320,-17
1321,-37
1322,-19
1323,-13
1324,45
1325,-17
1326,25
1327,-19
1328,35
1329,-25
1330,25
1331,-27
1332,29
1333,-25
1334,31
1335,-7
1336,53
1337,-11
1338,59
1339,-5
1340,45
1341,-9
1342,39
1343,-9
1344,31
1345,-19
1346,25
1347,-11
1348,-5
1349,-45
1350,21
1351,-25
1352,21
1353,-17
1354,21
1355,-21
1356,13
1357,-27
1358,21
1359,-23
1360,5
1361,-37
1362,1
1363,-25
1364,9
1365,-27
1366,27
1367,-23
1368,7
1369,-23
1370,13
1371,-25
1372,-25
1373,29
1374,-37
1375,25
1376,-1
1377,29
1378,-29
1379,33
1380,-25
1381,25
1382,-23
1383,21
1384,-19
1385,35
1386,-5
1387,27
1388,1
1389,7
1390,1
1391,33
1392,7
1393,19
1394,-15
1395,29
1396,-3
1397,21
1398,-31
1399,25
1400,-21
1401,21
1402,-15
1403,-29
1404,33
1405,-25
1406,33
1407,-19
1408,15
1409,-25
1410,-3
1411,-35
1412,13
1413,-47
1414,15
1415,-37
1416,11
1417,-31
1418,25
1419,-25
1420,13
1421,-21
1422,19
1423,-19
1424,-17
1425,-9
1426,15
1427,-17
1428,7
1429,-13
1430,-19
1431,29
1432,-23
1433,25
1434,-23
1435,47
1436,-5
1437,49
1438,-13
1439,39
1440,1
1441,39
1442,-25
1443,29
1444,9
1445,21
1446,-9
1447,25
1448,-7
1449,15
1450,-13
1451,21
1452,-17
1453,17
1454,-17
1455,-29
1456,-7
1457,-33
1458,35
1459,-29
1460,15
1461,-41
1462,13
1463,-37
1464,13
1465,-33
1466,9
1467,-7
1468,29
1469,-23
1470,13
1471,-13
1472,19
1473,-27
1474,11
1475,-21
1476,19
1477,-21
1478,-41
1479,-21
1480,-29
1481,33
1482,-21
1483,29
1484,-21
1485,35
1486,-5
1487,35
1488,-3
1489,25
1490,-1
1491,35
1492,-5
1493,39
1494,-13
1495,27
1496,-13
1497,27
1498,-21
1499,39
1500,-31
1501,1
1502,-19
1503,21
1504,-21
1505,27
1506,-17
1507,19
1508,-13
1509,25
1510,-37
1511,7
1512,-41
1513,11
1514,-35
1515,15
1516,-45
1517,21
1518,-41
1519,15
1520,-15
1521,21
1522,-29
1523,21
1524,-19
1525,25
1526,-17
1527,19
1528,-15
1529,21
1530,-23
1531,35
1532,-29
1533,27
1534,-25
1535,53
1536,-3
1537,55
1538,-15
1539,39
1540,7
1541,47
1542,-3
1543,33
1544,-13
1545,45
1546,-19
1547,33
1548,-21
1549,13
1550,-41
1551,25
1552,-21
1553,25
1554,-27
1555,29
1556,-21
1557,29
1558,-29
1559,35
1560,-43
1561,5
1562,-41
1563,1
1564,-33
1565,-63
1566,-33
1567,-41
1568,13
1569,-37
1570,27
1571,-31
1572,33
1573,-45
1574,43
1575,-41
1576,35
1577,-33
1578,43
1579,-37
1580,29
1581,-37
1582,31
1583,-25
1584,31
1585,-3
1586,55
1587,-3
1588,43
1589,1
1590,45
1591,-7
1592,47
1593,-21
1594,43
1595,-21
1596,35
1597,-21
1598,39
1599,-35
1600,-53
1601,49
1602,-41
1603,41
1604,-41
1605,39
1606,-35
1607,39
1608,-25
1609,21
1610,-47
1611,11
1612,-59
1613,21
1614,-61
1615,9
1616,-55
1617,19
1618,-51
1619,27
1620,-71
1621,29
1622,-37
1623,47
1624,-29
1625,27
1626,-29
1627,35
1628,-37
1629,-35
1630,1
1631,-47
1632,53
1633,-45
1634,25
1635,-17
1636,81
1637,-25
1638,91
1639,-29
1640,109
1641,-23
1642,83
1643,-25
1644,35
1645,-85
1646,19
1647,-99
1648,-23
1649,-93
1650,-21
1651,-89
1652,-23
1653,-61
1654,21
1655,-99
1656,25
1657,-53
1658,21
1659,-83
1660,-47
1661,-141
1662,-91
1663,-75
1664,-91
1665,25
1666,-73
1667,29
1668,-59
1669,25
1670,-51
1671,39
1672,-57
1673,67
1674,-41
1675,63
1676,-49
1677,61
1678,-47
1679,61
1680,-55
1681,69
1682,-53
1683,61
1684,-35
1685,89
1686,7
1687,89
1688,9
1689,77
1690,1
1691,65
1692,-17
1693,67
1694,-13
1695,53
1696,-17
1697,57
1698,-37
1699,43
1700,-35
1701,-51
1702,-47
1703,-57
1704,-51
1705,-51
1706,113
1707,-63
1708,105
1709,83
1710,57
1711,-63
1712,63
1713,-59
1714,49
1715,-49
1716,57
1717,-55
1718,35
1719,-43
1720,41
1721,-9
1722,55
1723,-61
1724,69
1725,-33
1726,57
1727,-41
1728,55
1729,-35
1730,-63
1731,91
1732,-47
1733,83
1734,-3
1735,99
1736,1
1737,131
1738,9
1739,89
1740,7
1741,71
1742,1
1743,59
1744,-13
1745,87
1746,-27
1747,47
1748,-37
1749,49
1750,-57
1751,45
1752,-45
1753,49
1754,-57
1755,55
1756,-45
1757,45
1758,-41
1759,33
1760,-71
1761,9
1762,-95
1763,9
1764,-41
1765,5
1766,-43
1767,1
1768,-49
1769,21
1770,-53
1771,27
1772,-35
1773,-33
1774,53
1775,-47
1776,49
1777,-51
1778,53
1779,-43
1780,33
1781,-33
1782,33
1783,-29
1784,33
1785,1
1786,-25
1787,73
1788,-5
1789,53
1790,1
1791,45
1792,13
1793,53
1794,-21
1795,43
1796,-29
1797,25
1798,-43
1799,31
1800,-31
1801,-47
1802,49
1803,-43
1804,39
1805,-31
1806,33
1807,-31
1808,25
1809,-23
1810,-9
1811,-49
1812,-53
1813,7
1814,-45
1815,11
1816,-45
1817,15
1818,-41
1819,17
1820,-37
1821,-41
1822,33
1823,-41
1824,47
1825,-35
1826,27
1827,-23
1828,29
1829,-19
1830,-35
1831,41
1832,-33
1833,27
1834,-17
1835,53
1836,13
1837,39
1838,-3
1839,-9
1840,53
1841,-21
1842,49
1843,-13
1844,39
1845,-17
1846,53
1847,63
1848,-23
1849,25
1850,-23
1851,19
1852,-13
1853,29
1854,-19
1855,-31
1856,25
1857,-17
1858,13
1859,-25
1860,-41
1861,-41
1862,-51
1863,21
1864,-45
1865,19
1866,-37
1867,19
1868,-21
1869,-29
1870,29
1871,-35
1872,21
1873,-19
1874,25
1875,-27
1876,19
1877,25
1878,-17
1879,27
1880,-21
1881,25
1882,-21
1883,21
1884,-3
1885,-37
1886,47
1887,-7
1888,49
1889,-5
1890,43
1891,-3
1892,1
1893,49
1894,-31
1895,39
1896,-5
1897,17
1898,-21
1899,-13
1900,21
1901,-25
1902,25
1903,-21
1904,29
1905,-13
1906,-35
1907,39
1908,-31
1909,35
1910,-29
1911,5
1912,-35
1913,-47
1914,13
1915,-35
1916,21
1917,-33
1918,5
1919,-3
1920,-27
1921,21
1922,-51
1923,27
1924,-15
1925,13
1926,-17
1927,-41
1928,41
1929,-31
1930,21
1931,-21
1932,25
1933,-17
1934,-25
1935,43
1936,-19
1937,35
1938,1
1939,25
1940,1
1941,27
1942,45
1943,-15
1944,35
1945,-7
1946,25
1947,1
1948,25
1949,43
1950,-15
1951,5
1952,-21
1953,15
1954,-17
1955,19
1956,31
1957,-19
1958,11
1959,-17
1960,9
1961,1
1962,-3
1963,13
1964,-41
1965,13
1966,-23
1967,9
1968,-29
1969,11
1970,29
1971,-31
1972,19
1973,-9
1974,25
1975,-17
1976,13
1977,19
1978,-15
1979,15
1980,-33
1981,13
1982,-17
1983,17
1984,31
1985,-13
1986,33
1987,-7
1988,39
1989,-3
1990,21
1991,43
1992,-5
1993,25
1994,-5
1995,39
1996,-9
1997,13
1998,19
1999,-19
2000,1
2001,-17
2002,19
2003,-11
2004,17
2005,29
2006,-25
2007,25
2008,-21
2009,21
2010,7
2011,1
2012,15
2013,-33
2014,1
2015,-29
2016,5
2017,-25
2018,7
2019,19
2020,-25
2021,19
2022,-21
2023,19
2024,-7
2025,-23
2026,33
2027,-21
2028,39
2029,-15
2030,19
2031,-15
2032,-27
2033,25
2034,-13
2035,5
2036,5
2037,29
2038,-17
2039,5
2040,35
2041,-9
2042,31
2043,-9
2044,29
2045,-13
2046,-37
2047,25
2048,-31
2049,17
2050,-17
2051,17
2052,-13
2053,-31
2054,21
2055,-7
2056,19
2057,-19
2058,17
2059,-21
2060,-37
2061,13
2062,-37
2063,7
2064,-35
2065,11
2066,-31
2067,-41
2068,11
2069,-29
2070,19
2071,-27
2072,13
2073,-17
2074,-13
2075,11
2076,-13
2077,19
2078,-19
2079,15
2080,-19
2081,-21
2082,25
2083,-19
2084,27
2085,-5
2086,43
2087,1
2088,7
2089,35
2090,-3
2091,25
2092,-3
2093,27
2094,-1
2095,-9
2096,5
2097,-17
2098,13
2099,-25
2100,21
2101,-17
2102,-29
2103,25
2104,-33
2105,31
2106,-19
2107,11
2108,-19
2109,-23
2110,11
2111,-37
2112,1
2113,-35
2114,-15
2115,5
2116,-31
2117,5
2118,-33
2119,7
2120,-29
2121,15
2122,25
2123,-33
2124,41
2125,-29
2126,27
2127,-21
2128,-45
2129,39
2130,-25
2131,27
2132,-21
2133,21
2134,-15
2135,-15
2136,41
2137,7
2138,33
2139,-9
2140,47
2141,-13
2142,-21
2143,49
2144,-9
2145,49
2146,-27
2147,19
2148,-19
2149,-17
2150,39
2151,-29
2152,25
2153,-29
2154,27
2155,-19
2156,-31
2157,25
2158,-25
2159,33
2160,-43
2161,9
2162,-59
2163,-61
2164,13
2165,-61
2166,25
2167,-53
2168,13
2169,-43
2170,-41
2171,21
2172,-41
2173,21
2174,-13
2175,19
2176,-25
2177,-13
2178,35
2179,-37
2180,39
2181,-35
2182,39
2183,-41
2184,-45
2185,81
2186,-7
2187,65
2188,1
2189,77
2190,-13
2191,-25
2192,69
2193,-23
2194,25
2195,-51
2196,5
2197,-105
2198,-115
2199,-13
2200,-99
2201,1
2202,-87
2203,5
2204,-95
2205,-79
2206,21
2207,-43
2208,7
2209,-87
2210,-45
2211,-109
2212,-97
2213,-3
2214,-65
2215,5
2216,-51
2217,7
2218,-57
2219,-71
2220,-1
2221,-41
2222,45
2223,-53
2224,63
2225,-37
2226,-61
2227,53
2228,-33
2229,53
2230,-27
2231,39
2232,-27
2233,45
2234,73
2235,-17
2236,87
2237,27
2238,77
2239,19
2240,31
2241,7
2242,87
2243,-15
2244,71
2245,-31
2246,-35
2247,-21
2248,-33
2249,77
2250,-35
2251,63
2252,-45
2253,77
2254,-53
2255,63
2256,-33
2257,69
2258,-21
2259,69
2260,-27
2261,35
2262,-3
2263,31
2264,-41
2265,63
2266,-41
2267,33
2268,-59
2269,25
2270,-51
2271,49
2272,-35
2273,47
2274,-21
2275,-67
2276,97
2277,-47
2278,75
2279,-31
2280,39
2281,-5
2282,73
2283,-19
2284,47
2285,25
2286,89
2287,13
2288,71
2289,5
2290,-17
2291,85
2292,-25
2293,73
2294,-27
2295,67
2296,-35
2297,69
2298,-33
2299,35
2300,-43
2301,35
2302,-35
2303,-47
2304,43
2305,-41
2306,33
2307,-25
2308,21
2309,-27
2310,7
2311,25
2312,-75
2313,15
2314,-63
2315,17
2316,-55
2317,7
2318,-51
2319,-63
2320,43
2321,-55
2322,25
2323,-35
2324,39
2325,-23
2326,-37
2327,39
2328,-31
2329,31
2330,-19
2331,21
2332,-9
2333,-37
2334,33
2335,-15
2336,69
2337,-9
2338,53
2339,-9
2340,9
2341,61
2342,-25
2343,77
2344,-23
2345,39
2346,-21
2347,27
2348,41
2349,-21
2350,29
2351,-21
2352,35
2353,-23
2354,15
2355,19
2356,-27
2357,35
2358,-29
2359,33
2360,-37
2361,7
2362,17
2363,-61
2364,19
2365,-49
2366,1
2367,-45
2368,21
2369,21
2370,-37
2371,11
2372,-5
2373,21
2374,-15
2375,-19
2376,19
2377,-19
2378,27
2379,-25
2380,29
2381,-19
2382,-23
2383,39
2384,-9
2385,43
2386,-9
2387,49
2388,1
2389,-21
2390,41
2391,-9
2392,39
2393,5
2394,39
2395,-9
2396,-17
2397,17
2398,-9
2399,21
2400,-25
2401,19
2402,-3
2403,25
2404,-23
2405,-31
2406,33
2407,-31
2408,35
2409,-29
2410,15
2411,-35
2412,1
2413,25
2414,-45
2415,15
2416,-29
2417,-7
2418,-25
2419,1
2420,-13
2421,-35
2422,29
2423,-31
2424,25
2425,-19
2426,29
2427,-21
2428,-45
2429,39
2430,-25
2431,27
2432,-15
2433,21
2434,-13
2435,25
2436,53
2437,1
2438,29
2439,11
2440,31
2441,1
2442,1
2443,-7
2444,-21
2445,25
2446,-17
2447,25
2448,-21
2449,21
2450,-9
2451,-15
2452,25
2453,-17
2454,21
2455,-3
2456,11
2457,-9
2458,-21
2459,17
2460,-21
2461,7
2462,-33
2463,5
2464,-35
2465,-47
2466,17
2467,-59
2468,13
2469,-31
2470,13
2471,-19
2472,13
2473,35
2474,-17
2475,15
2476,-17
2477,17
2478,-13
2479,5
2480,5
2481,-21
2482,19
2483,-19
2484,21
2485,-17
2486,33
2487,-5
2488,-23
2489,35
2490,-9
2491,21
2492,-1
2493,25
2494,-5
2495,1
2496,25
2497,-5
2498,-5
2499,-3
2500,11
2501,5
2502,-31
